%!PS-Adobe-3.0 EPSF-3.0
%%DocumentNeededResources: font Helvetica
%%+ font Helvetica-Bold
%%+ font Helvetica-Oblique
%%+ font Helvetica-BoldOblique
%%+ font Symbol
%%Title: R Graphics Output
%%Creator: R Software
%%Pages: (atend)
%%BoundingBox: 0 0 432 324
%%EndComments
%%BeginProlog
/bp  { gs sRGB gs } def
% begin .ps.prolog
/gs  { gsave } bind def
/gr  { grestore } bind def
/ep  { showpage gr gr } bind def
/m   { moveto } bind def
/l  { rlineto } bind def
/np  { newpath } bind def
/cp  { closepath } bind def
/f   { fill } bind def
/o   { stroke } bind def
/c   { newpath 0 360 arc } bind def
/r   { 4 2 roll moveto 1 copy 3 -1 roll exch 0 exch rlineto 0 rlineto -1 mul 0 exch rlineto closepath } bind def
/p1  { stroke } bind def
/p2  { gsave bg fill grestore newpath } bind def
/p3  { gsave bg fill grestore stroke } bind def
/p6  { gsave bg eofill grestore newpath } bind def
/p7  { gsave bg eofill grestore stroke } bind def
/t   { 5 -2 roll moveto gsave rotate
       1 index stringwidth pop
       mul neg 0 rmoveto show grestore } bind def
/ta  { 4 -2 roll moveto gsave rotate show } bind def
/tb  { 2 -1 roll 0 rmoveto show } bind def
/cl  { grestore gsave newpath 3 index 3 index moveto 1 index
       4 -1 roll lineto  exch 1 index lineto lineto
       closepath clip newpath } bind def
/rgb { setrgbcolor } bind def
/s   { scalefont setfont } bind def
% end   .ps.prolog
/sRGB { [ /CIEBasedABC
          << /DecodeLMN
               [ { dup 0.03928 le
                        {12.92321 div}
                        {0.055 add 1.055 div 2.4 exp }
                     ifelse
                 } bind dup dup
               ]
             /MatrixLMN [0.412457 0.212673 0.019334
                         0.357576 0.715152 0.119192
                         0.180437 0.072175 0.950301]
             /WhitePoint [0.9505 1.0 1.0890]
           >>
         ] setcolorspace } bind def
/srgb { setcolor } bind def
%%IncludeResource: font Helvetica
/Helvetica findfont
dup length dict begin
  {1 index /FID ne {def} {pop pop} ifelse} forall
  /Encoding ISOLatin1Encoding def
  currentdict
  end
/Font1 exch definefont pop
%%IncludeResource: font Helvetica-Bold
/Helvetica-Bold findfont
dup length dict begin
  {1 index /FID ne {def} {pop pop} ifelse} forall
  /Encoding ISOLatin1Encoding def
  currentdict
  end
/Font2 exch definefont pop
%%IncludeResource: font Helvetica-Oblique
/Helvetica-Oblique findfont
dup length dict begin
  {1 index /FID ne {def} {pop pop} ifelse} forall
  /Encoding ISOLatin1Encoding def
  currentdict
  end
/Font3 exch definefont pop
%%IncludeResource: font Helvetica-BoldOblique
/Helvetica-BoldOblique findfont
dup length dict begin
  {1 index /FID ne {def} {pop pop} ifelse} forall
  /Encoding ISOLatin1Encoding def
  currentdict
  end
/Font4 exch definefont pop
%%IncludeResource: font Symbol
/Symbol findfont
dup length dict begin
  {1 index /FID ne {def} {pop pop} ifelse} forall
  currentdict
  end
/Font5 exch definefont pop
%%EndProlog
%%Page: 1 1
bp
0.00 0.00 432.00 324.00 cl
0.00 0.00 432.00 324.00 cl
0.00 0.00 432.00 324.00 cl
0.00 0.00 432.00 324.00 cl
0.00 0.00 432.00 324.00 cl
0.00 0.00 432.00 324.00 cl
0.00 0.00 432.00 324.00 cl
0.00 0.00 432.00 324.00 cl
/bg { 1 1 1 srgb } def
1 1 1 srgb
1.07 setlinewidth
[] 0 setdash
1 setlinecap
1 setlinejoin
10.00 setmiterlimit
0.00 0.00 432.00 324.00 r p3
0.00 0.00 432.00 324.00 cl
105.65 78.81 333.84 238.61 cl
/bg { 1 1 1 srgb } def
105.65 78.81 228.19 159.80 r p2
0 0 0 srgb
0.01 setlinewidth
[] 0 setdash
1 setlinecap
1 setlinejoin
10.00 setmiterlimit
np
 116.02 231.35 m
0.40 0 l
0.41 0 l
0.41 0 l
0.40 0 l
0.41 0 l
0.40 0 l
0.41 0 l
0.41 0 l
0.40 0 l
0.41 0 l
0.40 0 l
0.41 0 l
0.41 0 l
0.40 0 l
0.41 0 l
0.40 0 l
0.41 0 l
0.41 0 l
0.40 0 l
0.41 0 l
0.40 0 l
0.41 0 l
0.41 0 l
0.40 0 l
0.41 0 l
0.40 0 l
0.41 0 l
0.41 0 l
0.40 0 l
0.41 0 l
0.40 0 l
0.41 0 l
0.41 0 l
0.40 0 l
0.41 0 l
0.40 0 l
0.41 0 l
0.41 0 l
0.40 0 l
0.41 0 l
0.40 0 l
0.41 0 l
0.41 0 l
0.40 0 l
0.41 0 l
0.40 0 l
0.41 0 l
0.41 0 l
0.40 0 l
0.41 0 l
0.40 0 l
0.41 0 l
0.40 0 l
0.41 0 l
0.41 0 l
0.40 0 l
0.41 0 l
0.40 0 l
0.41 0 l
0.41 0 l
0.40 0 l
0.41 0 l
0.40 0 l
0.41 0 l
0.41 0 l
0.40 0 l
0.41 0 l
0.40 0 l
0.41 0 l
0.41 0 l
0.40 0 l
0.41 0 l
0.40 0 l
0.41 0 l
0.41 0 l
0.40 0 l
0.41 0 l
0.40 0 l
0.41 0 l
0.41 0 l
0.40 0 l
0.41 0 l
0.40 0 l
0.41 0 l
0.41 0 l
0.40 0 l
0.41 0 l
0.40 0 l
0.41 0 l
0.41 0 l
0.40 0 l
0.41 0 l
0.40 0 l
0.41 0 l
0.41 0 l
0.40 0 l
0.41 0 l
0.40 0 l
0.41 0 l
156.62 231.35 lineto
0.40 0 l
0.41 0 l
0.40 0 l
0.41 0 l
0.40 0 l
0.41 0 l
0.41 0 l
0.40 0 l
0.41 0 l
0.40 0 l
0.41 0 l
0.41 0 l
0.40 0 l
0.41 0 l
0.40 0 l
0.41 0 l
0.41 0 l
0.40 0 l
0.41 0 l
0.40 0 l
0.41 0 l
0.41 0 l
0.40 0 l
0.41 0 l
0.40 0 l
0.41 0 l
0.41 0 l
0.40 0 l
0.41 0 l
0.40 0 l
0.41 0 l
0.41 0 l
0.40 0 l
0.41 0 l
0.40 0 l
0.41 0 l
0.41 0 l
0.40 0 l
0.41 0 l
0.40 0 l
0.41 0 l
0.41 0 l
0.40 0 l
0.41 0 l
0.40 0 l
0.41 0 l
0.41 0 l
0.40 0 l
0.41 0 l
0.40 0 l
0.41 0 l
0.41 0 l
0.40 0 l
0.41 0 l
0.40 0 l
0.41 0 l
0.40 0 l
0.41 0 l
0.41 0 l
0.40 0 l
0.41 0 l
0.40 0 l
0.41 0 l
0.41 0 l
0.40 0 l
0.41 0 l
0.40 0 l
0.41 0 l
0.41 0 l
0.40 0 l
0.41 0 l
0.40 0 l
0.41 0 l
0.41 0 l
0.40 0 l
0.41 0 l
0.40 0 l
0.41 0 l
0.41 0 l
0.40 0 l
0.41 0 l
0.40 0 l
0.41 0 l
0.41 0 l
0.40 0 l
0.41 0 l
0.40 0 l
0.41 0 l
0.41 0 l
0.40 0 l
0.41 0 l
0.40 0 l
0.41 0 l
0.41 0 l
0.40 0 l
0.41 0 l
0.40 0 l
0.41 0 l
0.41 0 l
197.21 231.35 lineto
0.41 0 l
0.40 0 l
0.41 0 l
0.41 0 l
0.40 0 l
0.41 0 l
0.40 0 l
0.41 0 l
0.40 0 l
0.41 0 l
0.41 0 l
0.40 0 l
0.41 0 l
0.40 0 l
0.41 0 l
0.41 0 l
0.40 0 l
0.41 0 l
0.40 0 l
0.41 0 l
0.41 0 l
0.40 0 l
0.41 0 l
0.40 0 l
0.41 0 l
0.41 0 l
0.40 0 l
0.41 0 l
0.40 0 l
0.41 0 l
0.41 0 l
0.40 0 l
0.41 0 l
0.40 0 l
0.41 0 l
0.41 0 l
0.40 0 l
0.41 0 l
0.40 0 l
0.41 0 l
0.41 0 l
0.40 0 l
0.41 0 l
0.40 0 l
0.41 0 l
0.41 0 l
0.40 0 l
0.41 0 l
0.40 0 l
0.41 0 l
0.41 0 l
0.40 0 l
0.41 0 l
0.40 0 l
0.41 0 l
0.40 0 l
0.41 0 l
0.41 0 l
0.40 0 l
0.41 0 l
0.40 0 l
0.41 0 l
0.41 0 l
0.40 0 l
0.41 0 l
0.40 0 l
0.41 0 l
0.41 0 l
0.40 0 l
0.41 0 l
0.40 0 l
0.41 0 l
0.41 0 l
0.40 0 l
0.41 0 l
0.40 0 l
0.41 0 l
0.41 0 l
0.40 0 l
0.41 0 l
0.40 0 l
0.41 0 l
0.41 0 l
0.40 0 l
0.41 0 l
0.40 0 l
0.41 0 l
0.41 0 l
0.40 0 l
0.41 0 l
0.40 0 l
0.41 0 l
0.41 0 l
0.40 0 l
0.41 0 l
0.40 0 l
0.41 0 l
0.41 0 l
0.40 0 l
237.81 231.35 lineto
0.40 0 l
0.41 0 l
0.41 0 l
0.40 0 l
0.41 0 l
0.40 0 l
0.41 0 l
0.40 0 l
0.41 0 l
0.41 0 l
0.40 0 l
0.41 0 l
0.40 0 l
0.41 0 l
0.41 0 l
0.40 0 l
0.41 0 l
0.40 0 l
0.41 0 l
0.41 0 l
0.40 0 l
0.41 0 l
0.40 0 l
0.41 0 l
0.41 0 l
0.40 0 l
0.41 0 l
0.40 0 l
0.41 0 l
0.41 0 l
0.40 0 l
0.41 0 l
0.40 0 l
0.41 0 l
0.41 0 l
0.40 0 l
0.41 0 l
0.40 0 l
0.41 0 l
0.41 0 l
0.40 0 l
0.41 0 l
0.40 0 l
0.41 0 l
0.41 0 l
0.40 0 l
0.41 0 l
0.40 0 l
0.41 0 l
0.41 0 l
0.40 0 l
0.41 0 l
0.40 0 l
0.41 0 l
0.41 0 l
0.40 0 l
0.41 0 l
0.40 0 l
0.41 0 l
0.40 0 l
0.41 0 l
0.41 0 l
0.40 0 l
0.41 0 l
0.40 0 l
0.41 0 l
0.41 0 l
0.40 0 l
0.41 0 l
0.40 0 l
0.41 0 l
0.41 0 l
0.40 0 l
0.41 0 l
0.40 0 l
0.41 0 l
0.41 0 l
0.40 0 l
0.41 0 l
0.40 0 l
0.41 0 l
0.41 0 l
0.40 0 l
0.41 0 l
0.40 0 l
0.41 0 l
0.41 0 l
0.40 0 l
0.41 0 l
0.40 0 l
0.41 0 l
0.41 0 l
0.40 0 l
0.41 0 l
0.40 0 l
0.41 0 l
0.41 0 l
0.40 0 l
0.41 0 l
278.40 231.35 lineto
0.41 0 l
0.41 0 l
0.40 0 l
0.41 0 l
0.40 0 l
0.41 0 l
0.41 0 l
0.40 0 l
0.41 0 l
0.40 0 l
0.41 0 l
0.40 0 l
0.41 0 l
0.41 0 l
0.40 0 l
0.41 0 l
0.40 0 l
0.41 0 l
0.41 0 l
0.40 0 l
0.41 0 l
0.40 0 l
0.41 0 l
0.41 0 l
0.40 0 l
0.41 0 l
0.40 0 l
0.41 0 l
0.41 0 l
0.40 0 l
0.41 0 l
0.40 0 l
0.41 0 l
0.41 0 l
0.40 0 l
0.41 0 l
0.40 0 l
0.41 0 l
0.41 0 l
0.40 0 l
0.41 0 l
0.40 0 l
0.41 0 l
0.41 0 l
0.40 0 l
0.41 0 l
0.40 0 l
0.41 0 l
0.41 0 l
0.40 0 l
0.41 0 l
0.40 0 l
0.41 0 l
0.41 0 l
0.40 0 l
0.41 0 l
0.40 0 l
0.41 0 l
0.41 0 l
0.40 0 l
0.41 0 l
0.40 0 l
0.41 0 l
0.40 0 l
0.41 0 l
0.41 0 l
0.40 0 l
0.41 0 l
0.40 0 l
0.41 0 l
0.41 0 l
0.40 0 l
0.41 0 l
0.40 0 l
0.41 0 l
0.41 0 l
0.40 0 l
0.41 0 l
0.40 0 l
0.41 0 l
0.41 0 l
0.40 0 l
0.41 0 l
0.40 0 l
0.41 0 l
0.41 0 l
0.40 0 l
0.41 0 l
0.40 0 l
0.41 0 l
0.41 0 l
0.40 0 l
0.41 0 l
0.40 0 l
0.41 0 l
0.41 0 l
0.40 0 l
0.41 0 l
0.40 0 l
319.00 231.35 lineto
0.41 0 l
0.40 0 l
0.41 0 l
0.40 0 l
0.41 0 l
0.41 0 l
0.40 0 l
0.41 0 l
0.40 0 l
0.41 0 l
0.40 0 l
0 -0.16 l
-0.40 -0.06 l
-0.41 -0.07 l
-0.40 -0.10 l
-0.41 -0.13 l
-0.40 -0.17 l
-0.41 -0.22 l
-0.41 -0.29 l
-0.40 -0.35 l
-0.41 -0.44 l
-0.40 -0.52 l
-0.41 -0.63 l
-0.41 -0.72 l
-0.40 -0.82 l
-0.41 -0.94 l
-0.40 -1.01 l
-0.41 -1.06 l
-0.41 -1.10 l
-0.40 -1.10 l
-0.41 -1.09 l
-0.40 -1.05 l
-0.41 -1.02 l
-0.41 -0.95 l
-0.40 -0.87 l
-0.41 -0.79 l
-0.40 -0.70 l
-0.41 -0.62 l
-0.41 -0.54 l
-0.40 -0.45 l
-0.41 -0.37 l
-0.40 -0.28 l
-0.41 -0.21 l
-0.41 -0.13 l
-0.40 -0.06 l
-0.41 0 l
-0.40 0.07 l
-0.41 0.12 l
-0.41 0.15 l
-0.40 0.18 l
-0.41 0.18 l
-0.40 0.16 l
-0.41 0.13 l
-0.41 0.08 l
-0.40 -0.03 l
-0.41 -0.14 l
-0.40 -0.25 l
-0.41 -0.38 l
-0.41 -0.52 l
-0.40 -0.64 l
-0.41 -0.77 l
-0.40 -0.90 l
-0.41 -1.00 l
-0.40 -1.06 l
-0.41 -1.10 l
-0.41 -1.12 l
-0.40 -1.13 l
-0.41 -1.11 l
-0.40 -1.10 l
-0.41 -1.06 l
-0.41 -1.02 l
-0.40 -0.98 l
-0.41 -0.93 l
-0.40 -0.89 l
-0.41 -0.85 l
-0.41 -0.81 l
-0.40 -0.79 l
-0.41 -0.77 l
-0.40 -0.77 l
-0.41 -0.75 l
-0.41 -0.74 l
-0.40 -0.73 l
-0.41 -0.72 l
-0.40 -0.71 l
-0.41 -0.69 l
-0.41 -0.65 l
-0.40 -0.61 l
-0.41 -0.54 l
-0.40 -0.47 l
-0.41 -0.38 l
-0.41 -0.30 l
-0.40 -0.19 l
-0.41 -0.08 l
-0.40 0.03 l
-0.41 0.12 l
-0.41 0.20 l
-0.40 0.27 l
-0.41 0.31 l
-0.40 0.35 l
287.74 187.36 lineto
-0.41 0.35 l
-0.40 0.32 l
-0.41 0.28 l
-0.40 0.21 l
-0.41 0.15 l
-0.41 0.06 l
-0.40 -0.03 l
-0.41 -0.13 l
-0.40 -0.21 l
-0.41 -0.29 l
-0.41 -0.37 l
-0.40 -0.42 l
-0.41 -0.48 l
-0.40 -0.52 l
-0.41 -0.52 l
-0.40 -0.51 l
-0.41 -0.48 l
-0.41 -0.44 l
-0.40 -0.37 l
-0.41 -0.30 l
-0.40 -0.21 l
-0.41 -0.11 l
-0.41 -0.02 l
-0.40 0.06 l
-0.41 0.14 l
-0.40 0.21 l
-0.41 0.25 l
-0.41 0.29 l
-0.40 0.32 l
-0.41 0.31 l
-0.40 0.31 l
-0.41 0.28 l
-0.41 0.24 l
-0.40 0.20 l
-0.41 0.16 l
-0.40 0.10 l
-0.41 0.05 l
-0.41 0.01 l
-0.40 -0.02 l
-0.41 -0.06 l
-0.40 -0.07 l
-0.41 -0.08 l
-0.41 -0.09 l
-0.40 -0.07 l
-0.41 -0.04 l
-0.40 -0.02 l
-0.41 0.01 l
-0.41 0.05 l
-0.40 0.08 l
-0.41 0.12 l
-0.40 0.16 l
-0.41 0.19 l
-0.41 0.21 l
-0.40 0.23 l
-0.41 0.22 l
-0.40 0.23 l
-0.41 0.21 l
-0.41 0.18 l
-0.40 0.14 l
-0.41 0.11 l
-0.40 0.07 l
-0.41 0.02 l
-0.41 -0.03 l
-0.40 -0.08 l
-0.41 -0.13 l
-0.40 -0.18 l
-0.41 -0.22 l
-0.40 -0.24 l
-0.41 -0.27 l
-0.41 -0.29 l
-0.40 -0.30 l
-0.41 -0.30 l
-0.40 -0.30 l
-0.41 -0.29 l
-0.41 -0.26 l
-0.40 -0.25 l
-0.41 -0.21 l
-0.40 -0.18 l
-0.41 -0.15 l
-0.41 -0.11 l
-0.40 -0.07 l
-0.41 -0.03 l
-0.40 0 l
-0.41 0.04 l
-0.41 0.07 l
-0.40 0.09 l
-0.41 0.12 l
-0.40 0.15 l
-0.41 0.17 l
-0.41 0.18 l
-0.40 0.19 l
-0.41 0.20 l
-0.40 0.20 l
-0.41 0.20 l
-0.41 0.20 l
-0.40 0.19 l
-0.41 0.19 l
-0.40 0.17 l
-0.41 0.15 l
247.14 186.80 lineto
-0.40 0.12 l
-0.41 0.11 l
-0.40 0.09 l
-0.41 0.08 l
-0.41 0.06 l
-0.40 0.04 l
-0.41 0.03 l
-0.40 0.02 l
-0.41 0.01 l
-0.41 0 l
-0.40 -0.01 l
-0.41 -0.02 l
-0.40 -0.02 l
-0.41 -0.03 l
-0.41 -0.03 l
-0.40 -0.03 l
-0.41 -0.04 l
-0.40 -0.03 l
-0.41 -0.04 l
-0.40 -0.04 l
-0.41 -0.05 l
-0.41 -0.04 l
-0.40 -0.05 l
-0.41 -0.05 l
-0.40 -0.06 l
-0.41 -0.06 l
-0.41 -0.06 l
-0.40 -0.06 l
-0.41 -0.07 l
-0.40 -0.08 l
-0.41 -0.07 l
-0.41 -0.09 l
-0.40 -0.08 l
-0.41 -0.09 l
-0.40 -0.10 l
-0.41 -0.09 l
-0.41 -0.11 l
-0.40 -0.10 l
-0.41 -0.12 l
-0.40 -0.11 l
-0.41 -0.12 l
-0.41 -0.13 l
-0.40 -0.13 l
-0.41 -0.13 l
-0.40 -0.13 l
-0.41 -0.14 l
-0.41 -0.13 l
-0.40 -0.14 l
-0.41 -0.13 l
-0.40 -0.12 l
-0.41 -0.12 l
-0.41 -0.10 l
-0.40 -0.10 l
-0.41 -0.08 l
-0.40 -0.06 l
-0.41 -0.05 l
-0.41 -0.03 l
-0.40 -0.01 l
-0.41 0.01 l
-0.40 0.03 l
-0.41 0.05 l
-0.41 0.07 l
-0.40 0.09 l
-0.41 0.09 l
-0.40 0.11 l
-0.41 0.12 l
-0.41 0.12 l
-0.40 0.13 l
-0.41 0.12 l
-0.40 0.11 l
-0.41 0.11 l
-0.40 0.09 l
-0.41 0.08 l
-0.41 0.06 l
-0.40 0.04 l
-0.41 0.03 l
-0.40 0 l
-0.41 -0.01 l
-0.41 -0.03 l
-0.40 -0.05 l
-0.41 -0.05 l
-0.40 -0.07 l
-0.41 -0.07 l
-0.41 -0.07 l
-0.40 -0.07 l
-0.41 -0.06 l
-0.40 -0.05 l
-0.41 -0.04 l
-0.41 -0.02 l
-0.40 -0.01 l
-0.41 0.02 l
-0.40 0.04 l
-0.41 0.06 l
-0.41 0.08 l
-0.40 0.11 l
-0.41 0.13 l
-0.40 0.16 l
-0.41 0.17 l
-0.41 0.19 l
206.55 185.71 lineto
-0.41 0.23 l
-0.40 0.23 l
-0.41 0.24 l
-0.41 0.25 l
-0.40 0.25 l
-0.41 0.25 l
-0.40 0.25 l
-0.41 0.24 l
-0.41 0.24 l
-0.40 0.23 l
-0.41 0.21 l
-0.40 0.21 l
-0.41 0.18 l
-0.41 0.16 l
-0.40 0.15 l
-0.41 0.12 l
-0.40 0.10 l
-0.41 0.07 l
-0.40 0.04 l
-0.41 0.01 l
-0.41 -0.03 l
-0.40 -0.07 l
-0.41 -0.10 l
-0.40 -0.14 l
-0.41 -0.18 l
-0.41 -0.22 l
-0.40 -0.25 l
-0.41 -0.29 l
-0.40 -0.31 l
-0.41 -0.35 l
-0.41 -0.36 l
-0.40 -0.37 l
-0.41 -0.38 l
-0.40 -0.39 l
-0.41 -0.38 l
-0.41 -0.36 l
-0.40 -0.35 l
-0.41 -0.32 l
-0.40 -0.30 l
-0.41 -0.27 l
-0.41 -0.23 l
-0.40 -0.18 l
-0.41 -0.14 l
-0.40 -0.10 l
-0.41 -0.06 l
-0.41 -0.01 l
-0.40 0.03 l
-0.41 0.08 l
-0.40 0.12 l
-0.41 0.16 l
-0.41 0.19 l
-0.40 0.23 l
-0.41 0.25 l
-0.40 0.27 l
-0.41 0.29 l
-0.41 0.29 l
-0.40 0.30 l
-0.41 0.29 l
-0.40 0.27 l
-0.41 0.25 l
-0.41 0.23 l
-0.40 0.19 l
-0.41 0.16 l
-0.40 0.12 l
-0.41 0.06 l
-0.41 0.02 l
-0.40 -0.02 l
-0.41 -0.07 l
-0.40 -0.12 l
-0.41 -0.16 l
-0.40 -0.21 l
-0.41 -0.25 l
-0.41 -0.29 l
-0.40 -0.32 l
-0.41 -0.35 l
-0.40 -0.39 l
-0.41 -0.40 l
-0.41 -0.43 l
-0.40 -0.44 l
-0.41 -0.46 l
-0.40 -0.46 l
-0.41 -0.47 l
-0.41 -0.47 l
-0.40 -0.46 l
-0.41 -0.46 l
-0.40 -0.44 l
-0.41 -0.43 l
-0.41 -0.41 l
-0.40 -0.40 l
-0.41 -0.38 l
-0.40 -0.36 l
-0.41 -0.34 l
-0.41 -0.33 l
-0.40 -0.30 l
-0.41 -0.29 l
-0.40 -0.28 l
-0.41 -0.26 l
-0.41 -0.25 l
-0.40 -0.25 l
165.95 175.84 lineto
-0.40 -0.24 l
-0.41 -0.23 l
-0.41 -0.23 l
-0.40 -0.22 l
-0.41 -0.23 l
-0.40 -0.22 l
-0.41 -0.23 l
-0.41 -0.22 l
-0.40 -0.21 l
-0.41 -0.21 l
-0.40 -0.20 l
-0.41 -0.19 l
-0.41 -0.18 l
-0.40 -0.17 l
-0.41 -0.16 l
-0.40 -0.14 l
-0.41 -0.13 l
-0.41 -0.12 l
-0.40 -0.10 l
-0.41 -0.08 l
-0.40 -0.08 l
-0.41 -0.06 l
-0.40 -0.05 l
-0.41 -0.03 l
-0.41 -0.03 l
-0.40 -0.02 l
-0.41 -0.02 l
-0.40 -0.01 l
-0.41 -0.01 l
-0.41 -0.01 l
-0.40 -0.02 l
-0.41 -0.02 l
-0.40 -0.04 l
-0.41 -0.04 l
-0.41 -0.07 l
-0.40 -0.08 l
-0.41 -0.11 l
-0.40 -0.13 l
-0.41 -0.15 l
-0.41 -0.18 l
-0.40 -0.20 l
-0.41 -0.22 l
-0.40 -0.25 l
-0.41 -0.26 l
-0.41 -0.27 l
-0.40 -0.29 l
-0.41 -0.28 l
-0.40 -0.29 l
-0.41 -0.28 l
-0.41 -0.27 l
-0.40 -0.25 l
-0.41 -0.23 l
-0.40 -0.21 l
-0.41 -0.18 l
-0.41 -0.16 l
-0.40 -0.15 l
-0.41 -0.12 l
-0.40 -0.11 l
-0.41 -0.11 l
-0.41 -0.11 l
-0.40 -0.11 l
-0.41 -0.14 l
-0.40 -0.17 l
-0.41 -0.20 l
-0.41 -0.26 l
-0.40 -0.31 l
-0.41 -0.38 l
-0.40 -0.45 l
-0.41 -0.53 l
-0.41 -0.61 l
-0.40 -0.69 l
-0.41 -0.77 l
-0.40 -0.85 l
-0.41 -0.93 l
-0.40 -1.00 l
-0.41 -1.06 l
-0.41 -1.12 l
-0.40 -1.17 l
-0.41 -1.22 l
-0.40 -1.25 l
-0.41 -1.26 l
-0.41 -1.28 l
-0.40 -1.29 l
-0.41 -1.28 l
-0.40 -1.27 l
-0.41 -1.25 l
-0.41 -1.23 l
-0.40 -1.19 l
-0.41 -1.16 l
-0.40 -1.13 l
-0.41 -1.08 l
-0.41 -1.03 l
-0.40 -0.98 l
-0.41 -0.94 l
-0.40 -0.90 l
-0.41 -0.85 l
-0.41 -0.82 l
-0.40 -0.77 l
-0.41 -0.73 l
125.36 132.38 lineto
-0.41 -0.68 l
-0.41 -0.64 l
-0.40 -0.62 l
-0.41 -0.61 l
-0.40 -0.58 l
-0.41 -0.56 l
-0.41 -0.56 l
-0.40 -0.55 l
-0.41 -0.55 l
-0.40 -0.54 l
-0.41 -0.55 l
-0.41 -0.54 l
-0.40 -0.56 l
-0.41 -0.57 l
-0.40 -0.58 l
-0.41 -0.60 l
-0.41 -0.62 l
-0.40 -0.64 l
-0.41 -0.66 l
-0.40 -0.71 l
-0.41 -0.74 l
-0.41 -0.78 l
-0.40 -0.83 l
cp p1
np
 116.02 118.11 m
0.40 0.83 l
0.41 0.78 l
0.41 0.74 l
0.40 0.71 l
0.41 0.66 l
0.40 0.64 l
0.41 0.62 l
0.41 0.60 l
0.40 0.58 l
0.41 0.57 l
0.40 0.56 l
0.41 0.54 l
0.41 0.55 l
0.40 0.54 l
0.41 0.55 l
0.40 0.55 l
0.41 0.56 l
0.41 0.56 l
0.40 0.58 l
0.41 0.61 l
0.40 0.62 l
0.41 0.64 l
0.41 0.68 l
0.40 0.69 l
0.41 0.73 l
0.40 0.77 l
0.41 0.82 l
0.41 0.85 l
0.40 0.90 l
0.41 0.94 l
0.40 0.98 l
0.41 1.03 l
0.41 1.08 l
0.40 1.13 l
0.41 1.16 l
0.40 1.19 l
0.41 1.23 l
0.41 1.25 l
0.40 1.27 l
0.41 1.28 l
0.40 1.29 l
0.41 1.28 l
0.41 1.26 l
0.40 1.25 l
0.41 1.22 l
0.40 1.17 l
0.41 1.12 l
0.41 1.06 l
0.40 1.00 l
0.41 0.93 l
0.40 0.85 l
0.41 0.77 l
0.40 0.69 l
0.41 0.61 l
0.41 0.53 l
0.40 0.45 l
0.41 0.38 l
0.40 0.31 l
0.41 0.26 l
0.41 0.20 l
0.40 0.17 l
0.41 0.14 l
0.40 0.11 l
0.41 0.11 l
0.41 0.11 l
0.40 0.11 l
0.41 0.12 l
0.40 0.15 l
0.41 0.16 l
0.41 0.18 l
0.40 0.21 l
0.41 0.23 l
0.40 0.25 l
0.41 0.27 l
0.41 0.28 l
0.40 0.29 l
0.41 0.28 l
0.40 0.29 l
0.41 0.27 l
0.41 0.26 l
0.40 0.25 l
0.41 0.22 l
0.40 0.20 l
0.41 0.18 l
0.41 0.15 l
0.40 0.13 l
0.41 0.11 l
0.40 0.08 l
0.41 0.07 l
0.41 0.04 l
0.40 0.04 l
0.41 0.02 l
0.40 0.02 l
0.41 0.01 l
0.41 0.01 l
0.40 0.01 l
0.41 0.02 l
0.40 0.02 l
0.41 0.03 l
156.62 171.94 lineto
0.40 0.05 l
0.41 0.06 l
0.40 0.08 l
0.41 0.08 l
0.40 0.10 l
0.41 0.12 l
0.41 0.13 l
0.40 0.14 l
0.41 0.16 l
0.40 0.17 l
0.41 0.18 l
0.41 0.19 l
0.40 0.20 l
0.41 0.21 l
0.40 0.21 l
0.41 0.22 l
0.41 0.23 l
0.40 0.22 l
0.41 0.23 l
0.40 0.22 l
0.41 0.23 l
0.41 0.23 l
0.40 0.24 l
0.41 0.24 l
0.40 0.25 l
0.41 0.25 l
0.41 0.26 l
0.40 0.28 l
0.41 0.29 l
0.40 0.30 l
0.41 0.33 l
0.41 0.34 l
0.40 0.36 l
0.41 0.38 l
0.40 0.40 l
0.41 0.41 l
0.41 0.43 l
0.40 0.44 l
0.41 0.46 l
0.40 0.46 l
0.41 0.47 l
0.41 0.47 l
0.40 0.46 l
0.41 0.46 l
0.40 0.44 l
0.41 0.43 l
0.41 0.40 l
0.40 0.39 l
0.41 0.35 l
0.40 0.32 l
0.41 0.29 l
0.41 0.25 l
0.40 0.21 l
0.41 0.16 l
0.40 0.12 l
0.41 0.07 l
0.40 0.02 l
0.41 -0.02 l
0.41 -0.06 l
0.40 -0.12 l
0.41 -0.16 l
0.40 -0.19 l
0.41 -0.23 l
0.41 -0.25 l
0.40 -0.27 l
0.41 -0.29 l
0.40 -0.30 l
0.41 -0.29 l
0.41 -0.29 l
0.40 -0.27 l
0.41 -0.25 l
0.40 -0.23 l
0.41 -0.19 l
0.41 -0.16 l
0.40 -0.12 l
0.41 -0.08 l
0.40 -0.03 l
0.41 0.01 l
0.41 0.06 l
0.40 0.10 l
0.41 0.14 l
0.40 0.18 l
0.41 0.23 l
0.41 0.27 l
0.40 0.30 l
0.41 0.32 l
0.40 0.35 l
0.41 0.36 l
0.41 0.38 l
0.40 0.39 l
0.41 0.38 l
0.40 0.37 l
0.41 0.36 l
0.41 0.35 l
0.40 0.31 l
0.41 0.29 l
0.40 0.25 l
0.41 0.22 l
0.41 0.18 l
197.21 189.17 lineto
0.41 0.10 l
0.40 0.07 l
0.41 0.03 l
0.41 -0.01 l
0.40 -0.04 l
0.41 -0.07 l
0.40 -0.10 l
0.41 -0.12 l
0.40 -0.15 l
0.41 -0.16 l
0.41 -0.18 l
0.40 -0.21 l
0.41 -0.21 l
0.40 -0.23 l
0.41 -0.24 l
0.41 -0.24 l
0.40 -0.25 l
0.41 -0.25 l
0.40 -0.25 l
0.41 -0.25 l
0.41 -0.24 l
0.40 -0.23 l
0.41 -0.23 l
0.40 -0.21 l
0.41 -0.19 l
0.41 -0.17 l
0.40 -0.16 l
0.41 -0.13 l
0.40 -0.11 l
0.41 -0.08 l
0.41 -0.06 l
0.40 -0.04 l
0.41 -0.02 l
0.40 0.01 l
0.41 0.02 l
0.41 0.04 l
0.40 0.05 l
0.41 0.06 l
0.40 0.07 l
0.41 0.07 l
0.41 0.07 l
0.40 0.07 l
0.41 0.05 l
0.40 0.05 l
0.41 0.03 l
0.41 0.01 l
0.40 0 l
0.41 -0.03 l
0.40 -0.04 l
0.41 -0.06 l
0.41 -0.08 l
0.40 -0.09 l
0.41 -0.11 l
0.40 -0.11 l
0.41 -0.12 l
0.40 -0.13 l
0.41 -0.12 l
0.41 -0.12 l
0.40 -0.11 l
0.41 -0.09 l
0.40 -0.09 l
0.41 -0.07 l
0.41 -0.05 l
0.40 -0.03 l
0.41 -0.01 l
0.40 0.01 l
0.41 0.03 l
0.41 0.05 l
0.40 0.06 l
0.41 0.08 l
0.40 0.10 l
0.41 0.10 l
0.41 0.12 l
0.40 0.12 l
0.41 0.13 l
0.40 0.14 l
0.41 0.13 l
0.41 0.14 l
0.40 0.13 l
0.41 0.13 l
0.40 0.13 l
0.41 0.13 l
0.41 0.12 l
0.40 0.11 l
0.41 0.12 l
0.40 0.10 l
0.41 0.11 l
0.41 0.09 l
0.40 0.10 l
0.41 0.09 l
0.40 0.08 l
0.41 0.09 l
0.41 0.07 l
0.40 0.08 l
0.41 0.07 l
0.40 0.06 l
0.41 0.06 l
0.41 0.06 l
0.40 0.06 l
237.81 186.93 lineto
0.40 0.05 l
0.41 0.04 l
0.41 0.05 l
0.40 0.04 l
0.41 0.04 l
0.40 0.03 l
0.41 0.04 l
0.40 0.03 l
0.41 0.03 l
0.41 0.03 l
0.40 0.02 l
0.41 0.02 l
0.40 0.01 l
0.41 0 l
0.41 -0.01 l
0.40 -0.02 l
0.41 -0.03 l
0.40 -0.04 l
0.41 -0.06 l
0.41 -0.08 l
0.40 -0.09 l
0.41 -0.11 l
0.40 -0.12 l
0.41 -0.15 l
0.41 -0.15 l
0.40 -0.17 l
0.41 -0.19 l
0.40 -0.19 l
0.41 -0.20 l
0.41 -0.20 l
0.40 -0.20 l
0.41 -0.20 l
0.40 -0.19 l
0.41 -0.18 l
0.41 -0.17 l
0.40 -0.15 l
0.41 -0.12 l
0.40 -0.09 l
0.41 -0.07 l
0.41 -0.04 l
0.40 0 l
0.41 0.03 l
0.40 0.07 l
0.41 0.11 l
0.41 0.15 l
0.40 0.18 l
0.41 0.21 l
0.40 0.25 l
0.41 0.26 l
0.41 0.29 l
0.40 0.30 l
0.41 0.30 l
0.40 0.30 l
0.41 0.29 l
0.41 0.27 l
0.40 0.24 l
0.41 0.22 l
0.40 0.18 l
0.41 0.13 l
0.40 0.08 l
0.41 0.03 l
0.41 -0.02 l
0.40 -0.07 l
0.41 -0.11 l
0.40 -0.14 l
0.41 -0.18 l
0.41 -0.21 l
0.40 -0.23 l
0.41 -0.22 l
0.40 -0.23 l
0.41 -0.21 l
0.41 -0.19 l
0.40 -0.16 l
0.41 -0.12 l
0.40 -0.08 l
0.41 -0.05 l
0.41 -0.01 l
0.40 0.02 l
0.41 0.04 l
0.40 0.07 l
0.41 0.09 l
0.41 0.08 l
0.40 0.07 l
0.41 0.06 l
0.40 0.02 l
0.41 -0.01 l
0.41 -0.05 l
0.40 -0.10 l
0.41 -0.16 l
0.40 -0.20 l
0.41 -0.24 l
0.41 -0.28 l
0.40 -0.31 l
0.41 -0.31 l
0.40 -0.32 l
0.41 -0.29 l
0.41 -0.25 l
0.40 -0.21 l
0.41 -0.14 l
278.40 183.32 lineto
0.41 0.02 l
0.41 0.11 l
0.40 0.21 l
0.41 0.30 l
0.40 0.37 l
0.41 0.44 l
0.41 0.48 l
0.40 0.51 l
0.41 0.52 l
0.40 0.52 l
0.41 0.48 l
0.40 0.42 l
0.41 0.37 l
0.41 0.29 l
0.40 0.21 l
0.41 0.13 l
0.40 0.03 l
0.41 -0.06 l
0.41 -0.15 l
0.40 -0.21 l
0.41 -0.28 l
0.40 -0.32 l
0.41 -0.35 l
0.41 -0.36 l
0.40 -0.35 l
0.41 -0.31 l
0.40 -0.27 l
0.41 -0.20 l
0.41 -0.12 l
0.40 -0.03 l
0.41 0.08 l
0.40 0.19 l
0.41 0.30 l
0.41 0.38 l
0.40 0.47 l
0.41 0.54 l
0.40 0.61 l
0.41 0.65 l
0.41 0.69 l
0.40 0.71 l
0.41 0.72 l
0.40 0.73 l
0.41 0.74 l
0.41 0.75 l
0.40 0.77 l
0.41 0.77 l
0.40 0.79 l
0.41 0.81 l
0.41 0.85 l
0.40 0.89 l
0.41 0.93 l
0.40 0.98 l
0.41 1.02 l
0.41 1.06 l
0.40 1.10 l
0.41 1.11 l
0.40 1.13 l
0.41 1.12 l
0.41 1.10 l
0.40 1.06 l
0.41 1.00 l
0.40 0.90 l
0.41 0.77 l
0.40 0.64 l
0.41 0.52 l
0.41 0.38 l
0.40 0.25 l
0.41 0.14 l
0.40 0.03 l
0.41 -0.08 l
0.41 -0.13 l
0.40 -0.16 l
0.41 -0.18 l
0.40 -0.18 l
0.41 -0.15 l
0.41 -0.12 l
0.40 -0.07 l
0.41 0 l
0.40 0.06 l
0.41 0.13 l
0.41 0.21 l
0.40 0.28 l
0.41 0.37 l
0.40 0.45 l
0.41 0.54 l
0.41 0.62 l
0.40 0.70 l
0.41 0.79 l
0.40 0.87 l
0.41 0.95 l
0.41 1.02 l
0.40 1.05 l
0.41 1.09 l
0.40 1.10 l
0.41 1.10 l
0.41 1.06 l
0.40 1.01 l
0.41 0.94 l
0.40 0.82 l
319.00 228.21 lineto
0.41 0.63 l
0.40 0.52 l
0.41 0.44 l
0.40 0.35 l
0.41 0.29 l
0.41 0.22 l
0.40 0.17 l
0.41 0.13 l
0.40 0.10 l
0.41 0.07 l
0.40 0.06 l
0 -144.79 l
-0.40 0.10 l
-0.41 0.13 l
-0.40 0.16 l
-0.41 0.20 l
-0.40 0.25 l
-0.41 0.32 l
-0.41 0.39 l
-0.40 0.48 l
-0.41 0.56 l
-0.40 0.65 l
-0.41 0.74 l
-0.41 0.84 l
-0.40 0.94 l
-0.41 1.01 l
-0.40 1.05 l
-0.41 1.06 l
-0.41 1.06 l
-0.40 1.02 l
-0.41 0.97 l
-0.40 0.93 l
-0.41 0.84 l
-0.41 0.74 l
-0.40 0.64 l
-0.41 0.56 l
-0.40 0.46 l
-0.41 0.39 l
-0.41 0.30 l
-0.40 0.22 l
-0.41 0.15 l
-0.40 0.07 l
-0.41 0.01 l
-0.41 -0.06 l
-0.40 -0.12 l
-0.41 -0.21 l
-0.40 -0.27 l
-0.41 -0.33 l
-0.41 -0.39 l
-0.40 -0.43 l
-0.41 -0.47 l
-0.40 -0.50 l
-0.41 -0.53 l
-0.41 -0.52 l
-0.40 -0.50 l
-0.41 -0.47 l
-0.40 -0.39 l
-0.41 -0.32 l
-0.41 -0.22 l
-0.40 -0.13 l
-0.41 -0.01 l
-0.40 0.08 l
-0.41 0.18 l
-0.40 0.29 l
-0.41 0.36 l
-0.41 0.43 l
-0.40 0.48 l
-0.41 0.52 l
-0.40 0.53 l
-0.41 0.54 l
-0.41 0.53 l
-0.40 0.52 l
-0.41 0.49 l
-0.40 0.48 l
-0.41 0.45 l
-0.41 0.42 l
-0.40 0.39 l
-0.41 0.37 l
-0.40 0.35 l
-0.41 0.35 l
-0.41 0.36 l
-0.40 0.39 l
-0.41 0.41 l
-0.40 0.45 l
-0.41 0.50 l
-0.41 0.57 l
-0.40 0.64 l
-0.41 0.72 l
-0.40 0.80 l
-0.41 0.86 l
-0.41 0.91 l
-0.40 0.95 l
-0.41 0.98 l
-0.40 1.00 l
-0.41 0.98 l
-0.41 0.96 l
-0.40 0.90 l
-0.41 0.84 l
-0.40 0.76 l
287.74 120.19 lineto
-0.41 0.58 l
-0.40 0.48 l
-0.41 0.38 l
-0.40 0.29 l
-0.41 0.19 l
-0.41 0.10 l
-0.40 0.01 l
-0.41 -0.07 l
-0.40 -0.13 l
-0.41 -0.19 l
-0.41 -0.23 l
-0.40 -0.27 l
-0.41 -0.28 l
-0.40 -0.29 l
-0.41 -0.28 l
-0.40 -0.26 l
-0.41 -0.23 l
-0.41 -0.18 l
-0.40 -0.14 l
-0.41 -0.07 l
-0.40 -0.02 l
-0.41 0.06 l
-0.41 0.14 l
-0.40 0.21 l
-0.41 0.27 l
-0.40 0.34 l
-0.41 0.39 l
-0.41 0.44 l
-0.40 0.48 l
-0.41 0.52 l
-0.40 0.54 l
-0.41 0.55 l
-0.41 0.55 l
-0.40 0.54 l
-0.41 0.53 l
-0.40 0.50 l
-0.41 0.47 l
-0.41 0.43 l
-0.40 0.39 l
-0.41 0.34 l
-0.40 0.29 l
-0.41 0.24 l
-0.41 0.19 l
-0.40 0.14 l
-0.41 0.09 l
-0.40 0.05 l
-0.41 0.01 l
-0.41 -0.02 l
-0.40 -0.04 l
-0.41 -0.07 l
-0.40 -0.08 l
-0.41 -0.08 l
-0.41 -0.07 l
-0.40 -0.07 l
-0.41 -0.04 l
-0.40 -0.02 l
-0.41 0.02 l
-0.41 0.04 l
-0.40 0.10 l
-0.41 0.15 l
-0.40 0.19 l
-0.41 0.23 l
-0.41 0.28 l
-0.40 0.32 l
-0.41 0.36 l
-0.40 0.40 l
-0.41 0.43 l
-0.40 0.45 l
-0.41 0.47 l
-0.41 0.48 l
-0.40 0.48 l
-0.41 0.48 l
-0.40 0.47 l
-0.41 0.45 l
-0.41 0.43 l
-0.40 0.42 l
-0.41 0.38 l
-0.40 0.37 l
-0.41 0.33 l
-0.41 0.30 l
-0.40 0.28 l
-0.41 0.25 l
-0.40 0.23 l
-0.41 0.21 l
-0.41 0.19 l
-0.40 0.18 l
-0.41 0.17 l
-0.40 0.17 l
-0.41 0.17 l
-0.41 0.16 l
-0.40 0.18 l
-0.41 0.18 l
-0.40 0.19 l
-0.41 0.20 l
-0.41 0.20 l
-0.40 0.22 l
-0.41 0.23 l
-0.40 0.23 l
-0.41 0.23 l
247.14 139.92 lineto
-0.40 0.24 l
-0.41 0.23 l
-0.40 0.22 l
-0.41 0.21 l
-0.41 0.20 l
-0.40 0.19 l
-0.41 0.17 l
-0.40 0.16 l
-0.41 0.14 l
-0.41 0.12 l
-0.40 0.10 l
-0.41 0.09 l
-0.40 0.07 l
-0.41 0.06 l
-0.41 0.05 l
-0.40 0.03 l
-0.41 0.02 l
-0.40 0.01 l
-0.41 0.01 l
-0.40 0 l
-0.41 0 l
-0.41 -0.01 l
-0.40 0 l
-0.41 0 l
-0.40 0 l
-0.41 0 l
-0.41 0.01 l
-0.40 0.02 l
-0.41 0.02 l
-0.40 0.02 l
-0.41 0.02 l
-0.41 0.02 l
-0.40 0.02 l
-0.41 0.02 l
-0.40 0.01 l
-0.41 0.01 l
-0.41 -0.01 l
-0.40 -0.02 l
-0.41 -0.04 l
-0.40 -0.05 l
-0.41 -0.08 l
-0.41 -0.09 l
-0.40 -0.11 l
-0.41 -0.13 l
-0.40 -0.15 l
-0.41 -0.17 l
-0.41 -0.18 l
-0.40 -0.19 l
-0.41 -0.20 l
-0.40 -0.20 l
-0.41 -0.20 l
-0.41 -0.19 l
-0.40 -0.19 l
-0.41 -0.18 l
-0.40 -0.16 l
-0.41 -0.14 l
-0.41 -0.12 l
-0.40 -0.10 l
-0.41 -0.08 l
-0.40 -0.05 l
-0.41 -0.02 l
-0.41 0 l
-0.40 0.03 l
-0.41 0.05 l
-0.40 0.06 l
-0.41 0.08 l
-0.41 0.10 l
-0.40 0.10 l
-0.41 0.11 l
-0.40 0.12 l
-0.41 0.11 l
-0.40 0.11 l
-0.41 0.10 l
-0.41 0.10 l
-0.40 0.08 l
-0.41 0.06 l
-0.40 0.05 l
-0.41 0.04 l
-0.41 0.02 l
-0.40 0.01 l
-0.41 -0.01 l
-0.40 -0.03 l
-0.41 -0.03 l
-0.41 -0.05 l
-0.40 -0.05 l
-0.41 -0.06 l
-0.40 -0.06 l
-0.41 -0.07 l
-0.41 -0.07 l
-0.40 -0.06 l
-0.41 -0.06 l
-0.40 -0.06 l
-0.41 -0.05 l
-0.41 -0.04 l
-0.40 -0.02 l
-0.41 -0.02 l
-0.40 -0.01 l
-0.41 0.01 l
-0.41 0.02 l
206.55 139.99 lineto
-0.41 0.04 l
-0.40 0.06 l
-0.41 0.07 l
-0.41 0.08 l
-0.40 0.09 l
-0.41 0.10 l
-0.40 0.11 l
-0.41 0.10 l
-0.41 0.11 l
-0.40 0.12 l
-0.41 0.11 l
-0.40 0.10 l
-0.41 0.09 l
-0.41 0.08 l
-0.40 0.05 l
-0.41 0.04 l
-0.40 0.02 l
-0.41 -0.01 l
-0.40 -0.04 l
-0.41 -0.08 l
-0.41 -0.11 l
-0.40 -0.14 l
-0.41 -0.17 l
-0.40 -0.21 l
-0.41 -0.24 l
-0.41 -0.28 l
-0.40 -0.30 l
-0.41 -0.32 l
-0.40 -0.35 l
-0.41 -0.36 l
-0.41 -0.37 l
-0.40 -0.39 l
-0.41 -0.38 l
-0.40 -0.38 l
-0.41 -0.37 l
-0.41 -0.36 l
-0.40 -0.35 l
-0.41 -0.33 l
-0.40 -0.31 l
-0.41 -0.29 l
-0.41 -0.26 l
-0.40 -0.24 l
-0.41 -0.21 l
-0.40 -0.19 l
-0.41 -0.16 l
-0.41 -0.14 l
-0.40 -0.12 l
-0.41 -0.11 l
-0.40 -0.08 l
-0.41 -0.08 l
-0.41 -0.06 l
-0.40 -0.06 l
-0.41 -0.05 l
-0.40 -0.06 l
-0.41 -0.05 l
-0.41 -0.07 l
-0.40 -0.07 l
-0.41 -0.09 l
-0.40 -0.10 l
-0.41 -0.11 l
-0.41 -0.12 l
-0.40 -0.14 l
-0.41 -0.15 l
-0.40 -0.16 l
-0.41 -0.17 l
-0.41 -0.18 l
-0.40 -0.18 l
-0.41 -0.19 l
-0.40 -0.18 l
-0.41 -0.18 l
-0.40 -0.18 l
-0.41 -0.16 l
-0.41 -0.16 l
-0.40 -0.15 l
-0.41 -0.13 l
-0.40 -0.12 l
-0.41 -0.10 l
-0.41 -0.08 l
-0.40 -0.07 l
-0.41 -0.04 l
-0.40 -0.03 l
-0.41 0 l
-0.41 0.01 l
-0.40 0.04 l
-0.41 0.05 l
-0.40 0.06 l
-0.41 0.09 l
-0.41 0.09 l
-0.40 0.10 l
-0.41 0.11 l
-0.40 0.11 l
-0.41 0.11 l
-0.41 0.12 l
-0.40 0.11 l
-0.41 0.10 l
-0.40 0.11 l
-0.41 0.09 l
-0.41 0.09 l
-0.40 0.08 l
165.95 131.58 lineto
-0.40 0.07 l
-0.41 0.06 l
-0.41 0.07 l
-0.40 0.06 l
-0.41 0.07 l
-0.40 0.08 l
-0.41 0.09 l
-0.41 0.10 l
-0.40 0.11 l
-0.41 0.13 l
-0.40 0.15 l
-0.41 0.16 l
-0.41 0.18 l
-0.40 0.20 l
-0.41 0.21 l
-0.40 0.22 l
-0.41 0.22 l
-0.41 0.23 l
-0.40 0.23 l
-0.41 0.22 l
-0.40 0.21 l
-0.41 0.20 l
-0.40 0.18 l
-0.41 0.17 l
-0.41 0.14 l
-0.40 0.12 l
-0.41 0.10 l
-0.40 0.07 l
-0.41 0.05 l
-0.41 0.03 l
-0.40 0.01 l
-0.41 -0.01 l
-0.40 -0.03 l
-0.41 -0.04 l
-0.41 -0.04 l
-0.40 -0.06 l
-0.41 -0.07 l
-0.40 -0.06 l
-0.41 -0.07 l
-0.41 -0.06 l
-0.40 -0.05 l
-0.41 -0.05 l
-0.40 -0.04 l
-0.41 -0.02 l
-0.41 0.01 l
-0.40 0.02 l
-0.41 0.05 l
-0.40 0.08 l
-0.41 0.11 l
-0.41 0.15 l
-0.40 0.18 l
-0.41 0.22 l
-0.40 0.27 l
-0.41 0.30 l
-0.41 0.34 l
-0.40 0.37 l
-0.41 0.41 l
-0.40 0.43 l
-0.41 0.45 l
-0.41 0.46 l
-0.40 0.46 l
-0.41 0.45 l
-0.40 0.43 l
-0.41 0.40 l
-0.41 0.36 l
-0.40 0.30 l
-0.41 0.24 l
-0.40 0.17 l
-0.41 0.09 l
-0.41 0 l
-0.40 -0.10 l
-0.41 -0.18 l
-0.40 -0.28 l
-0.41 -0.38 l
-0.40 -0.47 l
-0.41 -0.56 l
-0.41 -0.65 l
-0.40 -0.72 l
-0.41 -0.79 l
-0.40 -0.85 l
-0.41 -0.91 l
-0.41 -0.97 l
-0.40 -1.02 l
-0.41 -1.04 l
-0.40 -1.07 l
-0.41 -1.09 l
-0.41 -1.11 l
-0.40 -1.13 l
-0.41 -1.16 l
-0.40 -1.16 l
-0.41 -1.15 l
-0.41 -1.14 l
-0.40 -1.15 l
-0.41 -1.13 l
-0.40 -1.12 l
-0.41 -1.10 l
-0.41 -1.08 l
-0.40 -1.02 l
-0.41 -0.99 l
125.36 115.41 lineto
-0.41 -0.90 l
-0.41 -0.84 l
-0.40 -0.79 l
-0.41 -0.72 l
-0.40 -0.66 l
-0.41 -0.60 l
-0.41 -0.54 l
-0.40 -0.49 l
-0.41 -0.43 l
-0.40 -0.37 l
-0.41 -0.33 l
-0.41 -0.27 l
-0.40 -0.24 l
-0.41 -0.21 l
-0.40 -0.18 l
-0.41 -0.16 l
-0.41 -0.13 l
-0.40 -0.13 l
-0.41 -0.12 l
-0.40 -0.13 l
-0.41 -0.14 l
-0.41 -0.15 l
-0.40 -0.18 l
cp p1
np
 116.02 106.70 m
0.40 0.18 l
0.41 0.15 l
0.41 0.14 l
0.40 0.13 l
0.41 0.12 l
0.40 0.13 l
0.41 0.13 l
0.41 0.16 l
0.40 0.18 l
0.41 0.21 l
0.40 0.24 l
0.41 0.27 l
0.41 0.33 l
0.40 0.37 l
0.41 0.43 l
0.40 0.49 l
0.41 0.54 l
0.41 0.60 l
0.40 0.66 l
0.41 0.72 l
0.40 0.79 l
0.41 0.84 l
0.41 0.90 l
0.40 0.94 l
0.41 0.99 l
0.40 1.02 l
0.41 1.08 l
0.41 1.10 l
0.40 1.12 l
0.41 1.13 l
0.40 1.15 l
0.41 1.14 l
0.41 1.15 l
0.40 1.16 l
0.41 1.16 l
0.40 1.13 l
0.41 1.11 l
0.41 1.09 l
0.40 1.07 l
0.41 1.04 l
0.40 1.02 l
0.41 0.97 l
0.41 0.91 l
0.40 0.85 l
0.41 0.79 l
0.40 0.72 l
0.41 0.65 l
0.41 0.56 l
0.40 0.47 l
0.41 0.38 l
0.40 0.28 l
0.41 0.18 l
0.40 0.10 l
0.41 0 l
0.41 -0.09 l
0.40 -0.17 l
0.41 -0.24 l
0.40 -0.30 l
0.41 -0.36 l
0.41 -0.40 l
0.40 -0.43 l
0.41 -0.45 l
0.40 -0.46 l
0.41 -0.46 l
0.41 -0.45 l
0.40 -0.43 l
0.41 -0.41 l
0.40 -0.37 l
0.41 -0.34 l
0.41 -0.30 l
0.40 -0.27 l
0.41 -0.22 l
0.40 -0.18 l
0.41 -0.15 l
0.41 -0.11 l
0.40 -0.08 l
0.41 -0.05 l
0.40 -0.02 l
0.41 -0.01 l
0.41 0.02 l
0.40 0.04 l
0.41 0.05 l
0.40 0.05 l
0.41 0.06 l
0.41 0.07 l
0.40 0.06 l
0.41 0.07 l
0.40 0.06 l
0.41 0.04 l
0.41 0.04 l
0.40 0.03 l
0.41 0.01 l
0.40 -0.01 l
0.41 -0.03 l
0.41 -0.05 l
0.40 -0.07 l
0.41 -0.10 l
0.40 -0.12 l
0.41 -0.14 l
156.62 135.03 lineto
0.40 -0.18 l
0.41 -0.20 l
0.40 -0.21 l
0.41 -0.22 l
0.40 -0.23 l
0.41 -0.23 l
0.41 -0.22 l
0.40 -0.22 l
0.41 -0.21 l
0.40 -0.20 l
0.41 -0.18 l
0.41 -0.16 l
0.40 -0.15 l
0.41 -0.13 l
0.40 -0.11 l
0.41 -0.10 l
0.41 -0.09 l
0.40 -0.08 l
0.41 -0.07 l
0.40 -0.06 l
0.41 -0.07 l
0.41 -0.06 l
0.40 -0.07 l
0.41 -0.07 l
0.40 -0.08 l
0.41 -0.09 l
0.41 -0.09 l
0.40 -0.11 l
0.41 -0.10 l
0.40 -0.11 l
0.41 -0.12 l
0.41 -0.11 l
0.40 -0.11 l
0.41 -0.11 l
0.40 -0.10 l
0.41 -0.09 l
0.41 -0.09 l
0.40 -0.06 l
0.41 -0.05 l
0.40 -0.04 l
0.41 -0.01 l
0.41 0 l
0.40 0.03 l
0.41 0.04 l
0.40 0.07 l
0.41 0.08 l
0.41 0.10 l
0.40 0.12 l
0.41 0.13 l
0.40 0.15 l
0.41 0.16 l
0.41 0.16 l
0.40 0.18 l
0.41 0.18 l
0.40 0.18 l
0.41 0.19 l
0.40 0.18 l
0.41 0.18 l
0.41 0.17 l
0.40 0.16 l
0.41 0.15 l
0.40 0.14 l
0.41 0.12 l
0.41 0.11 l
0.40 0.10 l
0.41 0.09 l
0.40 0.07 l
0.41 0.07 l
0.41 0.05 l
0.40 0.06 l
0.41 0.05 l
0.40 0.06 l
0.41 0.06 l
0.41 0.08 l
0.40 0.08 l
0.41 0.11 l
0.40 0.12 l
0.41 0.14 l
0.41 0.16 l
0.40 0.19 l
0.41 0.21 l
0.40 0.24 l
0.41 0.26 l
0.41 0.29 l
0.40 0.31 l
0.41 0.33 l
0.40 0.35 l
0.41 0.36 l
0.41 0.37 l
0.40 0.38 l
0.41 0.38 l
0.40 0.39 l
0.41 0.37 l
0.41 0.36 l
0.40 0.35 l
0.41 0.32 l
0.40 0.30 l
0.41 0.28 l
0.41 0.24 l
197.21 140.81 lineto
0.41 0.17 l
0.40 0.14 l
0.41 0.11 l
0.41 0.08 l
0.40 0.04 l
0.41 0.01 l
0.40 -0.02 l
0.41 -0.04 l
0.40 -0.05 l
0.41 -0.08 l
0.41 -0.09 l
0.40 -0.10 l
0.41 -0.11 l
0.40 -0.12 l
0.41 -0.11 l
0.41 -0.10 l
0.40 -0.11 l
0.41 -0.10 l
0.40 -0.09 l
0.41 -0.08 l
0.41 -0.07 l
0.40 -0.06 l
0.41 -0.04 l
0.40 -0.03 l
0.41 -0.02 l
0.41 -0.01 l
0.40 0.01 l
0.41 0.02 l
0.40 0.02 l
0.41 0.04 l
0.41 0.05 l
0.40 0.06 l
0.41 0.06 l
0.40 0.06 l
0.41 0.07 l
0.41 0.07 l
0.40 0.06 l
0.41 0.06 l
0.40 0.05 l
0.41 0.05 l
0.41 0.03 l
0.40 0.03 l
0.41 0.01 l
0.40 -0.01 l
0.41 -0.02 l
0.41 -0.04 l
0.40 -0.05 l
0.41 -0.06 l
0.40 -0.08 l
0.41 -0.10 l
0.41 -0.10 l
0.40 -0.11 l
0.41 -0.11 l
0.40 -0.12 l
0.41 -0.11 l
0.40 -0.10 l
0.41 -0.10 l
0.41 -0.08 l
0.40 -0.06 l
0.41 -0.05 l
0.40 -0.03 l
0.41 0 l
0.41 0.02 l
0.40 0.05 l
0.41 0.08 l
0.40 0.10 l
0.41 0.12 l
0.41 0.14 l
0.40 0.16 l
0.41 0.18 l
0.40 0.19 l
0.41 0.19 l
0.41 0.20 l
0.40 0.20 l
0.41 0.20 l
0.40 0.19 l
0.41 0.18 l
0.41 0.17 l
0.40 0.15 l
0.41 0.13 l
0.40 0.11 l
0.41 0.09 l
0.41 0.08 l
0.40 0.05 l
0.41 0.04 l
0.40 0.02 l
0.41 0.01 l
0.41 -0.01 l
0.40 -0.01 l
0.41 -0.02 l
0.40 -0.02 l
0.41 -0.02 l
0.41 -0.02 l
0.40 -0.02 l
0.41 -0.02 l
0.40 -0.02 l
0.41 -0.01 l
0.41 0 l
0.40 0 l
237.81 142.23 lineto
0.40 0 l
0.41 0.01 l
0.41 0 l
0.40 0 l
0.41 -0.01 l
0.40 -0.01 l
0.41 -0.02 l
0.40 -0.03 l
0.41 -0.05 l
0.41 -0.06 l
0.40 -0.07 l
0.41 -0.09 l
0.40 -0.10 l
0.41 -0.12 l
0.41 -0.14 l
0.40 -0.16 l
0.41 -0.17 l
0.40 -0.19 l
0.41 -0.20 l
0.41 -0.21 l
0.40 -0.22 l
0.41 -0.23 l
0.40 -0.24 l
0.41 -0.23 l
0.41 -0.23 l
0.40 -0.23 l
0.41 -0.23 l
0.40 -0.22 l
0.41 -0.20 l
0.41 -0.20 l
0.40 -0.19 l
0.41 -0.18 l
0.40 -0.18 l
0.41 -0.16 l
0.41 -0.17 l
0.40 -0.17 l
0.41 -0.17 l
0.40 -0.18 l
0.41 -0.19 l
0.41 -0.21 l
0.40 -0.23 l
0.41 -0.25 l
0.40 -0.28 l
0.41 -0.30 l
0.41 -0.33 l
0.40 -0.37 l
0.41 -0.38 l
0.40 -0.42 l
0.41 -0.43 l
0.41 -0.45 l
0.40 -0.47 l
0.41 -0.48 l
0.40 -0.48 l
0.41 -0.48 l
0.41 -0.47 l
0.40 -0.45 l
0.41 -0.43 l
0.40 -0.40 l
0.41 -0.36 l
0.40 -0.32 l
0.41 -0.28 l
0.41 -0.23 l
0.40 -0.19 l
0.41 -0.15 l
0.40 -0.10 l
0.41 -0.04 l
0.41 -0.02 l
0.40 0.02 l
0.41 0.04 l
0.40 0.07 l
0.41 0.07 l
0.41 0.08 l
0.40 0.08 l
0.41 0.07 l
0.40 0.04 l
0.41 0.02 l
0.41 -0.01 l
0.40 -0.05 l
0.41 -0.09 l
0.40 -0.14 l
0.41 -0.19 l
0.41 -0.24 l
0.40 -0.29 l
0.41 -0.34 l
0.40 -0.39 l
0.41 -0.43 l
0.41 -0.47 l
0.40 -0.50 l
0.41 -0.53 l
0.40 -0.54 l
0.41 -0.55 l
0.41 -0.55 l
0.40 -0.54 l
0.41 -0.52 l
0.40 -0.48 l
0.41 -0.44 l
0.41 -0.39 l
0.40 -0.34 l
0.41 -0.27 l
278.40 119.78 lineto
0.41 -0.14 l
0.41 -0.06 l
0.40 0.02 l
0.41 0.07 l
0.40 0.14 l
0.41 0.18 l
0.41 0.23 l
0.40 0.26 l
0.41 0.28 l
0.40 0.29 l
0.41 0.28 l
0.40 0.27 l
0.41 0.23 l
0.41 0.19 l
0.40 0.13 l
0.41 0.07 l
0.40 -0.01 l
0.41 -0.10 l
0.41 -0.19 l
0.40 -0.29 l
0.41 -0.38 l
0.40 -0.48 l
0.41 -0.58 l
0.41 -0.68 l
0.40 -0.76 l
0.41 -0.84 l
0.40 -0.90 l
0.41 -0.96 l
0.41 -0.98 l
0.40 -1.00 l
0.41 -0.98 l
0.40 -0.95 l
0.41 -0.91 l
0.41 -0.86 l
0.40 -0.80 l
0.41 -0.72 l
0.40 -0.64 l
0.41 -0.57 l
0.41 -0.50 l
0.40 -0.45 l
0.41 -0.41 l
0.40 -0.39 l
0.41 -0.36 l
0.41 -0.35 l
0.40 -0.35 l
0.41 -0.37 l
0.40 -0.39 l
0.41 -0.42 l
0.41 -0.45 l
0.40 -0.48 l
0.41 -0.49 l
0.40 -0.52 l
0.41 -0.53 l
0.41 -0.54 l
0.40 -0.53 l
0.41 -0.52 l
0.40 -0.48 l
0.41 -0.43 l
0.41 -0.36 l
0.40 -0.29 l
0.41 -0.18 l
0.40 -0.08 l
0.41 0.01 l
0.40 0.13 l
0.41 0.22 l
0.41 0.32 l
0.40 0.39 l
0.41 0.47 l
0.40 0.50 l
0.41 0.52 l
0.41 0.53 l
0.40 0.50 l
0.41 0.47 l
0.40 0.43 l
0.41 0.39 l
0.41 0.33 l
0.40 0.27 l
0.41 0.21 l
0.40 0.12 l
0.41 0.06 l
0.41 -0.01 l
0.40 -0.07 l
0.41 -0.15 l
0.40 -0.22 l
0.41 -0.30 l
0.41 -0.39 l
0.40 -0.46 l
0.41 -0.56 l
0.40 -0.64 l
0.41 -0.74 l
0.41 -0.84 l
0.40 -0.93 l
0.41 -0.97 l
0.40 -1.02 l
0.41 -1.06 l
0.41 -1.06 l
0.40 -1.05 l
0.41 -1.01 l
0.40 -0.94 l
319.00 90.38 lineto
0.41 -0.74 l
0.40 -0.65 l
0.41 -0.56 l
0.40 -0.48 l
0.41 -0.39 l
0.41 -0.32 l
0.40 -0.25 l
0.41 -0.20 l
0.40 -0.16 l
0.41 -0.13 l
0.40 -0.10 l
0 -0.32 l
-0.40 0 l
-0.41 0 l
-0.40 0 l
-0.41 0 l
-0.40 0 l
-0.41 0 l
-0.41 0 l
-0.40 0 l
-0.41 0 l
-0.40 0 l
-0.41 0 l
-0.41 0 l
-0.40 0 l
-0.41 0 l
-0.40 0 l
-0.41 0 l
-0.41 0 l
-0.40 0 l
-0.41 0 l
-0.40 0 l
-0.41 0 l
-0.41 0 l
-0.40 0.01 l
-0.41 0 l
-0.40 0.01 l
-0.41 0 l
-0.41 0.01 l
-0.40 0.01 l
-0.41 0.02 l
-0.40 0.02 l
-0.41 0.03 l
-0.41 0.04 l
-0.40 0.05 l
-0.41 0.07 l
-0.40 0.08 l
-0.41 0.10 l
-0.41 0.14 l
-0.40 0.17 l
-0.41 0.22 l
-0.40 0.26 l
-0.41 0.32 l
-0.41 0.37 l
-0.40 0.44 l
-0.41 0.49 l
-0.40 0.59 l
-0.41 0.65 l
-0.41 0.72 l
-0.40 0.76 l
-0.41 0.81 l
-0.40 0.84 l
-0.41 0.85 l
-0.40 0.88 l
-0.41 0.87 l
-0.41 0.85 l
-0.40 0.82 l
-0.41 0.77 l
-0.40 0.72 l
-0.41 0.66 l
-0.41 0.59 l
-0.40 0.52 l
-0.41 0.44 l
-0.40 0.35 l
-0.41 0.27 l
-0.41 0.20 l
-0.40 0.11 l
-0.41 0.03 l
-0.40 -0.05 l
-0.41 -0.12 l
-0.41 -0.17 l
-0.40 -0.22 l
-0.41 -0.24 l
-0.40 -0.26 l
-0.41 -0.27 l
-0.41 -0.24 l
-0.40 -0.21 l
-0.41 -0.16 l
-0.40 -0.10 l
-0.41 -0.03 l
-0.41 0.05 l
-0.40 0.11 l
-0.41 0.19 l
-0.40 0.26 l
-0.41 0.31 l
-0.41 0.35 l
-0.40 0.36 l
-0.41 0.38 l
-0.40 0.37 l
287.74 102.90 lineto
-0.41 0.33 l
-0.40 0.28 l
-0.41 0.24 l
-0.40 0.19 l
-0.41 0.14 l
-0.41 0.09 l
-0.40 0.03 l
-0.41 -0.01 l
-0.40 -0.05 l
-0.41 -0.08 l
-0.41 -0.10 l
-0.40 -0.11 l
-0.41 -0.11 l
-0.40 -0.10 l
-0.41 -0.08 l
-0.40 -0.04 l
-0.41 0 l
-0.41 0.05 l
-0.40 0.10 l
-0.41 0.17 l
-0.40 0.22 l
-0.41 0.29 l
-0.41 0.36 l
-0.40 0.41 l
-0.41 0.45 l
-0.40 0.49 l
-0.41 0.51 l
-0.41 0.52 l
-0.40 0.53 l
-0.41 0.53 l
-0.40 0.50 l
-0.41 0.48 l
-0.41 0.44 l
-0.40 0.39 l
-0.41 0.35 l
-0.40 0.29 l
-0.41 0.23 l
-0.41 0.18 l
-0.40 0.12 l
-0.41 0.08 l
-0.40 0.02 l
-0.41 -0.01 l
-0.41 -0.05 l
-0.40 -0.07 l
-0.41 -0.10 l
-0.40 -0.11 l
-0.41 -0.11 l
-0.41 -0.10 l
-0.40 -0.10 l
-0.41 -0.08 l
-0.40 -0.06 l
-0.41 -0.02 l
-0.41 0 l
-0.40 0.04 l
-0.41 0.07 l
-0.40 0.11 l
-0.41 0.14 l
-0.41 0.17 l
-0.40 0.22 l
-0.41 0.24 l
-0.40 0.28 l
-0.41 0.29 l
-0.41 0.32 l
-0.40 0.33 l
-0.41 0.35 l
-0.40 0.36 l
-0.41 0.36 l
-0.40 0.36 l
-0.41 0.36 l
-0.41 0.36 l
-0.40 0.34 l
-0.41 0.33 l
-0.40 0.31 l
-0.41 0.30 l
-0.41 0.28 l
-0.40 0.26 l
-0.41 0.24 l
-0.40 0.22 l
-0.41 0.20 l
-0.41 0.18 l
-0.40 0.16 l
-0.41 0.16 l
-0.40 0.13 l
-0.41 0.13 l
-0.41 0.12 l
-0.40 0.11 l
-0.41 0.11 l
-0.40 0.11 l
-0.41 0.10 l
-0.41 0.11 l
-0.40 0.10 l
-0.41 0.11 l
-0.40 0.11 l
-0.41 0.11 l
-0.41 0.11 l
-0.40 0.11 l
-0.41 0.12 l
-0.40 0.11 l
-0.41 0.11 l
247.14 119.77 lineto
-0.40 0.10 l
-0.41 0.09 l
-0.40 0.09 l
-0.41 0.07 l
-0.41 0.07 l
-0.40 0.06 l
-0.41 0.05 l
-0.40 0.04 l
-0.41 0.04 l
-0.41 0.02 l
-0.40 0.02 l
-0.41 0.01 l
-0.40 0 l
-0.41 0 l
-0.41 -0.01 l
-0.40 -0.02 l
-0.41 -0.02 l
-0.40 -0.02 l
-0.41 -0.03 l
-0.40 -0.04 l
-0.41 -0.03 l
-0.41 -0.04 l
-0.40 -0.05 l
-0.41 -0.05 l
-0.40 -0.05 l
-0.41 -0.05 l
-0.41 -0.06 l
-0.40 -0.06 l
-0.41 -0.07 l
-0.40 -0.07 l
-0.41 -0.07 l
-0.41 -0.08 l
-0.40 -0.08 l
-0.41 -0.09 l
-0.40 -0.10 l
-0.41 -0.10 l
-0.41 -0.11 l
-0.40 -0.12 l
-0.41 -0.13 l
-0.40 -0.14 l
-0.41 -0.15 l
-0.41 -0.15 l
-0.40 -0.16 l
-0.41 -0.17 l
-0.40 -0.18 l
-0.41 -0.18 l
-0.41 -0.19 l
-0.40 -0.19 l
-0.41 -0.18 l
-0.40 -0.19 l
-0.41 -0.19 l
-0.41 -0.18 l
-0.40 -0.17 l
-0.41 -0.17 l
-0.40 -0.16 l
-0.41 -0.14 l
-0.41 -0.14 l
-0.40 -0.12 l
-0.41 -0.11 l
-0.40 -0.09 l
-0.41 -0.07 l
-0.41 -0.06 l
-0.40 -0.04 l
-0.41 -0.02 l
-0.40 0 l
-0.41 0.02 l
-0.41 0.03 l
-0.40 0.04 l
-0.41 0.07 l
-0.40 0.07 l
-0.41 0.09 l
-0.40 0.09 l
-0.41 0.10 l
-0.41 0.11 l
-0.40 0.11 l
-0.41 0.12 l
-0.40 0.11 l
-0.41 0.11 l
-0.41 0.11 l
-0.40 0.11 l
-0.41 0.10 l
-0.40 0.10 l
-0.41 0.09 l
-0.41 0.10 l
-0.40 0.08 l
-0.41 0.09 l
-0.40 0.08 l
-0.41 0.09 l
-0.41 0.08 l
-0.40 0.09 l
-0.41 0.08 l
-0.40 0.09 l
-0.41 0.10 l
-0.41 0.09 l
-0.40 0.10 l
-0.41 0.11 l
-0.40 0.11 l
-0.41 0.11 l
-0.41 0.11 l
206.55 118.55 lineto
-0.41 0.12 l
-0.40 0.12 l
-0.41 0.12 l
-0.41 0.12 l
-0.40 0.12 l
-0.41 0.10 l
-0.40 0.11 l
-0.41 0.09 l
-0.41 0.08 l
-0.40 0.07 l
-0.41 0.06 l
-0.40 0.04 l
-0.41 0.02 l
-0.41 0 l
-0.40 -0.02 l
-0.41 -0.04 l
-0.40 -0.07 l
-0.41 -0.09 l
-0.40 -0.11 l
-0.41 -0.14 l
-0.41 -0.16 l
-0.40 -0.18 l
-0.41 -0.20 l
-0.40 -0.22 l
-0.41 -0.23 l
-0.41 -0.24 l
-0.40 -0.24 l
-0.41 -0.25 l
-0.40 -0.25 l
-0.41 -0.25 l
-0.41 -0.23 l
-0.40 -0.23 l
-0.41 -0.21 l
-0.40 -0.20 l
-0.41 -0.18 l
-0.41 -0.16 l
-0.40 -0.14 l
-0.41 -0.13 l
-0.40 -0.11 l
-0.41 -0.10 l
-0.41 -0.08 l
-0.40 -0.07 l
-0.41 -0.06 l
-0.40 -0.06 l
-0.41 -0.06 l
-0.41 -0.06 l
-0.40 -0.06 l
-0.41 -0.06 l
-0.40 -0.08 l
-0.41 -0.09 l
-0.41 -0.11 l
-0.40 -0.12 l
-0.41 -0.14 l
-0.40 -0.17 l
-0.41 -0.18 l
-0.41 -0.20 l
-0.40 -0.23 l
-0.41 -0.24 l
-0.40 -0.27 l
-0.41 -0.27 l
-0.41 -0.29 l
-0.40 -0.29 l
-0.41 -0.30 l
-0.40 -0.30 l
-0.41 -0.30 l
-0.41 -0.30 l
-0.40 -0.29 l
-0.41 -0.29 l
-0.40 -0.28 l
-0.41 -0.26 l
-0.40 -0.25 l
-0.41 -0.24 l
-0.41 -0.23 l
-0.40 -0.22 l
-0.41 -0.20 l
-0.40 -0.19 l
-0.41 -0.18 l
-0.41 -0.16 l
-0.40 -0.15 l
-0.41 -0.13 l
-0.40 -0.12 l
-0.41 -0.10 l
-0.41 -0.09 l
-0.40 -0.07 l
-0.41 -0.05 l
-0.40 -0.04 l
-0.41 -0.03 l
-0.41 -0.01 l
-0.40 -0.01 l
-0.41 -0.01 l
-0.40 0 l
-0.41 0 l
-0.41 -0.01 l
-0.40 -0.01 l
-0.41 -0.03 l
-0.40 -0.04 l
-0.41 -0.06 l
-0.41 -0.07 l
-0.40 -0.09 l
165.95 106.92 lineto
-0.40 -0.13 l
-0.41 -0.15 l
-0.41 -0.17 l
-0.40 -0.17 l
-0.41 -0.19 l
-0.40 -0.19 l
-0.41 -0.18 l
-0.41 -0.18 l
-0.40 -0.17 l
-0.41 -0.16 l
-0.40 -0.13 l
-0.41 -0.11 l
-0.41 -0.09 l
-0.40 -0.05 l
-0.41 -0.03 l
-0.40 0.01 l
-0.41 0.03 l
-0.41 0.05 l
-0.40 0.07 l
-0.41 0.09 l
-0.40 0.10 l
-0.41 0.10 l
-0.40 0.10 l
-0.41 0.08 l
-0.41 0.07 l
-0.40 0.05 l
-0.41 0.01 l
-0.40 -0.01 l
-0.41 -0.06 l
-0.41 -0.09 l
-0.40 -0.14 l
-0.41 -0.18 l
-0.40 -0.21 l
-0.41 -0.26 l
-0.41 -0.29 l
-0.40 -0.33 l
-0.41 -0.35 l
-0.40 -0.37 l
-0.41 -0.39 l
-0.41 -0.40 l
-0.40 -0.40 l
-0.41 -0.40 l
-0.40 -0.39 l
-0.41 -0.37 l
-0.41 -0.35 l
-0.40 -0.33 l
-0.41 -0.30 l
-0.40 -0.27 l
-0.41 -0.24 l
-0.41 -0.20 l
-0.40 -0.16 l
-0.41 -0.12 l
-0.40 -0.09 l
-0.41 -0.06 l
-0.41 -0.02 l
-0.40 0 l
-0.41 0.02 l
-0.40 0.05 l
-0.41 0.06 l
-0.41 0.06 l
-0.40 0.08 l
-0.41 0.07 l
-0.40 0.06 l
-0.41 0.06 l
-0.41 0.04 l
-0.40 0.02 l
-0.41 0 l
-0.40 -0.03 l
-0.41 -0.05 l
-0.41 -0.07 l
-0.40 -0.10 l
-0.41 -0.13 l
-0.40 -0.16 l
-0.41 -0.18 l
-0.40 -0.20 l
-0.41 -0.22 l
-0.41 -0.24 l
-0.40 -0.24 l
-0.41 -0.25 l
-0.40 -0.26 l
-0.41 -0.25 l
-0.41 -0.25 l
-0.40 -0.25 l
-0.41 -0.25 l
-0.40 -0.24 l
-0.41 -0.24 l
-0.41 -0.23 l
-0.40 -0.22 l
-0.41 -0.23 l
-0.40 -0.24 l
-0.41 -0.25 l
-0.41 -0.27 l
-0.40 -0.27 l
-0.41 -0.30 l
-0.40 -0.30 l
-0.41 -0.33 l
-0.41 -0.35 l
-0.40 -0.35 l
-0.41 -0.38 l
125.36 91.62 lineto
-0.41 -0.39 l
-0.41 -0.37 l
-0.40 -0.38 l
-0.41 -0.36 l
-0.40 -0.35 l
-0.41 -0.34 l
-0.41 -0.33 l
-0.40 -0.30 l
-0.41 -0.28 l
-0.40 -0.26 l
-0.41 -0.24 l
-0.41 -0.23 l
-0.40 -0.20 l
-0.41 -0.19 l
-0.40 -0.16 l
-0.41 -0.15 l
-0.41 -0.13 l
-0.40 -0.12 l
-0.41 -0.11 l
-0.40 -0.09 l
-0.41 -0.08 l
-0.41 -0.08 l
-0.40 -0.06 l
cp p1
np
 116.02 86.42 m
0.40 0.06 l
0.41 0.08 l
0.41 0.08 l
0.40 0.09 l
0.41 0.11 l
0.40 0.12 l
0.41 0.13 l
0.41 0.15 l
0.40 0.16 l
0.41 0.19 l
0.40 0.20 l
0.41 0.23 l
0.41 0.24 l
0.40 0.26 l
0.41 0.28 l
0.40 0.30 l
0.41 0.33 l
0.41 0.34 l
0.40 0.35 l
0.41 0.36 l
0.40 0.38 l
0.41 0.37 l
0.41 0.39 l
0.40 0.37 l
0.41 0.38 l
0.40 0.35 l
0.41 0.35 l
0.41 0.33 l
0.40 0.30 l
0.41 0.30 l
0.40 0.27 l
0.41 0.27 l
0.41 0.25 l
0.40 0.24 l
0.41 0.23 l
0.40 0.22 l
0.41 0.23 l
0.41 0.24 l
0.40 0.24 l
0.41 0.25 l
0.40 0.25 l
0.41 0.25 l
0.41 0.25 l
0.40 0.26 l
0.41 0.25 l
0.40 0.24 l
0.41 0.24 l
0.41 0.22 l
0.40 0.20 l
0.41 0.18 l
0.40 0.16 l
0.41 0.13 l
0.40 0.10 l
0.41 0.07 l
0.41 0.05 l
0.40 0.03 l
0.41 0 l
0.40 -0.02 l
0.41 -0.04 l
0.41 -0.06 l
0.40 -0.06 l
0.41 -0.07 l
0.40 -0.08 l
0.41 -0.06 l
0.41 -0.06 l
0.40 -0.05 l
0.41 -0.02 l
0.40 0 l
0.41 0.02 l
0.41 0.06 l
0.40 0.09 l
0.41 0.12 l
0.40 0.16 l
0.41 0.20 l
0.41 0.24 l
0.40 0.27 l
0.41 0.30 l
0.40 0.33 l
0.41 0.35 l
0.41 0.37 l
0.40 0.39 l
0.41 0.40 l
0.40 0.40 l
0.41 0.40 l
0.41 0.39 l
0.40 0.37 l
0.41 0.35 l
0.40 0.33 l
0.41 0.29 l
0.41 0.26 l
0.40 0.21 l
0.41 0.18 l
0.40 0.14 l
0.41 0.09 l
0.41 0.06 l
0.40 0.01 l
0.41 -0.01 l
0.40 -0.05 l
0.41 -0.07 l
156.62 105.37 lineto
0.40 -0.10 l
0.41 -0.10 l
0.40 -0.10 l
0.41 -0.09 l
0.40 -0.07 l
0.41 -0.05 l
0.41 -0.03 l
0.40 -0.01 l
0.41 0.03 l
0.40 0.05 l
0.41 0.09 l
0.41 0.11 l
0.40 0.13 l
0.41 0.16 l
0.40 0.17 l
0.41 0.18 l
0.41 0.18 l
0.40 0.19 l
0.41 0.19 l
0.40 0.17 l
0.41 0.17 l
0.41 0.15 l
0.40 0.13 l
0.41 0.12 l
0.40 0.09 l
0.41 0.07 l
0.41 0.06 l
0.40 0.04 l
0.41 0.03 l
0.40 0.01 l
0.41 0.01 l
0.41 0 l
0.40 0 l
0.41 0.01 l
0.40 0.01 l
0.41 0.01 l
0.41 0.03 l
0.40 0.04 l
0.41 0.05 l
0.40 0.07 l
0.41 0.09 l
0.41 0.10 l
0.40 0.12 l
0.41 0.13 l
0.40 0.15 l
0.41 0.16 l
0.41 0.18 l
0.40 0.19 l
0.41 0.20 l
0.40 0.22 l
0.41 0.23 l
0.41 0.24 l
0.40 0.25 l
0.41 0.26 l
0.40 0.28 l
0.41 0.29 l
0.40 0.29 l
0.41 0.30 l
0.41 0.30 l
0.40 0.30 l
0.41 0.30 l
0.40 0.29 l
0.41 0.29 l
0.41 0.27 l
0.40 0.27 l
0.41 0.24 l
0.40 0.23 l
0.41 0.20 l
0.41 0.18 l
0.40 0.17 l
0.41 0.14 l
0.40 0.12 l
0.41 0.11 l
0.41 0.09 l
0.40 0.08 l
0.41 0.06 l
0.40 0.06 l
0.41 0.06 l
0.41 0.06 l
0.40 0.06 l
0.41 0.06 l
0.40 0.07 l
0.41 0.08 l
0.41 0.10 l
0.40 0.11 l
0.41 0.13 l
0.40 0.14 l
0.41 0.16 l
0.41 0.18 l
0.40 0.20 l
0.41 0.21 l
0.40 0.23 l
0.41 0.23 l
0.41 0.25 l
0.40 0.25 l
0.41 0.25 l
0.40 0.24 l
0.41 0.24 l
0.41 0.23 l
197.21 118.71 lineto
0.41 0.20 l
0.40 0.18 l
0.41 0.16 l
0.41 0.14 l
0.40 0.11 l
0.41 0.09 l
0.40 0.07 l
0.41 0.04 l
0.40 0.02 l
0.41 0 l
0.41 -0.02 l
0.40 -0.04 l
0.41 -0.06 l
0.40 -0.07 l
0.41 -0.08 l
0.41 -0.09 l
0.40 -0.11 l
0.41 -0.10 l
0.40 -0.12 l
0.41 -0.12 l
0.41 -0.12 l
0.40 -0.12 l
0.41 -0.12 l
0.40 -0.12 l
0.41 -0.11 l
0.41 -0.11 l
0.40 -0.11 l
0.41 -0.11 l
0.40 -0.10 l
0.41 -0.09 l
0.41 -0.10 l
0.40 -0.09 l
0.41 -0.08 l
0.40 -0.09 l
0.41 -0.08 l
0.41 -0.09 l
0.40 -0.08 l
0.41 -0.09 l
0.40 -0.08 l
0.41 -0.10 l
0.41 -0.09 l
0.40 -0.10 l
0.41 -0.10 l
0.40 -0.11 l
0.41 -0.11 l
0.41 -0.11 l
0.40 -0.11 l
0.41 -0.12 l
0.40 -0.11 l
0.41 -0.11 l
0.41 -0.10 l
0.40 -0.09 l
0.41 -0.09 l
0.40 -0.07 l
0.41 -0.07 l
0.40 -0.04 l
0.41 -0.03 l
0.41 -0.02 l
0.40 0 l
0.41 0.02 l
0.40 0.04 l
0.41 0.06 l
0.41 0.07 l
0.40 0.09 l
0.41 0.11 l
0.40 0.12 l
0.41 0.14 l
0.41 0.14 l
0.40 0.16 l
0.41 0.17 l
0.40 0.17 l
0.41 0.18 l
0.41 0.19 l
0.40 0.19 l
0.41 0.18 l
0.40 0.19 l
0.41 0.19 l
0.41 0.18 l
0.40 0.18 l
0.41 0.17 l
0.40 0.16 l
0.41 0.15 l
0.41 0.15 l
0.40 0.14 l
0.41 0.13 l
0.40 0.12 l
0.41 0.11 l
0.41 0.10 l
0.40 0.10 l
0.41 0.09 l
0.40 0.08 l
0.41 0.08 l
0.41 0.07 l
0.40 0.07 l
0.41 0.07 l
0.40 0.06 l
0.41 0.06 l
0.41 0.05 l
0.40 0.05 l
237.81 120.17 lineto
0.40 0.05 l
0.41 0.04 l
0.41 0.03 l
0.40 0.04 l
0.41 0.03 l
0.40 0.02 l
0.41 0.02 l
0.40 0.02 l
0.41 0.01 l
0.41 0 l
0.40 0 l
0.41 -0.01 l
0.40 -0.02 l
0.41 -0.02 l
0.41 -0.04 l
0.40 -0.04 l
0.41 -0.05 l
0.40 -0.06 l
0.41 -0.07 l
0.41 -0.07 l
0.40 -0.09 l
0.41 -0.09 l
0.40 -0.10 l
0.41 -0.10 l
0.41 -0.11 l
0.40 -0.11 l
0.41 -0.12 l
0.40 -0.11 l
0.41 -0.11 l
0.41 -0.11 l
0.40 -0.11 l
0.41 -0.11 l
0.40 -0.10 l
0.41 -0.11 l
0.41 -0.10 l
0.40 -0.11 l
0.41 -0.11 l
0.40 -0.11 l
0.41 -0.12 l
0.41 -0.13 l
0.40 -0.13 l
0.41 -0.16 l
0.40 -0.16 l
0.41 -0.18 l
0.41 -0.20 l
0.40 -0.22 l
0.41 -0.24 l
0.40 -0.26 l
0.41 -0.28 l
0.41 -0.30 l
0.40 -0.31 l
0.41 -0.33 l
0.40 -0.34 l
0.41 -0.36 l
0.41 -0.36 l
0.40 -0.36 l
0.41 -0.36 l
0.40 -0.36 l
0.41 -0.35 l
0.40 -0.33 l
0.41 -0.32 l
0.41 -0.29 l
0.40 -0.28 l
0.41 -0.24 l
0.40 -0.22 l
0.41 -0.17 l
0.41 -0.14 l
0.40 -0.11 l
0.41 -0.07 l
0.40 -0.04 l
0.41 0 l
0.41 0.02 l
0.40 0.06 l
0.41 0.08 l
0.40 0.10 l
0.41 0.10 l
0.41 0.11 l
0.40 0.11 l
0.41 0.10 l
0.40 0.07 l
0.41 0.05 l
0.41 0.01 l
0.40 -0.02 l
0.41 -0.08 l
0.40 -0.12 l
0.41 -0.18 l
0.41 -0.23 l
0.40 -0.29 l
0.41 -0.35 l
0.40 -0.39 l
0.41 -0.44 l
0.41 -0.48 l
0.40 -0.50 l
0.41 -0.53 l
0.40 -0.53 l
0.41 -0.52 l
0.41 -0.51 l
0.40 -0.49 l
0.41 -0.45 l
278.40 104.71 lineto
0.41 -0.36 l
0.41 -0.29 l
0.40 -0.22 l
0.41 -0.17 l
0.40 -0.10 l
0.41 -0.05 l
0.41 0 l
0.40 0.04 l
0.41 0.08 l
0.40 0.10 l
0.41 0.11 l
0.40 0.11 l
0.41 0.10 l
0.41 0.08 l
0.40 0.05 l
0.41 0.01 l
0.40 -0.03 l
0.41 -0.09 l
0.41 -0.14 l
0.40 -0.19 l
0.41 -0.24 l
0.40 -0.28 l
0.41 -0.33 l
0.41 -0.35 l
0.40 -0.37 l
0.41 -0.38 l
0.40 -0.36 l
0.41 -0.35 l
0.41 -0.31 l
0.40 -0.26 l
0.41 -0.19 l
0.40 -0.11 l
0.41 -0.05 l
0.41 0.03 l
0.40 0.10 l
0.41 0.16 l
0.40 0.21 l
0.41 0.24 l
0.41 0.27 l
0.40 0.26 l
0.41 0.24 l
0.40 0.22 l
0.41 0.17 l
0.41 0.12 l
0.40 0.05 l
0.41 -0.03 l
0.40 -0.11 l
0.41 -0.20 l
0.41 -0.27 l
0.40 -0.35 l
0.41 -0.44 l
0.40 -0.52 l
0.41 -0.59 l
0.41 -0.66 l
0.40 -0.72 l
0.41 -0.77 l
0.40 -0.82 l
0.41 -0.85 l
0.41 -0.87 l
0.40 -0.88 l
0.41 -0.85 l
0.40 -0.84 l
0.41 -0.81 l
0.40 -0.76 l
0.41 -0.72 l
0.41 -0.65 l
0.40 -0.59 l
0.41 -0.49 l
0.40 -0.44 l
0.41 -0.37 l
0.41 -0.32 l
0.40 -0.26 l
0.41 -0.22 l
0.40 -0.17 l
0.41 -0.14 l
0.41 -0.10 l
0.40 -0.08 l
0.41 -0.07 l
0.40 -0.05 l
0.41 -0.04 l
0.41 -0.03 l
0.40 -0.02 l
0.41 -0.02 l
0.40 -0.01 l
0.41 -0.01 l
0.41 0 l
0.40 -0.01 l
0.41 0 l
0.40 -0.01 l
0.41 0 l
0.41 0 l
0.40 0 l
0.41 0 l
0.40 0 l
0.41 0 l
0.41 0 l
0.40 0 l
0.41 0 l
0.40 0 l
319.00 86.08 lineto
0.41 0 l
0.40 0 l
0.41 0 l
0.40 0 l
0.41 0 l
0.41 0 l
0.40 0 l
0.41 0 l
0.40 0 l
0.41 0 l
0.40 0 l
0 0 l
-0.40 0 l
-0.41 0 l
-0.40 0 l
-0.41 0 l
-0.40 0 l
-0.41 0 l
-0.41 0 l
-0.40 0 l
-0.41 0 l
-0.40 0 l
-0.41 0 l
-0.41 0 l
-0.40 0 l
-0.41 0 l
-0.40 0 l
-0.41 0 l
-0.41 0 l
-0.40 0 l
-0.41 0 l
-0.40 0 l
-0.41 0 l
-0.41 0 l
-0.40 0 l
-0.41 0 l
-0.40 0 l
-0.41 0 l
-0.41 0 l
-0.40 0 l
-0.41 0 l
-0.40 0 l
-0.41 0 l
-0.41 0 l
-0.40 0 l
-0.41 0 l
-0.40 0 l
-0.41 0 l
-0.41 0 l
-0.40 0 l
-0.41 0 l
-0.40 0 l
-0.41 0 l
-0.41 0 l
-0.40 0 l
-0.41 0 l
-0.40 0 l
-0.41 0 l
-0.41 0 l
-0.40 0 l
-0.41 0 l
-0.40 0 l
-0.41 0 l
-0.40 0 l
-0.41 0 l
-0.41 0 l
-0.40 0 l
-0.41 0 l
-0.40 0 l
-0.41 0 l
-0.41 0 l
-0.40 0 l
-0.41 0 l
-0.40 0 l
-0.41 0 l
-0.41 0 l
-0.40 0 l
-0.41 0 l
-0.40 0 l
-0.41 0 l
-0.41 0 l
-0.40 0 l
-0.41 0 l
-0.40 0 l
-0.41 0 l
-0.41 0 l
-0.40 0 l
-0.41 0 l
-0.40 0 l
-0.41 0 l
-0.41 0 l
-0.40 0 l
-0.41 0 l
-0.40 0 l
-0.41 0 l
-0.41 0 l
-0.40 0 l
-0.41 0 l
-0.40 0 l
287.74 86.08 lineto
-0.41 0 l
-0.40 0 l
-0.41 0 l
-0.40 0 l
-0.41 0 l
-0.41 0 l
-0.40 0 l
-0.41 0 l
-0.40 0 l
-0.41 0 l
-0.41 0 l
-0.40 0 l
-0.41 0 l
-0.40 0 l
-0.41 0 l
-0.40 0 l
-0.41 0 l
-0.41 0 l
-0.40 0 l
-0.41 0 l
-0.40 0 l
-0.41 0 l
-0.41 0 l
-0.40 0 l
-0.41 0 l
-0.40 0 l
-0.41 0 l
-0.41 0 l
-0.40 0 l
-0.41 0 l
-0.40 0 l
-0.41 0 l
-0.41 0 l
-0.40 0 l
-0.41 0 l
-0.40 0 l
-0.41 0 l
-0.41 0 l
-0.40 0 l
-0.41 0 l
-0.40 0 l
-0.41 0 l
-0.41 0 l
-0.40 0 l
-0.41 0 l
-0.40 0 l
-0.41 0 l
-0.41 0 l
-0.40 0 l
-0.41 0 l
-0.40 0 l
-0.41 0 l
-0.41 0 l
-0.40 0 l
-0.41 0 l
-0.40 0 l
-0.41 0 l
-0.41 0 l
-0.40 0 l
-0.41 0 l
-0.40 0 l
-0.41 0 l
-0.41 0 l
-0.40 0 l
-0.41 0 l
-0.40 0 l
-0.41 0 l
-0.40 0 l
-0.41 0 l
-0.41 0 l
-0.40 0 l
-0.41 0 l
-0.40 0 l
-0.41 0 l
-0.41 0 l
-0.40 0 l
-0.41 0 l
-0.40 0 l
-0.41 0 l
-0.41 0 l
-0.40 0 l
-0.41 0 l
-0.40 0 l
-0.41 0 l
-0.41 0 l
-0.40 0 l
-0.41 0 l
-0.40 0 l
-0.41 0 l
-0.41 0 l
-0.40 0 l
-0.41 0 l
-0.40 0 l
-0.41 0 l
-0.41 0 l
-0.40 0 l
-0.41 0 l
-0.40 0 l
-0.41 0 l
247.14 86.08 lineto
-0.40 0 l
-0.41 0 l
-0.40 0 l
-0.41 0 l
-0.41 0 l
-0.40 0 l
-0.41 0 l
-0.40 0 l
-0.41 0 l
-0.41 0 l
-0.40 0 l
-0.41 0 l
-0.40 0 l
-0.41 0 l
-0.41 0 l
-0.40 0 l
-0.41 0 l
-0.40 0 l
-0.41 0 l
-0.40 0 l
-0.41 0 l
-0.41 0 l
-0.40 0 l
-0.41 0 l
-0.40 0 l
-0.41 0 l
-0.41 0 l
-0.40 0 l
-0.41 0 l
-0.40 0 l
-0.41 0 l
-0.41 0 l
-0.40 0 l
-0.41 0 l
-0.40 0 l
-0.41 0 l
-0.41 0 l
-0.40 0 l
-0.41 0 l
-0.40 0 l
-0.41 0 l
-0.41 0 l
-0.40 0 l
-0.41 0 l
-0.40 0 l
-0.41 0 l
-0.41 0 l
-0.40 0 l
-0.41 0 l
-0.40 0 l
-0.41 0 l
-0.41 0 l
-0.40 0 l
-0.41 0 l
-0.40 0 l
-0.41 0 l
-0.41 0 l
-0.40 0 l
-0.41 0 l
-0.40 0 l
-0.41 0 l
-0.41 0 l
-0.40 0 l
-0.41 0 l
-0.40 0 l
-0.41 0 l
-0.41 0 l
-0.40 0 l
-0.41 0 l
-0.40 0 l
-0.41 0 l
-0.40 0 l
-0.41 0 l
-0.41 0 l
-0.40 0 l
-0.41 0 l
-0.40 0 l
-0.41 0 l
-0.41 0 l
-0.40 0 l
-0.41 0 l
-0.40 0 l
-0.41 0 l
-0.41 0 l
-0.40 0 l
-0.41 0 l
-0.40 0 l
-0.41 0 l
-0.41 0 l
-0.40 0 l
-0.41 0 l
-0.40 0 l
-0.41 0 l
-0.41 0 l
-0.40 0 l
-0.41 0 l
-0.40 0 l
-0.41 0 l
-0.41 0 l
206.55 86.08 lineto
-0.41 0 l
-0.40 0 l
-0.41 0 l
-0.41 0 l
-0.40 0 l
-0.41 0 l
-0.40 0 l
-0.41 0 l
-0.41 0 l
-0.40 0 l
-0.41 0 l
-0.40 0 l
-0.41 0 l
-0.41 0 l
-0.40 0 l
-0.41 0 l
-0.40 0 l
-0.41 0 l
-0.40 0 l
-0.41 0 l
-0.41 0 l
-0.40 0 l
-0.41 0 l
-0.40 0 l
-0.41 0 l
-0.41 0 l
-0.40 0 l
-0.41 0 l
-0.40 0 l
-0.41 0 l
-0.41 0 l
-0.40 0 l
-0.41 0 l
-0.40 0 l
-0.41 0 l
-0.41 0 l
-0.40 0 l
-0.41 0 l
-0.40 0 l
-0.41 0 l
-0.41 0 l
-0.40 0 l
-0.41 0 l
-0.40 0 l
-0.41 0 l
-0.41 0 l
-0.40 0 l
-0.41 0 l
-0.40 0 l
-0.41 0 l
-0.41 0 l
-0.40 0 l
-0.41 0 l
-0.40 0 l
-0.41 0 l
-0.41 0 l
-0.40 0 l
-0.41 0 l
-0.40 0 l
-0.41 0 l
-0.41 0 l
-0.40 0 l
-0.41 0 l
-0.40 0 l
-0.41 0 l
-0.41 0 l
-0.40 0 l
-0.41 0 l
-0.40 0 l
-0.41 0 l
-0.40 0 l
-0.41 0 l
-0.41 0 l
-0.40 0 l
-0.41 0 l
-0.40 0 l
-0.41 0 l
-0.41 0 l
-0.40 0 l
-0.41 0 l
-0.40 0 l
-0.41 0 l
-0.41 0 l
-0.40 0 l
-0.41 0 l
-0.40 0 l
-0.41 0 l
-0.41 0 l
-0.40 0 l
-0.41 0 l
-0.40 0 l
-0.41 0 l
-0.41 0 l
-0.40 0 l
-0.41 0 l
-0.40 0 l
-0.41 0 l
-0.41 0 l
-0.40 0 l
165.95 86.08 lineto
-0.40 0 l
-0.41 0 l
-0.41 0 l
-0.40 0 l
-0.41 0 l
-0.40 0 l
-0.41 0 l
-0.41 0 l
-0.40 0 l
-0.41 0 l
-0.40 0 l
-0.41 0 l
-0.41 0 l
-0.40 0 l
-0.41 0 l
-0.40 0 l
-0.41 0 l
-0.41 0 l
-0.40 0 l
-0.41 0 l
-0.40 0 l
-0.41 0 l
-0.40 0 l
-0.41 0 l
-0.41 0 l
-0.40 0 l
-0.41 0 l
-0.40 0 l
-0.41 0 l
-0.41 0 l
-0.40 0 l
-0.41 0 l
-0.40 0 l
-0.41 0 l
-0.41 0 l
-0.40 0 l
-0.41 0 l
-0.40 0 l
-0.41 0 l
-0.41 0 l
-0.40 0 l
-0.41 0 l
-0.40 0 l
-0.41 0 l
-0.41 0 l
-0.40 0 l
-0.41 0 l
-0.40 0 l
-0.41 0 l
-0.41 0 l
-0.40 0 l
-0.41 0 l
-0.40 0 l
-0.41 0 l
-0.41 0 l
-0.40 0 l
-0.41 0 l
-0.40 0 l
-0.41 0 l
-0.41 0 l
-0.40 0 l
-0.41 0 l
-0.40 0 l
-0.41 0 l
-0.41 0 l
-0.40 0 l
-0.41 0 l
-0.40 0 l
-0.41 0 l
-0.41 0 l
-0.40 0 l
-0.41 0 l
-0.40 0 l
-0.41 0 l
-0.40 0 l
-0.41 0 l
-0.41 0 l
-0.40 0 l
-0.41 0 l
-0.40 0 l
-0.41 0 l
-0.41 0 l
-0.40 0 l
-0.41 0 l
-0.40 0 l
-0.41 0 l
-0.41 0 l
-0.40 0 l
-0.41 0 l
-0.40 0 l
-0.41 0 l
-0.41 0 l
-0.40 0 l
-0.41 0 l
-0.40 0 l
-0.41 0 l
-0.41 0 l
-0.40 0 l
-0.41 0 l
125.36 86.08 lineto
-0.41 0 l
-0.41 0 l
-0.40 0 l
-0.41 0 l
-0.40 0 l
-0.41 0 l
-0.41 0 l
-0.40 0 l
-0.41 0 l
-0.40 0 l
-0.41 0 l
-0.41 0 l
-0.40 0 l
-0.41 0 l
-0.40 0 l
-0.41 0 l
-0.41 0 l
-0.40 0 l
-0.41 0 l
-0.40 0 l
-0.41 0 l
-0.41 0 l
-0.40 0 l
cp p1
0.2000 0.2000 0.2000 srgb
1.07 setlinewidth
[] 0 setdash
105.65 78.81 228.19 159.80 r p1
0.00 0.00 432.00 324.00 cl
105.65 238.61 333.84 267.25 cl
105.65 238.61 333.84 267.25 cl
/bg { 0.8510 0.8510 0.8510 srgb } def
1 1 1 srgb
1.07 setlinewidth
[] 0 setdash
1 setlinecap
1 setlinejoin
10.00 setmiterlimit
105.65 238.61 228.19 28.64 r p3
/Font1 findfont 24 s
0.1020 0.1020 0.1020 srgb
204.41 244.31 (A) 0 ta
-2.880 (T) tb gr
105.65 238.61 333.84 267.25 cl
105.65 238.61 333.84 267.25 cl
0.00 0.00 432.00 324.00 cl
0.00 0.00 432.00 324.00 cl
0.00 0.00 432.00 324.00 cl
0.00 0.00 432.00 324.00 cl
0.00 0.00 432.00 324.00 cl
0.00 0.00 432.00 324.00 cl
0.00 0.00 432.00 324.00 cl
0.00 0.00 432.00 324.00 cl
0.2000 0.2000 0.2000 srgb
1.07 setlinewidth
[] 0 setdash
0 setlinecap
1 setlinejoin
10.00 setmiterlimit
np
108.70 76.07 m
0 2.74 l
o
np
169.71 76.07 m
0 2.74 l
o
np
230.72 76.07 m
0 2.74 l
o
np
291.74 76.07 m
0 2.74 l
o
0.00 0.00 432.00 324.00 cl
0.00 0.00 432.00 324.00 cl
/Font1 findfont 24 s
0.3020 0.3020 0.3020 srgb
108.70 56.65 (0.00) .5 0 t
169.71 56.65 (0.25) .5 0 t
230.72 56.65 (0.50) .5 0 t
291.74 56.65 (0.75) .5 0 t
0.00 0.00 432.00 324.00 cl
0.00 0.00 432.00 324.00 cl
0.00 0.00 432.00 324.00 cl
0.00 0.00 432.00 324.00 cl
0.00 0.00 432.00 324.00 cl
0.00 0.00 432.00 324.00 cl
0.00 0.00 432.00 324.00 cl
0.00 0.00 432.00 324.00 cl
/Font1 findfont 24 s
0.3020 0.3020 0.3020 srgb
100.72 77.46 (0.00) 1 0 t
100.72 113.78 (0.25) 1 0 t
100.72 150.10 (0.50) 1 0 t
100.72 186.41 (0.75) 1 0 t
100.72 222.73 (1.00) 1 0 t
0.00 0.00 432.00 324.00 cl
0.00 0.00 432.00 324.00 cl
0.2000 0.2000 0.2000 srgb
1.07 setlinewidth
[] 0 setdash
0 setlinecap
1 setlinejoin
10.00 setmiterlimit
np
102.91 86.08 m
2.74 0 l
o
np
102.91 122.40 m
2.74 0 l
o
np
102.91 158.71 m
2.74 0 l
o
np
102.91 195.03 m
2.74 0 l
o
np
102.91 231.35 m
2.74 0 l
o
0.00 0.00 432.00 324.00 cl
0.00 0.00 432.00 324.00 cl
0.00 0.00 432.00 324.00 cl
0.00 0.00 432.00 324.00 cl
0.00 0.00 432.00 324.00 cl
0.00 0.00 432.00 324.00 cl
0.00 0.00 432.00 324.00 cl
0.00 0.00 432.00 324.00 cl
/Font1 findfont 24 s
0 0 0 srgb
178.39 8.12 (P) 0 ta
-1.200 (ercent) tb gr
0.00 0.00 432.00 324.00 cl
0.00 0.00 432.00 324.00 cl
/Font1 findfont 24 s
0 0 0 srgb
22.71 158.71 (Density) .5 90 t
0.00 0.00 432.00 324.00 cl
0.00 0.00 432.00 324.00 cl
0.00 0.00 432.00 324.00 cl
0.00 0.00 432.00 324.00 cl
0.00 0.00 432.00 324.00 cl
0.00 0.00 432.00 324.00 cl
0.00 0.00 432.00 324.00 cl
0.00 0.00 432.00 324.00 cl
/bg { 1 1 1 srgb } def
344.80 110.66 81.72 96.10 r p2
0.00 0.00 432.00 324.00 cl
0.00 0.00 432.00 324.00 cl
0.00 0.00 432.00 324.00 cl
0.00 0.00 432.00 324.00 cl
/Font1 findfont 11 s
0 0 0 srgb
350.28 192.06 (filename) 0 0 t
0.00 0.00 432.00 324.00 cl
0.00 0.00 432.00 324.00 cl
0.00 0.00 432.00 324.00 cl
/bg { 1 1 1 srgb } def
350.28 167.98 17.28 17.28 r p2
0.00 0.00 432.00 324.00 cl
0.00 0.00 432.00 324.00 cl
0 0 0 srgb
0.01 setlinewidth
[] 0 setdash
1 setlinecap
0 setlinejoin
10.00 setmiterlimit
350.28 167.98 17.28 17.28 r p1
0.00 0.00 432.00 324.00 cl
0.00 0.00 432.00 324.00 cl
/bg { 1 1 1 srgb } def
350.28 150.70 17.28 17.28 r p2
0.00 0.00 432.00 324.00 cl
0.00 0.00 432.00 324.00 cl
0 0 0 srgb
0.01 setlinewidth
[] 0 setdash
1 setlinecap
0 setlinejoin
10.00 setmiterlimit
350.28 150.70 17.28 17.28 r p1
0.00 0.00 432.00 324.00 cl
0.00 0.00 432.00 324.00 cl
/bg { 1 1 1 srgb } def
350.28 133.42 17.28 17.28 r p2
0.00 0.00 432.00 324.00 cl
0.00 0.00 432.00 324.00 cl
0 0 0 srgb
0.01 setlinewidth
[] 0 setdash
1 setlinecap
0 setlinejoin
10.00 setmiterlimit
350.28 133.42 17.28 17.28 r p1
0.00 0.00 432.00 324.00 cl
0.00 0.00 432.00 324.00 cl
/bg { 1 1 1 srgb } def
350.28 116.14 17.28 17.28 r p2
0.00 0.00 432.00 324.00 cl
0.00 0.00 432.00 324.00 cl
0 0 0 srgb
0.01 setlinewidth
[] 0 setdash
1 setlinecap
0 setlinejoin
10.00 setmiterlimit
350.28 116.14 17.28 17.28 r p1
0.00 0.00 432.00 324.00 cl
0.00 0.00 432.00 324.00 cl
0.00 0.00 432.00 324.00 cl
0.00 0.00 432.00 324.00 cl
/Font1 findfont 9 s
0 0 0 srgb
373.04 173.39 (do) 0 ta
-0.270 (xIgG) tb gr
0.00 0.00 432.00 324.00 cl
0.00 0.00 432.00 324.00 cl
0.00 0.00 432.00 324.00 cl
0.00 0.00 432.00 324.00 cl
0.00 0.00 432.00 324.00 cl
/Font1 findfont 9 s
0 0 0 srgb
373.04 156.11 (do) 0 ta
-0.270 (xRIG-I) tb gr
0.00 0.00 432.00 324.00 cl
0.00 0.00 432.00 324.00 cl
0.00 0.00 432.00 324.00 cl
0.00 0.00 432.00 324.00 cl
0.00 0.00 432.00 324.00 cl
/Font1 findfont 9 s
0 0 0 srgb
373.04 138.83 (nodo) 0 ta
-0.270 (xIgG) tb gr
0.00 0.00 432.00 324.00 cl
0.00 0.00 432.00 324.00 cl
0.00 0.00 432.00 324.00 cl
0.00 0.00 432.00 324.00 cl
0.00 0.00 432.00 324.00 cl
/Font1 findfont 9 s
0 0 0 srgb
373.04 121.55 (nodo) 0 ta
-0.270 (xRIG-I) tb gr
0.00 0.00 432.00 324.00 cl
0.00 0.00 432.00 324.00 cl
0.00 0.00 432.00 324.00 cl
0.00 0.00 432.00 324.00 cl
0.00 0.00 432.00 324.00 cl
0.00 0.00 432.00 324.00 cl
0.00 0.00 432.00 324.00 cl
/Font1 findfont 24 s
0 0 0 srgb
105.65 301.29 (Number of Contigs: 12076) 0 0 t
0.00 0.00 432.00 324.00 cl
0.00 0.00 432.00 324.00 cl
0.00 0.00 432.00 324.00 cl
0.00 0.00 432.00 324.00 cl
0.00 0.00 432.00 324.00 cl
0.00 0.00 432.00 324.00 cl
ep
%%Trailer
%%Pages: 1
%%EOF
