%!PS-Adobe-3.0 EPSF-3.0
%%DocumentNeededResources: font Helvetica
%%+ font Helvetica-Bold
%%+ font Helvetica-Oblique
%%+ font Helvetica-BoldOblique
%%+ font Symbol
%%Title: R Graphics Output
%%Creator: R Software
%%Pages: (atend)
%%BoundingBox: 0 0 432 324
%%EndComments
%%BeginProlog
/bp  { gs sRGB gs } def
% begin .ps.prolog
/gs  { gsave } bind def
/gr  { grestore } bind def
/ep  { showpage gr gr } bind def
/m   { moveto } bind def
/l  { rlineto } bind def
/np  { newpath } bind def
/cp  { closepath } bind def
/f   { fill } bind def
/o   { stroke } bind def
/c   { newpath 0 360 arc } bind def
/r   { 4 2 roll moveto 1 copy 3 -1 roll exch 0 exch rlineto 0 rlineto -1 mul 0 exch rlineto closepath } bind def
/p1  { stroke } bind def
/p2  { gsave bg fill grestore newpath } bind def
/p3  { gsave bg fill grestore stroke } bind def
/p6  { gsave bg eofill grestore newpath } bind def
/p7  { gsave bg eofill grestore stroke } bind def
/t   { 5 -2 roll moveto gsave rotate
       1 index stringwidth pop
       mul neg 0 rmoveto show grestore } bind def
/ta  { 4 -2 roll moveto gsave rotate show } bind def
/tb  { 2 -1 roll 0 rmoveto show } bind def
/cl  { grestore gsave newpath 3 index 3 index moveto 1 index
       4 -1 roll lineto  exch 1 index lineto lineto
       closepath clip newpath } bind def
/rgb { setrgbcolor } bind def
/s   { scalefont setfont } bind def
% end   .ps.prolog
/sRGB { [ /CIEBasedABC
          << /DecodeLMN
               [ { dup 0.03928 le
                        {12.92321 div}
                        {0.055 add 1.055 div 2.4 exp }
                     ifelse
                 } bind dup dup
               ]
             /MatrixLMN [0.412457 0.212673 0.019334
                         0.357576 0.715152 0.119192
                         0.180437 0.072175 0.950301]
             /WhitePoint [0.9505 1.0 1.0890]
           >>
         ] setcolorspace } bind def
/srgb { setcolor } bind def
%%IncludeResource: font Helvetica
/Helvetica findfont
dup length dict begin
  {1 index /FID ne {def} {pop pop} ifelse} forall
  /Encoding ISOLatin1Encoding def
  currentdict
  end
/Font1 exch definefont pop
%%IncludeResource: font Helvetica-Bold
/Helvetica-Bold findfont
dup length dict begin
  {1 index /FID ne {def} {pop pop} ifelse} forall
  /Encoding ISOLatin1Encoding def
  currentdict
  end
/Font2 exch definefont pop
%%IncludeResource: font Helvetica-Oblique
/Helvetica-Oblique findfont
dup length dict begin
  {1 index /FID ne {def} {pop pop} ifelse} forall
  /Encoding ISOLatin1Encoding def
  currentdict
  end
/Font3 exch definefont pop
%%IncludeResource: font Helvetica-BoldOblique
/Helvetica-BoldOblique findfont
dup length dict begin
  {1 index /FID ne {def} {pop pop} ifelse} forall
  /Encoding ISOLatin1Encoding def
  currentdict
  end
/Font4 exch definefont pop
%%IncludeResource: font Symbol
/Symbol findfont
dup length dict begin
  {1 index /FID ne {def} {pop pop} ifelse} forall
  currentdict
  end
/Font5 exch definefont pop
%%EndProlog
%%Page: 1 1
bp
0.00 0.00 432.00 324.00 cl
0.00 0.00 432.00 324.00 cl
0.00 0.00 432.00 324.00 cl
0.00 0.00 432.00 324.00 cl
0.00 0.00 432.00 324.00 cl
0.00 0.00 432.00 324.00 cl
0.00 0.00 432.00 324.00 cl
0.00 0.00 432.00 324.00 cl
/bg { 1 1 1 srgb } def
1 1 1 srgb
1.07 setlinewidth
[] 0 setdash
1 setlinecap
1 setlinejoin
10.00 setmiterlimit
0.00 0.00 432.00 324.00 r p3
0.00 0.00 432.00 324.00 cl
105.65 175.77 263.34 238.61 cl
/bg { 1 1 1 srgb } def
105.65 175.77 157.70 62.84 r p2
0.9216 0.9216 0.9216 srgb
1.07 setlinewidth
[] 0 setdash
0 setlinecap
1 setlinejoin
10.00 setmiterlimit
np
105.65 187.58 m
157.69 0 l
o
np
105.65 204.78 m
157.69 0 l
o
np
105.65 221.99 m
157.69 0 l
o
np
132.99 175.77 m
0 62.84 l
o
np
167.08 175.77 m
0 62.84 l
o
np
201.17 175.77 m
0 62.84 l
o
np
235.26 175.77 m
0 62.84 l
o
0.2000 0.2000 0.2000 srgb
1 setlinecap
105.65 175.77 157.70 62.84 r p1
0.00 0.00 432.00 324.00 cl
105.65 78.81 263.34 141.65 cl
/bg { 1 1 1 srgb } def
105.65 78.81 157.70 62.84 r p2
0.9216 0.9216 0.9216 srgb
1.07 setlinewidth
[] 0 setdash
0 setlinecap
1 setlinejoin
10.00 setmiterlimit
np
105.65 90.62 m
157.69 0 l
o
np
105.65 107.82 m
157.69 0 l
o
np
105.65 125.03 m
157.69 0 l
o
np
132.99 78.81 m
0 62.84 l
o
np
167.08 78.81 m
0 62.84 l
o
np
201.17 78.81 m
0 62.84 l
o
np
235.26 78.81 m
0 62.84 l
o
0.2000 0.2000 0.2000 srgb
1 setlinecap
105.65 78.81 157.70 62.84 r p1
0.00 0.00 432.00 324.00 cl
268.82 175.77 426.52 238.61 cl
/bg { 1 1 1 srgb } def
268.82 175.77 157.70 62.84 r p2
0.9216 0.9216 0.9216 srgb
1.07 setlinewidth
[] 0 setdash
0 setlinecap
1 setlinejoin
10.00 setmiterlimit
np
268.82 187.58 m
157.70 0 l
o
np
268.82 204.78 m
157.70 0 l
o
np
268.82 221.99 m
157.70 0 l
o
np
296.16 175.77 m
0 62.84 l
o
np
330.25 175.77 m
0 62.84 l
o
np
364.34 175.77 m
0 62.84 l
o
np
398.43 175.77 m
0 62.84 l
o
0.2000 0.2000 0.2000 srgb
1 setlinecap
268.82 175.77 157.70 62.84 r p1
0.00 0.00 432.00 324.00 cl
268.82 78.81 426.52 141.65 cl
/bg { 1 1 1 srgb } def
268.82 78.81 157.70 62.84 r p2
0.9216 0.9216 0.9216 srgb
1.07 setlinewidth
[] 0 setdash
0 setlinecap
1 setlinejoin
10.00 setmiterlimit
np
268.82 90.62 m
157.70 0 l
o
np
268.82 107.82 m
157.70 0 l
o
np
268.82 125.03 m
157.70 0 l
o
np
296.16 78.81 m
0 62.84 l
o
np
330.25 78.81 m
0 62.84 l
o
np
364.34 78.81 m
0 62.84 l
o
np
398.43 78.81 m
0 62.84 l
o
0.2000 0.2000 0.2000 srgb
1 setlinecap
268.82 78.81 157.70 62.84 r p1
0.00 0.00 432.00 324.00 cl
105.65 141.65 263.34 170.29 cl
105.65 141.65 263.34 170.29 cl
/bg { 0.8510 0.8510 0.8510 srgb } def
1 1 1 srgb
1.07 setlinewidth
[] 0 setdash
1 setlinecap
1 setlinejoin
10.00 setmiterlimit
105.65 141.65 157.70 28.64 r p3
/Font1 findfont 24 s
0.1020 0.1020 0.1020 srgb
132.46 147.36 (nodo) 0 ta
-0.720 (xIgG) tb gr
105.65 141.65 263.34 170.29 cl
105.65 141.65 263.34 170.29 cl
0.00 0.00 432.00 324.00 cl
268.82 141.65 426.52 170.29 cl
268.82 141.65 426.52 170.29 cl
/bg { 0.8510 0.8510 0.8510 srgb } def
1 1 1 srgb
1.07 setlinewidth
[] 0 setdash
1 setlinecap
1 setlinejoin
10.00 setmiterlimit
268.82 141.65 157.70 28.64 r p3
/Font1 findfont 24 s
0.1020 0.1020 0.1020 srgb
283.30 147.36 (nodo) 0 ta
-0.720 (xRIG-I) tb gr
268.82 141.65 426.52 170.29 cl
268.82 141.65 426.52 170.29 cl
0.00 0.00 432.00 324.00 cl
105.65 238.61 263.34 267.25 cl
105.65 238.61 263.34 267.25 cl
/bg { 0.8510 0.8510 0.8510 srgb } def
1 1 1 srgb
1.07 setlinewidth
[] 0 setdash
1 setlinecap
1 setlinejoin
10.00 setmiterlimit
105.65 238.61 157.70 28.64 r p3
/Font1 findfont 24 s
0.1020 0.1020 0.1020 srgb
145.81 244.31 (do) 0 ta
-0.720 (xIgG) tb gr
105.65 238.61 263.34 267.25 cl
105.65 238.61 263.34 267.25 cl
0.00 0.00 432.00 324.00 cl
268.82 238.61 426.52 267.25 cl
268.82 238.61 426.52 267.25 cl
/bg { 0.8510 0.8510 0.8510 srgb } def
1 1 1 srgb
1.07 setlinewidth
[] 0 setdash
1 setlinecap
1 setlinejoin
10.00 setmiterlimit
268.82 238.61 157.70 28.64 r p3
/Font1 findfont 24 s
0.1020 0.1020 0.1020 srgb
296.65 244.31 (do) 0 ta
-0.720 (xRIG-I) tb gr
268.82 238.61 426.52 267.25 cl
268.82 238.61 426.52 267.25 cl
0.00 0.00 432.00 324.00 cl
0.00 0.00 432.00 324.00 cl
0.00 0.00 432.00 324.00 cl
0.00 0.00 432.00 324.00 cl
0.00 0.00 432.00 324.00 cl
0.00 0.00 432.00 324.00 cl
0.00 0.00 432.00 324.00 cl
0.00 0.00 432.00 324.00 cl
0.00 0.00 432.00 324.00 cl
0.00 0.00 432.00 324.00 cl
0.00 0.00 432.00 324.00 cl
0.00 0.00 432.00 324.00 cl
0.00 0.00 432.00 324.00 cl
0.00 0.00 432.00 324.00 cl
0.2000 0.2000 0.2000 srgb
1.07 setlinewidth
[] 0 setdash
0 setlinecap
1 setlinejoin
10.00 setmiterlimit
np
132.99 76.07 m
0 2.74 l
o
np
167.08 76.07 m
0 2.74 l
o
np
201.17 76.07 m
0 2.74 l
o
np
235.26 76.07 m
0 2.74 l
o
0.00 0.00 432.00 324.00 cl
0.00 0.00 432.00 324.00 cl
/Font1 findfont 24 s
0.3020 0.3020 0.3020 srgb
132.99 56.65 (1.5) .5 0 t
167.08 56.65 (2.0) .5 0 t
201.17 56.65 (2.5) .5 0 t
235.26 56.65 (3.0) .5 0 t
0.00 0.00 432.00 324.00 cl
0.00 0.00 432.00 324.00 cl
0.00 0.00 432.00 324.00 cl
0.00 0.00 432.00 324.00 cl
0.00 0.00 432.00 324.00 cl
0.00 0.00 432.00 324.00 cl
0.00 0.00 432.00 324.00 cl
0.00 0.00 432.00 324.00 cl
0.2000 0.2000 0.2000 srgb
1.07 setlinewidth
[] 0 setdash
0 setlinecap
1 setlinejoin
10.00 setmiterlimit
np
296.16 76.07 m
0 2.74 l
o
np
330.25 76.07 m
0 2.74 l
o
np
364.34 76.07 m
0 2.74 l
o
np
398.43 76.07 m
0 2.74 l
o
0.00 0.00 432.00 324.00 cl
0.00 0.00 432.00 324.00 cl
/Font1 findfont 24 s
0.3020 0.3020 0.3020 srgb
296.16 56.65 (1.5) .5 0 t
330.25 56.65 (2.0) .5 0 t
364.34 56.65 (2.5) .5 0 t
398.43 56.65 (3.0) .5 0 t
0.00 0.00 432.00 324.00 cl
0.00 0.00 432.00 324.00 cl
0.00 0.00 432.00 324.00 cl
0.00 0.00 432.00 324.00 cl
0.00 0.00 432.00 324.00 cl
0.00 0.00 432.00 324.00 cl
0.00 0.00 432.00 324.00 cl
0.00 0.00 432.00 324.00 cl
0.00 0.00 432.00 324.00 cl
0.00 0.00 432.00 324.00 cl
0.00 0.00 432.00 324.00 cl
0.00 0.00 432.00 324.00 cl
0.00 0.00 432.00 324.00 cl
0.00 0.00 432.00 324.00 cl
0.00 0.00 432.00 324.00 cl
0.00 0.00 432.00 324.00 cl
/Font1 findfont 24 s
0.3020 0.3020 0.3020 srgb
100.72 178.96 (0.25) 1 0 t
100.72 196.17 (0.50) 1 0 t
100.72 213.37 (0.75) 1 0 t
0.00 0.00 432.00 324.00 cl
0.00 0.00 432.00 324.00 cl
0.2000 0.2000 0.2000 srgb
1.07 setlinewidth
[] 0 setdash
0 setlinecap
1 setlinejoin
10.00 setmiterlimit
np
102.91 187.58 m
2.74 0 l
o
np
102.91 204.78 m
2.74 0 l
o
np
102.91 221.99 m
2.74 0 l
o
0.00 0.00 432.00 324.00 cl
0.00 0.00 432.00 324.00 cl
0.00 0.00 432.00 324.00 cl
0.00 0.00 432.00 324.00 cl
0.00 0.00 432.00 324.00 cl
0.00 0.00 432.00 324.00 cl
0.00 0.00 432.00 324.00 cl
0.00 0.00 432.00 324.00 cl
/Font1 findfont 24 s
0.3020 0.3020 0.3020 srgb
100.72 82.00 (0.25) 1 0 t
100.72 99.21 (0.50) 1 0 t
100.72 116.42 (0.75) 1 0 t
0.00 0.00 432.00 324.00 cl
0.00 0.00 432.00 324.00 cl
0.2000 0.2000 0.2000 srgb
1.07 setlinewidth
[] 0 setdash
0 setlinecap
1 setlinejoin
10.00 setmiterlimit
np
102.91 90.62 m
2.74 0 l
o
np
102.91 107.82 m
2.74 0 l
o
np
102.91 125.03 m
2.74 0 l
o
0.00 0.00 432.00 324.00 cl
0.00 0.00 432.00 324.00 cl
0.00 0.00 432.00 324.00 cl
0.00 0.00 432.00 324.00 cl
0.00 0.00 432.00 324.00 cl
0.00 0.00 432.00 324.00 cl
0.00 0.00 432.00 324.00 cl
0.00 0.00 432.00 324.00 cl
0.00 0.00 432.00 324.00 cl
0.00 0.00 432.00 324.00 cl
0.00 0.00 432.00 324.00 cl
0.00 0.00 432.00 324.00 cl
0.00 0.00 432.00 324.00 cl
0.00 0.00 432.00 324.00 cl
/Font1 findfont 24 s
0 0 0 srgb
266.08 8.12 ( lg\(Length\)) .5 0 t
0.00 0.00 432.00 324.00 cl
0.00 0.00 432.00 324.00 cl
/Font1 findfont 24 s
0 0 0 srgb
22.71 158.71 (GC content) .5 90 t
0.00 0.00 432.00 324.00 cl
0.00 0.00 432.00 324.00 cl
0.00 0.00 432.00 324.00 cl
0.00 0.00 432.00 324.00 cl
0.00 0.00 432.00 324.00 cl
0.00 0.00 432.00 324.00 cl
/Font1 findfont 24 s
0 0 0 srgb
105.65 301.29 (Number of Contigs: 12076) 0 0 t
0.00 0.00 432.00 324.00 cl
0.00 0.00 432.00 324.00 cl
0.00 0.00 432.00 324.00 cl
0.00 0.00 432.00 324.00 cl
0.00 0.00 432.00 324.00 cl
0.00 0.00 432.00 324.00 cl
ep
%%Trailer
%%Pages: 1
%%EOF
