%!PS-Adobe-3.0 EPSF-3.0
%%DocumentNeededResources: font Helvetica
%%+ font Helvetica-Bold
%%+ font Helvetica-Oblique
%%+ font Helvetica-BoldOblique
%%+ font Symbol
%%Title: R Graphics Output
%%Creator: R Software
%%Pages: (atend)
%%BoundingBox: 0 0 432 324
%%EndComments
%%BeginProlog
/bp  { gs sRGB gs } def
% begin .ps.prolog
/gs  { gsave } bind def
/gr  { grestore } bind def
/ep  { showpage gr gr } bind def
/m   { moveto } bind def
/l  { rlineto } bind def
/np  { newpath } bind def
/cp  { closepath } bind def
/f   { fill } bind def
/o   { stroke } bind def
/c   { newpath 0 360 arc } bind def
/r   { 4 2 roll moveto 1 copy 3 -1 roll exch 0 exch rlineto 0 rlineto -1 mul 0 exch rlineto closepath } bind def
/p1  { stroke } bind def
/p2  { gsave bg fill grestore newpath } bind def
/p3  { gsave bg fill grestore stroke } bind def
/p6  { gsave bg eofill grestore newpath } bind def
/p7  { gsave bg eofill grestore stroke } bind def
/t   { 5 -2 roll moveto gsave rotate
       1 index stringwidth pop
       mul neg 0 rmoveto show grestore } bind def
/ta  { 4 -2 roll moveto gsave rotate show } bind def
/tb  { 2 -1 roll 0 rmoveto show } bind def
/cl  { grestore gsave newpath 3 index 3 index moveto 1 index
       4 -1 roll lineto  exch 1 index lineto lineto
       closepath clip newpath } bind def
/rgb { setrgbcolor } bind def
/s   { scalefont setfont } bind def
% end   .ps.prolog
/sRGB { [ /CIEBasedABC
          << /DecodeLMN
               [ { dup 0.03928 le
                        {12.92321 div}
                        {0.055 add 1.055 div 2.4 exp }
                     ifelse
                 } bind dup dup
               ]
             /MatrixLMN [0.412457 0.212673 0.019334
                         0.357576 0.715152 0.119192
                         0.180437 0.072175 0.950301]
             /WhitePoint [0.9505 1.0 1.0890]
           >>
         ] setcolorspace } bind def
/srgb { setcolor } bind def
%%IncludeResource: font Helvetica
/Helvetica findfont
dup length dict begin
  {1 index /FID ne {def} {pop pop} ifelse} forall
  /Encoding ISOLatin1Encoding def
  currentdict
  end
/Font1 exch definefont pop
%%IncludeResource: font Helvetica-Bold
/Helvetica-Bold findfont
dup length dict begin
  {1 index /FID ne {def} {pop pop} ifelse} forall
  /Encoding ISOLatin1Encoding def
  currentdict
  end
/Font2 exch definefont pop
%%IncludeResource: font Helvetica-Oblique
/Helvetica-Oblique findfont
dup length dict begin
  {1 index /FID ne {def} {pop pop} ifelse} forall
  /Encoding ISOLatin1Encoding def
  currentdict
  end
/Font3 exch definefont pop
%%IncludeResource: font Helvetica-BoldOblique
/Helvetica-BoldOblique findfont
dup length dict begin
  {1 index /FID ne {def} {pop pop} ifelse} forall
  /Encoding ISOLatin1Encoding def
  currentdict
  end
/Font4 exch definefont pop
%%IncludeResource: font Symbol
/Symbol findfont
dup length dict begin
  {1 index /FID ne {def} {pop pop} ifelse} forall
  currentdict
  end
/Font5 exch definefont pop
%%EndProlog
%%Page: 1 1
bp
0.00 0.00 432.00 324.00 cl
0.00 0.00 432.00 324.00 cl
0.00 0.00 432.00 324.00 cl
0.00 0.00 432.00 324.00 cl
0.00 0.00 432.00 324.00 cl
0.00 0.00 432.00 324.00 cl
0.00 0.00 432.00 324.00 cl
0.00 0.00 432.00 324.00 cl
/bg { 1 1 1 srgb } def
1 1 1 srgb
1.07 setlinewidth
[] 0 setdash
1 setlinecap
1 setlinejoin
10.00 setmiterlimit
0.00 0.00 432.00 324.00 r p3
0.00 0.00 432.00 324.00 cl
125.66 78.81 333.84 238.61 cl
/bg { 1 1 1 srgb } def
125.66 78.81 208.17 159.80 r p2
0 0 0 srgb
0.01 setlinewidth
[] 0 setdash
1 setlinecap
1 setlinejoin
10.00 setmiterlimit
np
 135.13 89.84 m
0.37 0.39 l
0.37 0.41 l
0.37 0.42 l
0.37 0.43 l
0.37 0.43 l
0.37 0.43 l
0.37 0.44 l
0.37 0.42 l
0.37 0.41 l
0.37 0.39 l
0.37 0.37 l
0.37 0.35 l
0.37 0.32 l
0.37 0.29 l
0.37 0.25 l
0.37 0.22 l
0.37 0.19 l
0.37 0.15 l
0.37 0.12 l
0.37 0.10 l
0.37 0.06 l
0.37 0.03 l
0.37 0.02 l
0.37 0.01 l
0.37 -0.01 l
0.37 0 l
0.37 -0.01 l
0.38 0 l
0.37 0 l
0.37 0.02 l
0.37 0.04 l
0.37 0.06 l
0.37 0.08 l
0.37 0.11 l
0.37 0.12 l
0.37 0.15 l
0.37 0.17 l
0.37 0.19 l
0.37 0.21 l
0.37 0.23 l
0.37 0.23 l
0.37 0.25 l
0.37 0.25 l
0.37 0.26 l
0.37 0.26 l
0.37 0.26 l
0.37 0.26 l
0.37 0.26 l
0.37 0.26 l
0.37 0.26 l
0.37 0.25 l
0.37 0.26 l
0.37 0.26 l
0.37 0.27 l
0.37 0.28 l
0.37 0.28 l
0.38 0.31 l
0.37 0.32 l
0.37 0.34 l
0.37 0.36 l
0.37 0.39 l
0.37 0.42 l
0.37 0.45 l
0.37 0.48 l
0.37 0.52 l
0.37 0.54 l
0.37 0.59 l
0.37 0.62 l
0.37 0.65 l
0.37 0.68 l
0.37 0.72 l
0.37 0.75 l
0.37 0.78 l
0.37 0.82 l
0.37 0.84 l
0.37 0.87 l
0.37 0.89 l
0.37 0.92 l
0.37 0.94 l
0.37 0.96 l
0.37 0.98 l
0.37 1.00 l
0.37 1.01 l
0.37 1.02 l
0.38 1.04 l
0.37 1.04 l
0.37 1.05 l
0.37 1.06 l
0.37 1.05 l
0.37 1.04 l
0.37 1.04 l
0.37 1.02 l
0.37 1.02 l
0.37 0.99 l
0.37 0.96 l
0.37 0.94 l
0.37 0.91 l
0.37 0.88 l
0.37 0.83 l
172.16 136.84 lineto
0.37 0.76 l
0.37 0.72 l
0.37 0.66 l
0.37 0.62 l
0.37 0.58 l
0.37 0.52 l
0.37 0.48 l
0.37 0.43 l
0.37 0.38 l
0.37 0.33 l
0.37 0.29 l
0.37 0.23 l
0.37 0.19 l
0.38 0.15 l
0.37 0.10 l
0.37 0.06 l
0.37 0.01 l
0.37 -0.02 l
0.37 -0.05 l
0.37 -0.09 l
0.37 -0.12 l
0.37 -0.14 l
0.37 -0.18 l
0.37 -0.19 l
0.37 -0.22 l
0.37 -0.23 l
0.37 -0.24 l
0.37 -0.26 l
0.37 -0.27 l
0.37 -0.28 l
0.37 -0.29 l
0.37 -0.29 l
0.37 -0.30 l
0.37 -0.30 l
0.37 -0.31 l
0.37 -0.31 l
0.37 -0.32 l
0.37 -0.32 l
0.37 -0.33 l
0.37 -0.33 l
0.37 -0.34 l
0.38 -0.35 l
0.37 -0.36 l
0.37 -0.36 l
0.37 -0.39 l
0.37 -0.40 l
0.37 -0.41 l
0.37 -0.44 l
0.37 -0.46 l
0.37 -0.48 l
0.37 -0.52 l
0.37 -0.54 l
0.37 -0.58 l
0.37 -0.61 l
0.37 -0.64 l
0.37 -0.68 l
0.37 -0.71 l
0.37 -0.74 l
0.37 -0.77 l
0.37 -0.77 l
0.37 -0.78 l
0.37 -0.77 l
0.37 -0.74 l
0.37 -0.68 l
0.37 -0.61 l
0.37 -0.50 l
0.37 -0.36 l
0.37 -0.19 l
0.37 0.03 l
0.37 0.28 l
0.38 0.61 l
0.37 0.97 l
0.37 1.37 l
0.37 1.81 l
0.37 2.28 l
0.37 2.77 l
0.37 3.31 l
0.37 3.87 l
0.37 4.44 l
0.37 4.97 l
0.37 5.44 l
0.37 5.87 l
0.37 6.25 l
0.37 6.53 l
0.37 6.75 l
0.37 6.81 l
0.37 6.75 l
0.37 6.55 l
0.37 6.24 l
0.37 5.79 l
0.37 5.25 l
0.37 4.50 l
0.37 3.64 l
0.37 2.76 l
0.37 1.84 l
0.37 0.89 l
0.37 -0.07 l
0.37 -1.01 l
0.38 -2.00 l
209.20 225.38 lineto
0.37 -3.64 l
0.37 -4.28 l
0.37 -4.81 l
0.37 -5.24 l
0.37 -5.55 l
0.37 -5.75 l
0.37 -5.81 l
0.37 -5.76 l
0.37 -5.62 l
0.37 -5.40 l
0.37 -5.14 l
0.37 -4.81 l
0.37 -4.43 l
0.37 -4.01 l
0.37 -3.60 l
0.37 -3.21 l
0.37 -2.83 l
0.37 -2.46 l
0.37 -2.11 l
0.37 -1.80 l
0.37 -1.48 l
0.37 -1.22 l
0.37 -1.02 l
0.37 -0.83 l
0.37 -0.67 l
0.37 -0.54 l
0.37 -0.44 l
0.38 -0.36 l
0.37 -0.31 l
0.37 -0.27 l
0.37 -0.26 l
0.37 -0.26 l
0.37 -0.27 l
0.37 -0.30 l
0.37 -0.34 l
0.37 -0.38 l
0.37 -0.43 l
0.37 -0.48 l
0.37 -0.53 l
0.37 -0.58 l
0.37 -0.64 l
0.37 -0.70 l
0.37 -0.75 l
0.37 -0.79 l
0.37 -0.84 l
0.37 -0.87 l
0.37 -0.90 l
0.37 -0.93 l
0.37 -0.96 l
0.37 -0.97 l
0.37 -0.98 l
0.37 -1.00 l
0.37 -0.99 l
0.37 -1.00 l
0.37 -0.99 l
0.38 -0.98 l
0.37 -0.98 l
0.37 -0.96 l
0.37 -0.95 l
0.37 -0.93 l
0.37 -0.92 l
0.37 -0.89 l
0.37 -0.87 l
0.37 -0.84 l
0.37 -0.82 l
0.37 -0.79 l
0.37 -0.77 l
0.37 -0.74 l
0.37 -0.71 l
0.37 -0.68 l
0.37 -0.66 l
0.37 -0.63 l
0.37 -0.60 l
0.37 -0.58 l
0.37 -0.56 l
0.37 -0.53 l
0.37 -0.51 l
0.37 -0.49 l
0.37 -0.48 l
0.37 -0.45 l
0.37 -0.43 l
0.37 -0.42 l
0.37 -0.40 l
0.38 -0.38 l
0.37 -0.37 l
0.37 -0.35 l
0.37 -0.34 l
0.37 -0.32 l
0.37 -0.31 l
0.37 -0.29 l
0.37 -0.28 l
0.37 -0.27 l
0.37 -0.25 l
0.37 -0.25 l
0.37 -0.23 l
0.37 -0.22 l
0.37 -0.22 l
0.37 -0.20 l
0.37 -0.20 l
246.23 90.60 lineto
0.37 -0.18 l
0.37 -0.18 l
0.37 -0.16 l
0.37 -0.16 l
0.37 -0.15 l
0.37 -0.15 l
0.37 -0.14 l
0.37 -0.13 l
0.37 -0.13 l
0.37 -0.12 l
0.37 -0.11 l
0.37 -0.11 l
0.38 -0.10 l
0.37 -0.10 l
0.37 -0.09 l
0.37 -0.09 l
0.37 -0.09 l
0.37 -0.08 l
0.37 -0.08 l
0.37 -0.08 l
0.37 -0.07 l
0.37 -0.07 l
0.37 -0.07 l
0.37 -0.07 l
0.37 -0.06 l
0.37 -0.06 l
0.37 -0.06 l
0.37 -0.06 l
0.37 -0.06 l
0.37 -0.06 l
0.37 -0.05 l
0.37 -0.05 l
0.37 -0.05 l
0.37 -0.05 l
0.37 -0.05 l
0.37 -0.04 l
0.37 -0.05 l
0.37 -0.04 l
0.37 -0.04 l
0.37 -0.03 l
0.38 -0.04 l
0.37 -0.03 l
0.37 -0.04 l
0.37 -0.03 l
0.37 -0.03 l
0.37 -0.03 l
0.37 -0.02 l
0.37 -0.03 l
0.37 -0.03 l
0.37 -0.02 l
0.37 -0.03 l
0.37 -0.02 l
0.37 -0.02 l
0.37 -0.03 l
0.37 -0.02 l
0.37 -0.02 l
0.37 -0.02 l
0.37 -0.02 l
0.37 -0.02 l
0.37 -0.02 l
0.37 -0.02 l
0.37 -0.02 l
0.37 -0.02 l
0.37 -0.01 l
0.37 -0.01 l
0.37 -0.01 l
0.37 -0.01 l
0.37 -0.01 l
0.37 -0.01 l
0.38 0 l
0.37 0 l
0.37 0 l
0.37 0 l
0.37 0 l
0.37 0 l
0.37 0 l
0.37 0.01 l
0.37 0 l
0.37 0.01 l
0.37 0 l
0.37 0.01 l
0.37 0 l
0.37 0.01 l
0.37 0 l
0.37 0 l
0.37 0.01 l
0.37 0 l
0.37 0 l
0.37 -0.01 l
0.37 0 l
0.37 -0.01 l
0.37 0 l
0.37 -0.01 l
0.37 -0.01 l
0.37 -0.01 l
0.37 -0.01 l
0.37 -0.01 l
0.38 -0.01 l
0.37 -0.02 l
283.27 86.38 lineto
0.37 -0.01 l
0.37 -0.01 l
0.37 -0.01 l
0.37 -0.01 l
0.37 -0.01 l
0.37 -0.01 l
0.37 -0.01 l
0.37 -0.01 l
0.37 0 l
0.37 -0.01 l
0.37 0 l
0.37 0 l
0.37 0 l
0.37 0 l
0.37 0 l
0.37 0 l
0.37 0 l
0.37 0 l
0.37 0 l
0.37 0 l
0.37 0 l
0.37 0.01 l
0.37 0 l
0.37 0 l
0.37 0 l
0.37 0 l
0.38 -0.01 l
0.37 0 l
0.37 0 l
0.37 0 l
0.37 0 l
0.37 0 l
0.37 -0.01 l
0.37 0 l
0.37 0 l
0.37 0 l
0.37 0 l
0.37 -0.01 l
0.37 0 l
0.37 0 l
0.37 0 l
0.37 0 l
0.37 0 l
0.37 -0.01 l
0.37 0 l
0.37 0 l
0.37 0 l
0.37 0 l
0.37 0 l
0.37 0 l
0.37 0 l
0.37 0 l
0.37 0 l
0.37 0 l
0.38 0 l
0.37 0 l
0.37 0 l
0.37 0 l
0.37 0.01 l
0.37 0 l
0.37 0 l
0.37 0 l
0.37 0 l
0.37 0 l
0.37 0 l
0.37 0 l
0.37 0 l
0.37 0 l
0.37 0 l
0.37 -0.01 l
0.37 0 l
0.37 -0.01 l
0.37 -0.01 l
0.37 0 l
0.37 -0.01 l
0.37 -0.01 l
0.37 -0.01 l
0.37 -0.01 l
0.37 -0.01 l
0.37 -0.01 l
0.37 -0.01 l
0.37 -0.01 l
0.37 -0.01 l
0.38 0 l
0.37 -0.01 l
0.37 -0.01 l
0.37 0 l
0.37 -0.01 l
0.37 -0.01 l
0.37 0 l
0.37 0 l
0.37 -0.01 l
0.37 0 l
0.37 0 l
0.37 0 l
0.37 0 l
0.37 0 l
0.37 0 l
0.37 0 l
320.30 86.10 lineto
0.37 0.01 l
0.37 0 l
0.37 0 l
0.37 0 l
0.37 0 l
0.37 0 l
0.37 0.01 l
0.37 0 l
0.37 0 l
0.37 0 l
0.37 0 l
0 0 l
-0.37 0 l
-0.37 0 l
-0.37 0 l
-0.37 -0.01 l
-0.37 0 l
-0.37 0 l
-0.37 0 l
-0.37 0 l
-0.37 0 l
-0.37 0 l
-0.37 -0.01 l
-0.37 0 l
-0.37 0 l
-0.37 0 l
-0.37 0 l
-0.37 0 l
-0.37 0 l
-0.37 0 l
-0.37 0 l
-0.37 0 l
-0.37 0.01 l
-0.37 0 l
-0.37 0 l
-0.37 0.01 l
-0.37 0 l
-0.37 0.01 l
-0.37 0.01 l
-0.38 0 l
-0.37 0.01 l
-0.37 0.01 l
-0.37 0 l
-0.37 0.01 l
-0.37 0.01 l
-0.37 0.01 l
-0.37 0 l
-0.37 0.01 l
-0.37 0 l
-0.37 0.01 l
-0.37 0 l
-0.37 0.01 l
-0.37 0 l
-0.37 0 l
-0.37 0.01 l
-0.37 0 l
-0.37 0 l
-0.37 0 l
-0.37 0 l
-0.37 -0.01 l
-0.37 0 l
-0.37 0 l
-0.37 0 l
-0.37 0 l
-0.37 -0.01 l
-0.37 0 l
-0.37 0 l
-0.37 0 l
-0.38 0 l
-0.37 0 l
-0.37 -0.01 l
-0.37 0 l
-0.37 0 l
-0.37 0 l
-0.37 0 l
-0.37 0 l
-0.37 0.01 l
-0.37 0 l
-0.37 0 l
-0.37 0 l
-0.37 0 l
-0.37 0 l
-0.37 0 l
-0.37 0 l
-0.37 0 l
-0.37 0 l
-0.37 0 l
-0.37 0 l
-0.37 0 l
-0.37 0 l
-0.37 0 l
-0.37 0 l
-0.37 0 l
-0.37 0 l
-0.37 0 l
-0.37 0 l
-0.38 0 l
-0.37 0 l
-0.37 0 l
291.78 86.21 lineto
-0.37 0 l
-0.37 0 l
-0.37 0 l
-0.37 0 l
-0.37 0 l
-0.37 0.01 l
-0.37 0 l
-0.37 0 l
-0.37 0 l
-0.37 0 l
-0.37 0 l
-0.37 0 l
-0.37 0 l
-0.37 0.01 l
-0.37 0 l
-0.37 0.01 l
-0.37 0 l
-0.37 0.01 l
-0.37 0.01 l
-0.37 0.01 l
-0.37 0.01 l
-0.37 0.01 l
-0.37 0.01 l
-0.37 0.01 l
-0.37 0.01 l
-0.38 0.01 l
-0.37 0.02 l
-0.37 0.01 l
-0.37 0.01 l
-0.37 0.01 l
-0.37 0.01 l
-0.37 0 l
-0.37 0.01 l
-0.37 0 l
-0.37 0.01 l
-0.37 0 l
-0.37 0 l
-0.37 0 l
-0.37 0 l
-0.37 0 l
-0.37 0 l
-0.37 -0.01 l
-0.37 0 l
-0.37 -0.01 l
-0.37 0 l
-0.37 -0.01 l
-0.37 0 l
-0.37 -0.01 l
-0.37 0 l
-0.37 -0.01 l
-0.37 0 l
-0.37 0 l
-0.37 0 l
-0.38 0 l
-0.37 0.01 l
-0.37 0 l
-0.37 0.01 l
-0.37 0 l
-0.37 0.01 l
-0.37 0.01 l
-0.37 0.01 l
-0.37 0.01 l
-0.37 0.01 l
-0.37 0.02 l
-0.37 0.01 l
-0.37 0.01 l
-0.37 0.02 l
-0.37 0.01 l
-0.37 0.02 l
-0.37 0.01 l
-0.37 0.02 l
-0.37 0.02 l
-0.37 0.01 l
-0.37 0.02 l
-0.37 0.02 l
-0.37 0.02 l
-0.37 0.01 l
-0.37 0.02 l
-0.37 0.02 l
-0.37 0.02 l
-0.37 0.02 l
-0.37 0.03 l
-0.38 0.02 l
-0.37 0.02 l
-0.37 0.03 l
-0.37 0.03 l
-0.37 0.03 l
-0.37 0.03 l
-0.37 0.03 l
-0.37 0.04 l
-0.37 0.04 l
-0.37 0.03 l
-0.37 0.05 l
-0.37 0.04 l
-0.37 0.05 l
-0.37 0.04 l
-0.37 0.05 l
-0.37 0.05 l
-0.37 0.06 l
254.75 87.45 lineto
-0.37 0.06 l
-0.37 0.06 l
-0.37 0.06 l
-0.37 0.07 l
-0.37 0.06 l
-0.37 0.07 l
-0.37 0.08 l
-0.37 0.07 l
-0.37 0.08 l
-0.37 0.08 l
-0.38 0.08 l
-0.37 0.09 l
-0.37 0.09 l
-0.37 0.09 l
-0.37 0.10 l
-0.37 0.11 l
-0.37 0.10 l
-0.37 0.11 l
-0.37 0.12 l
-0.37 0.12 l
-0.37 0.12 l
-0.37 0.13 l
-0.37 0.13 l
-0.37 0.14 l
-0.37 0.14 l
-0.37 0.15 l
-0.37 0.16 l
-0.37 0.16 l
-0.37 0.17 l
-0.37 0.17 l
-0.37 0.19 l
-0.37 0.20 l
-0.37 0.21 l
-0.37 0.21 l
-0.37 0.24 l
-0.37 0.24 l
-0.37 0.25 l
-0.37 0.27 l
-0.37 0.28 l
-0.38 0.30 l
-0.37 0.31 l
-0.37 0.32 l
-0.37 0.33 l
-0.37 0.35 l
-0.37 0.36 l
-0.37 0.37 l
-0.37 0.39 l
-0.37 0.40 l
-0.37 0.41 l
-0.37 0.43 l
-0.37 0.43 l
-0.37 0.45 l
-0.37 0.46 l
-0.37 0.47 l
-0.37 0.49 l
-0.37 0.50 l
-0.37 0.51 l
-0.37 0.52 l
-0.37 0.53 l
-0.37 0.54 l
-0.37 0.55 l
-0.37 0.56 l
-0.37 0.56 l
-0.37 0.57 l
-0.37 0.58 l
-0.37 0.58 l
-0.37 0.58 l
-0.38 0.58 l
-0.37 0.58 l
-0.37 0.58 l
-0.37 0.58 l
-0.37 0.58 l
-0.37 0.56 l
-0.37 0.56 l
-0.37 0.55 l
-0.37 0.53 l
-0.37 0.52 l
-0.37 0.50 l
-0.37 0.48 l
-0.37 0.45 l
-0.37 0.44 l
-0.37 0.40 l
-0.37 0.38 l
-0.37 0.34 l
-0.37 0.32 l
-0.37 0.29 l
-0.37 0.27 l
-0.37 0.24 l
-0.37 0.23 l
-0.37 0.20 l
-0.37 0.20 l
-0.37 0.20 l
-0.37 0.20 l
-0.37 0.22 l
-0.37 0.25 l
-0.38 0.29 l
-0.37 0.34 l
-0.37 0.42 l
-0.37 0.51 l
217.71 118.96 lineto
-0.37 0.74 l
-0.37 0.89 l
-0.37 1.04 l
-0.37 1.24 l
-0.37 1.46 l
-0.37 1.68 l
-0.37 1.92 l
-0.37 2.17 l
-0.37 2.41 l
-0.37 2.67 l
-0.37 2.93 l
-0.37 3.18 l
-0.37 3.39 l
-0.37 3.55 l
-0.37 3.68 l
-0.37 3.77 l
-0.37 3.78 l
-0.37 3.75 l
-0.37 3.60 l
-0.37 3.39 l
-0.37 3.11 l
-0.37 2.75 l
-0.37 2.34 l
-0.37 1.85 l
-0.38 1.28 l
-0.37 0.62 l
-0.37 -0.01 l
-0.37 -0.62 l
-0.37 -1.24 l
-0.37 -1.84 l
-0.37 -2.40 l
-0.37 -2.94 l
-0.37 -3.43 l
-0.37 -3.80 l
-0.37 -4.08 l
-0.37 -4.27 l
-0.37 -4.39 l
-0.37 -4.43 l
-0.37 -4.38 l
-0.37 -4.24 l
-0.37 -4.05 l
-0.37 -3.80 l
-0.37 -3.52 l
-0.37 -3.20 l
-0.37 -2.86 l
-0.37 -2.51 l
-0.37 -2.13 l
-0.37 -1.78 l
-0.37 -1.46 l
-0.37 -1.15 l
-0.37 -0.86 l
-0.37 -0.61 l
-0.38 -0.37 l
-0.37 -0.16 l
-0.37 0.01 l
-0.37 0.15 l
-0.37 0.27 l
-0.37 0.37 l
-0.37 0.44 l
-0.37 0.49 l
-0.37 0.54 l
-0.37 0.55 l
-0.37 0.57 l
-0.37 0.57 l
-0.37 0.56 l
-0.37 0.55 l
-0.37 0.54 l
-0.37 0.52 l
-0.37 0.49 l
-0.37 0.48 l
-0.37 0.45 l
-0.37 0.43 l
-0.37 0.41 l
-0.37 0.39 l
-0.37 0.37 l
-0.37 0.36 l
-0.37 0.34 l
-0.37 0.32 l
-0.37 0.31 l
-0.37 0.30 l
-0.37 0.29 l
-0.38 0.28 l
-0.37 0.26 l
-0.37 0.27 l
-0.37 0.25 l
-0.37 0.25 l
-0.37 0.24 l
-0.37 0.24 l
-0.37 0.22 l
-0.37 0.23 l
-0.37 0.21 l
-0.37 0.21 l
-0.37 0.19 l
-0.37 0.19 l
-0.37 0.17 l
-0.37 0.15 l
-0.37 0.14 l
-0.37 0.11 l
-0.37 0.09 l
180.68 126.46 lineto
-0.37 0.03 l
-0.37 0.01 l
-0.37 -0.03 l
-0.37 -0.06 l
-0.37 -0.11 l
-0.37 -0.14 l
-0.37 -0.18 l
-0.37 -0.21 l
-0.37 -0.26 l
-0.38 -0.30 l
-0.37 -0.33 l
-0.37 -0.37 l
-0.37 -0.40 l
-0.37 -0.44 l
-0.37 -0.47 l
-0.37 -0.50 l
-0.37 -0.53 l
-0.37 -0.55 l
-0.37 -0.58 l
-0.37 -0.59 l
-0.37 -0.62 l
-0.37 -0.64 l
-0.37 -0.65 l
-0.37 -0.67 l
-0.37 -0.67 l
-0.37 -0.69 l
-0.37 -0.69 l
-0.37 -0.70 l
-0.37 -0.71 l
-0.37 -0.70 l
-0.37 -0.70 l
-0.37 -0.70 l
-0.37 -0.69 l
-0.37 -0.69 l
-0.37 -0.67 l
-0.37 -0.67 l
-0.37 -0.66 l
-0.37 -0.65 l
-0.38 -0.64 l
-0.37 -0.63 l
-0.37 -0.61 l
-0.37 -0.61 l
-0.37 -0.59 l
-0.37 -0.58 l
-0.37 -0.58 l
-0.37 -0.55 l
-0.37 -0.55 l
-0.37 -0.53 l
-0.37 -0.52 l
-0.37 -0.50 l
-0.37 -0.49 l
-0.37 -0.48 l
-0.37 -0.45 l
-0.37 -0.44 l
-0.37 -0.42 l
-0.37 -0.40 l
-0.37 -0.38 l
-0.37 -0.36 l
-0.37 -0.34 l
-0.37 -0.31 l
-0.37 -0.30 l
-0.37 -0.28 l
-0.37 -0.27 l
-0.37 -0.24 l
-0.37 -0.23 l
-0.37 -0.22 l
-0.38 -0.20 l
-0.37 -0.19 l
-0.37 -0.18 l
-0.37 -0.17 l
-0.37 -0.17 l
-0.37 -0.16 l
-0.37 -0.15 l
-0.37 -0.14 l
-0.37 -0.14 l
-0.37 -0.14 l
-0.37 -0.13 l
-0.37 -0.12 l
-0.37 -0.11 l
-0.37 -0.10 l
-0.37 -0.09 l
-0.37 -0.08 l
-0.37 -0.07 l
-0.37 -0.05 l
-0.37 -0.03 l
-0.37 -0.01 l
-0.37 0 l
-0.37 0.02 l
-0.37 0.04 l
-0.37 0.05 l
-0.37 0.07 l
-0.37 0.08 l
-0.37 0.09 l
-0.37 0.10 l
-0.37 0.11 l
-0.38 0.10 l
-0.37 0.10 l
-0.37 0.08 l
-0.37 0.08 l
143.64 94.33 lineto
-0.37 0.03 l
-0.37 0.01 l
-0.37 -0.01 l
-0.37 -0.05 l
-0.37 -0.09 l
-0.37 -0.11 l
-0.37 -0.15 l
-0.37 -0.18 l
-0.37 -0.21 l
-0.37 -0.25 l
-0.37 -0.27 l
-0.37 -0.30 l
-0.37 -0.32 l
-0.37 -0.34 l
-0.37 -0.34 l
-0.37 -0.36 l
-0.37 -0.36 l
-0.37 -0.37 l
-0.37 -0.36 l
-0.37 -0.35 l
-0.37 -0.34 l
-0.37 -0.34 l
-0.37 -0.31 l
cp p1
np
 135.13 88.96 m
0.37 0.31 l
0.37 0.34 l
0.37 0.34 l
0.37 0.35 l
0.37 0.36 l
0.37 0.37 l
0.37 0.36 l
0.37 0.36 l
0.37 0.34 l
0.37 0.34 l
0.37 0.32 l
0.37 0.30 l
0.37 0.27 l
0.37 0.25 l
0.37 0.21 l
0.37 0.18 l
0.37 0.15 l
0.37 0.11 l
0.37 0.09 l
0.37 0.05 l
0.37 0.01 l
0.37 -0.01 l
0.37 -0.03 l
0.37 -0.06 l
0.37 -0.08 l
0.37 -0.08 l
0.37 -0.10 l
0.38 -0.10 l
0.37 -0.11 l
0.37 -0.10 l
0.37 -0.09 l
0.37 -0.08 l
0.37 -0.07 l
0.37 -0.05 l
0.37 -0.04 l
0.37 -0.02 l
0.37 0 l
0.37 0.01 l
0.37 0.03 l
0.37 0.05 l
0.37 0.07 l
0.37 0.08 l
0.37 0.09 l
0.37 0.10 l
0.37 0.11 l
0.37 0.12 l
0.37 0.13 l
0.37 0.14 l
0.37 0.14 l
0.37 0.14 l
0.37 0.15 l
0.37 0.16 l
0.37 0.17 l
0.37 0.17 l
0.37 0.18 l
0.37 0.19 l
0.38 0.20 l
0.37 0.22 l
0.37 0.23 l
0.37 0.24 l
0.37 0.27 l
0.37 0.28 l
0.37 0.30 l
0.37 0.31 l
0.37 0.34 l
0.37 0.36 l
0.37 0.38 l
0.37 0.40 l
0.37 0.42 l
0.37 0.44 l
0.37 0.45 l
0.37 0.48 l
0.37 0.49 l
0.37 0.50 l
0.37 0.52 l
0.37 0.53 l
0.37 0.55 l
0.37 0.55 l
0.37 0.58 l
0.37 0.58 l
0.37 0.59 l
0.37 0.61 l
0.37 0.61 l
0.37 0.63 l
0.38 0.64 l
0.37 0.65 l
0.37 0.66 l
0.37 0.67 l
0.37 0.67 l
0.37 0.69 l
0.37 0.69 l
0.37 0.70 l
0.37 0.70 l
0.37 0.70 l
0.37 0.71 l
0.37 0.70 l
0.37 0.69 l
0.37 0.69 l
0.37 0.67 l
172.16 118.54 lineto
0.37 0.65 l
0.37 0.64 l
0.37 0.62 l
0.37 0.59 l
0.37 0.58 l
0.37 0.55 l
0.37 0.53 l
0.37 0.50 l
0.37 0.47 l
0.37 0.44 l
0.37 0.40 l
0.37 0.37 l
0.37 0.33 l
0.38 0.30 l
0.37 0.26 l
0.37 0.21 l
0.37 0.18 l
0.37 0.14 l
0.37 0.11 l
0.37 0.06 l
0.37 0.03 l
0.37 -0.01 l
0.37 -0.03 l
0.37 -0.07 l
0.37 -0.09 l
0.37 -0.11 l
0.37 -0.14 l
0.37 -0.15 l
0.37 -0.17 l
0.37 -0.19 l
0.37 -0.19 l
0.37 -0.21 l
0.37 -0.21 l
0.37 -0.23 l
0.37 -0.22 l
0.37 -0.24 l
0.37 -0.24 l
0.37 -0.25 l
0.37 -0.25 l
0.37 -0.27 l
0.37 -0.26 l
0.38 -0.28 l
0.37 -0.29 l
0.37 -0.30 l
0.37 -0.31 l
0.37 -0.32 l
0.37 -0.34 l
0.37 -0.36 l
0.37 -0.37 l
0.37 -0.39 l
0.37 -0.41 l
0.37 -0.43 l
0.37 -0.45 l
0.37 -0.48 l
0.37 -0.49 l
0.37 -0.52 l
0.37 -0.54 l
0.37 -0.55 l
0.37 -0.56 l
0.37 -0.57 l
0.37 -0.57 l
0.37 -0.55 l
0.37 -0.54 l
0.37 -0.49 l
0.37 -0.44 l
0.37 -0.37 l
0.37 -0.27 l
0.37 -0.15 l
0.37 -0.01 l
0.37 0.16 l
0.38 0.37 l
0.37 0.61 l
0.37 0.86 l
0.37 1.15 l
0.37 1.46 l
0.37 1.78 l
0.37 2.13 l
0.37 2.51 l
0.37 2.86 l
0.37 3.20 l
0.37 3.52 l
0.37 3.80 l
0.37 4.05 l
0.37 4.24 l
0.37 4.38 l
0.37 4.43 l
0.37 4.39 l
0.37 4.27 l
0.37 4.08 l
0.37 3.80 l
0.37 3.43 l
0.37 2.94 l
0.37 2.40 l
0.37 1.84 l
0.37 1.24 l
0.37 0.62 l
0.37 0.01 l
0.37 -0.62 l
0.38 -1.28 l
209.20 178.40 lineto
0.37 -2.34 l
0.37 -2.75 l
0.37 -3.11 l
0.37 -3.39 l
0.37 -3.60 l
0.37 -3.75 l
0.37 -3.78 l
0.37 -3.77 l
0.37 -3.68 l
0.37 -3.55 l
0.37 -3.39 l
0.37 -3.18 l
0.37 -2.93 l
0.37 -2.67 l
0.37 -2.41 l
0.37 -2.17 l
0.37 -1.92 l
0.37 -1.68 l
0.37 -1.46 l
0.37 -1.24 l
0.37 -1.04 l
0.37 -0.89 l
0.37 -0.74 l
0.37 -0.61 l
0.37 -0.51 l
0.37 -0.42 l
0.37 -0.34 l
0.38 -0.29 l
0.37 -0.25 l
0.37 -0.22 l
0.37 -0.20 l
0.37 -0.20 l
0.37 -0.20 l
0.37 -0.20 l
0.37 -0.23 l
0.37 -0.24 l
0.37 -0.27 l
0.37 -0.29 l
0.37 -0.32 l
0.37 -0.34 l
0.37 -0.38 l
0.37 -0.40 l
0.37 -0.44 l
0.37 -0.45 l
0.37 -0.48 l
0.37 -0.50 l
0.37 -0.52 l
0.37 -0.53 l
0.37 -0.55 l
0.37 -0.56 l
0.37 -0.56 l
0.37 -0.58 l
0.37 -0.58 l
0.37 -0.58 l
0.37 -0.58 l
0.38 -0.58 l
0.37 -0.58 l
0.37 -0.58 l
0.37 -0.58 l
0.37 -0.57 l
0.37 -0.56 l
0.37 -0.56 l
0.37 -0.55 l
0.37 -0.54 l
0.37 -0.53 l
0.37 -0.52 l
0.37 -0.51 l
0.37 -0.50 l
0.37 -0.49 l
0.37 -0.47 l
0.37 -0.46 l
0.37 -0.45 l
0.37 -0.43 l
0.37 -0.43 l
0.37 -0.41 l
0.37 -0.40 l
0.37 -0.39 l
0.37 -0.37 l
0.37 -0.36 l
0.37 -0.35 l
0.37 -0.33 l
0.37 -0.32 l
0.37 -0.31 l
0.38 -0.30 l
0.37 -0.28 l
0.37 -0.27 l
0.37 -0.25 l
0.37 -0.24 l
0.37 -0.24 l
0.37 -0.21 l
0.37 -0.21 l
0.37 -0.20 l
0.37 -0.19 l
0.37 -0.17 l
0.37 -0.17 l
0.37 -0.16 l
0.37 -0.16 l
0.37 -0.15 l
0.37 -0.14 l
246.23 89.53 lineto
0.37 -0.13 l
0.37 -0.13 l
0.37 -0.12 l
0.37 -0.12 l
0.37 -0.12 l
0.37 -0.11 l
0.37 -0.10 l
0.37 -0.11 l
0.37 -0.10 l
0.37 -0.09 l
0.37 -0.09 l
0.37 -0.09 l
0.38 -0.08 l
0.37 -0.08 l
0.37 -0.08 l
0.37 -0.07 l
0.37 -0.08 l
0.37 -0.07 l
0.37 -0.06 l
0.37 -0.07 l
0.37 -0.06 l
0.37 -0.06 l
0.37 -0.06 l
0.37 -0.05 l
0.37 -0.06 l
0.37 -0.05 l
0.37 -0.05 l
0.37 -0.04 l
0.37 -0.05 l
0.37 -0.04 l
0.37 -0.05 l
0.37 -0.03 l
0.37 -0.04 l
0.37 -0.04 l
0.37 -0.03 l
0.37 -0.03 l
0.37 -0.03 l
0.37 -0.03 l
0.37 -0.03 l
0.37 -0.02 l
0.38 -0.02 l
0.37 -0.03 l
0.37 -0.02 l
0.37 -0.02 l
0.37 -0.02 l
0.37 -0.02 l
0.37 -0.01 l
0.37 -0.02 l
0.37 -0.02 l
0.37 -0.02 l
0.37 -0.01 l
0.37 -0.02 l
0.37 -0.02 l
0.37 -0.01 l
0.37 -0.02 l
0.37 -0.01 l
0.37 -0.02 l
0.37 -0.01 l
0.37 -0.01 l
0.37 -0.02 l
0.37 -0.01 l
0.37 -0.01 l
0.37 -0.01 l
0.37 -0.01 l
0.37 -0.01 l
0.37 0 l
0.37 -0.01 l
0.37 0 l
0.37 -0.01 l
0.38 0 l
0.37 0 l
0.37 0 l
0.37 0 l
0.37 0.01 l
0.37 0 l
0.37 0.01 l
0.37 0 l
0.37 0.01 l
0.37 0 l
0.37 0.01 l
0.37 0 l
0.37 0.01 l
0.37 0 l
0.37 0 l
0.37 0 l
0.37 0 l
0.37 0 l
0.37 0 l
0.37 -0.01 l
0.37 0 l
0.37 -0.01 l
0.37 0 l
0.37 -0.01 l
0.37 -0.01 l
0.37 -0.01 l
0.37 -0.01 l
0.37 -0.02 l
0.38 -0.01 l
0.37 -0.01 l
283.27 86.30 lineto
0.37 -0.01 l
0.37 -0.01 l
0.37 -0.01 l
0.37 -0.01 l
0.37 -0.01 l
0.37 -0.01 l
0.37 0 l
0.37 -0.01 l
0.37 0 l
0.37 -0.01 l
0.37 0 l
0.37 0 l
0.37 0 l
0.37 0 l
0.37 0 l
0.37 0 l
0.37 0 l
0.37 -0.01 l
0.37 0 l
0.37 0 l
0.37 0 l
0.37 0 l
0.37 0 l
0.37 0 l
0.37 0 l
0.37 0 l
0.38 0 l
0.37 0 l
0.37 0 l
0.37 0 l
0.37 0 l
0.37 0 l
0.37 0 l
0.37 0 l
0.37 0 l
0.37 0 l
0.37 0 l
0.37 0 l
0.37 0 l
0.37 0 l
0.37 0 l
0.37 0 l
0.37 0 l
0.37 0 l
0.37 0 l
0.37 0 l
0.37 -0.01 l
0.37 0 l
0.37 0 l
0.37 0 l
0.37 0 l
0.37 0 l
0.37 0.01 l
0.37 0 l
0.38 0 l
0.37 0 l
0.37 0 l
0.37 0 l
0.37 0.01 l
0.37 0 l
0.37 0 l
0.37 0 l
0.37 0 l
0.37 0.01 l
0.37 0 l
0.37 0 l
0.37 0 l
0.37 0 l
0.37 -0.01 l
0.37 0 l
0.37 0 l
0.37 -0.01 l
0.37 0 l
0.37 -0.01 l
0.37 0 l
0.37 -0.01 l
0.37 0 l
0.37 -0.01 l
0.37 -0.01 l
0.37 -0.01 l
0.37 0 l
0.37 -0.01 l
0.37 -0.01 l
0.38 0 l
0.37 -0.01 l
0.37 -0.01 l
0.37 0 l
0.37 -0.01 l
0.37 0 l
0.37 0 l
0.37 -0.01 l
0.37 0 l
0.37 0 l
0.37 0 l
0.37 0 l
0.37 0 l
0.37 0 l
0.37 0 l
0.37 0 l
320.30 86.10 lineto
0.37 0.01 l
0.37 0 l
0.37 0 l
0.37 0 l
0.37 0 l
0.37 0 l
0.37 0 l
0.37 0.01 l
0.37 0 l
0.37 0 l
0.37 0 l
0 -0.04 l
-0.37 0 l
-0.37 0 l
-0.37 0 l
-0.37 0 l
-0.37 0 l
-0.37 0 l
-0.37 0 l
-0.37 0 l
-0.37 0 l
-0.37 0 l
-0.37 0 l
-0.37 0 l
-0.37 0 l
-0.37 0 l
-0.37 0 l
-0.37 0 l
-0.37 0 l
-0.37 0 l
-0.37 0 l
-0.37 0 l
-0.37 0 l
-0.37 0 l
-0.37 0 l
-0.37 0.01 l
-0.37 0 l
-0.37 0 l
-0.37 0 l
-0.38 0 l
-0.37 0.01 l
-0.37 0 l
-0.37 0 l
-0.37 0.01 l
-0.37 0 l
-0.37 0 l
-0.37 0.01 l
-0.37 0 l
-0.37 0.01 l
-0.37 0 l
-0.37 0.01 l
-0.37 0 l
-0.37 0.01 l
-0.37 0 l
-0.37 0 l
-0.37 0.01 l
-0.37 0 l
-0.37 0.01 l
-0.37 0 l
-0.37 0 l
-0.37 0.01 l
-0.37 0 l
-0.37 0 l
-0.37 0 l
-0.37 0 l
-0.37 0.01 l
-0.37 0 l
-0.37 0 l
-0.38 0 l
-0.37 0 l
-0.37 0 l
-0.37 0 l
-0.37 0 l
-0.37 0.01 l
-0.37 0 l
-0.37 0 l
-0.37 0 l
-0.37 0 l
-0.37 0 l
-0.37 0 l
-0.37 0 l
-0.37 0 l
-0.37 -0.01 l
-0.37 0 l
-0.37 0 l
-0.37 -0.01 l
-0.37 0 l
-0.37 0 l
-0.37 -0.01 l
-0.37 0 l
-0.37 -0.01 l
-0.37 0 l
-0.37 0 l
-0.37 -0.01 l
-0.37 0 l
-0.37 -0.01 l
-0.38 0 l
-0.37 0 l
-0.37 0 l
291.78 86.14 lineto
-0.37 0 l
-0.37 0 l
-0.37 0 l
-0.37 0 l
-0.37 0 l
-0.37 0 l
-0.37 0 l
-0.37 0.01 l
-0.37 0 l
-0.37 0.01 l
-0.37 0 l
-0.37 0.01 l
-0.37 0 l
-0.37 0.01 l
-0.37 0 l
-0.37 0.01 l
-0.37 0.01 l
-0.37 0 l
-0.37 0.01 l
-0.37 0.01 l
-0.37 0.01 l
-0.37 0 l
-0.37 0.01 l
-0.37 0.01 l
-0.37 0 l
-0.38 0.01 l
-0.37 0 l
-0.37 0.01 l
-0.37 0 l
-0.37 0 l
-0.37 0 l
-0.37 0 l
-0.37 0 l
-0.37 0 l
-0.37 0 l
-0.37 0 l
-0.37 0 l
-0.37 0 l
-0.37 0 l
-0.37 -0.01 l
-0.37 0 l
-0.37 0 l
-0.37 0 l
-0.37 -0.01 l
-0.37 0 l
-0.37 0 l
-0.37 0 l
-0.37 0 l
-0.37 0 l
-0.37 0.01 l
-0.37 0 l
-0.37 0 l
-0.37 0 l
-0.38 0.01 l
-0.37 0 l
-0.37 0.01 l
-0.37 0 l
-0.37 0.01 l
-0.37 0.01 l
-0.37 0 l
-0.37 0.01 l
-0.37 0.01 l
-0.37 0 l
-0.37 0.01 l
-0.37 0 l
-0.37 0.01 l
-0.37 0.01 l
-0.37 0 l
-0.37 0.01 l
-0.37 0 l
-0.37 0.01 l
-0.37 0 l
-0.37 0 l
-0.37 0.01 l
-0.37 0 l
-0.37 0 l
-0.37 0 l
-0.37 0 l
-0.37 0 l
-0.37 0 l
-0.37 0 l
-0.37 0 l
-0.38 0 l
-0.37 0 l
-0.37 0 l
-0.37 0 l
-0.37 0 l
-0.37 0.01 l
-0.37 0 l
-0.37 0 l
-0.37 0.01 l
-0.37 0 l
-0.37 0.01 l
-0.37 0.01 l
-0.37 0.01 l
-0.37 0.01 l
-0.37 0.01 l
-0.37 0.02 l
-0.37 0.02 l
254.75 86.51 lineto
-0.37 0.02 l
-0.37 0.03 l
-0.37 0.03 l
-0.37 0.03 l
-0.37 0.03 l
-0.37 0.04 l
-0.37 0.04 l
-0.37 0.04 l
-0.37 0.04 l
-0.37 0.05 l
-0.38 0.04 l
-0.37 0.05 l
-0.37 0.05 l
-0.37 0.05 l
-0.37 0.06 l
-0.37 0.05 l
-0.37 0.06 l
-0.37 0.05 l
-0.37 0.06 l
-0.37 0.06 l
-0.37 0.06 l
-0.37 0.07 l
-0.37 0.06 l
-0.37 0.07 l
-0.37 0.06 l
-0.37 0.07 l
-0.37 0.08 l
-0.37 0.08 l
-0.37 0.08 l
-0.37 0.08 l
-0.37 0.09 l
-0.37 0.10 l
-0.37 0.10 l
-0.37 0.11 l
-0.37 0.11 l
-0.37 0.12 l
-0.37 0.13 l
-0.37 0.14 l
-0.37 0.15 l
-0.38 0.15 l
-0.37 0.16 l
-0.37 0.18 l
-0.37 0.18 l
-0.37 0.19 l
-0.37 0.20 l
-0.37 0.20 l
-0.37 0.22 l
-0.37 0.22 l
-0.37 0.24 l
-0.37 0.24 l
-0.37 0.25 l
-0.37 0.25 l
-0.37 0.27 l
-0.37 0.27 l
-0.37 0.28 l
-0.37 0.28 l
-0.37 0.29 l
-0.37 0.29 l
-0.37 0.30 l
-0.37 0.31 l
-0.37 0.31 l
-0.37 0.31 l
-0.37 0.31 l
-0.37 0.32 l
-0.37 0.32 l
-0.37 0.32 l
-0.37 0.32 l
-0.38 0.33 l
-0.37 0.31 l
-0.37 0.32 l
-0.37 0.31 l
-0.37 0.31 l
-0.37 0.31 l
-0.37 0.29 l
-0.37 0.28 l
-0.37 0.28 l
-0.37 0.26 l
-0.37 0.24 l
-0.37 0.24 l
-0.37 0.22 l
-0.37 0.20 l
-0.37 0.18 l
-0.37 0.17 l
-0.37 0.15 l
-0.37 0.14 l
-0.37 0.13 l
-0.37 0.12 l
-0.37 0.11 l
-0.37 0.11 l
-0.37 0.10 l
-0.37 0.11 l
-0.37 0.12 l
-0.37 0.13 l
-0.37 0.16 l
-0.37 0.18 l
-0.38 0.21 l
-0.37 0.25 l
-0.37 0.30 l
-0.37 0.34 l
217.71 103.66 lineto
-0.37 0.48 l
-0.37 0.55 l
-0.37 0.64 l
-0.37 0.73 l
-0.37 0.82 l
-0.37 0.92 l
-0.37 1.02 l
-0.37 1.13 l
-0.37 1.22 l
-0.37 1.32 l
-0.37 1.41 l
-0.37 1.50 l
-0.37 1.56 l
-0.37 1.60 l
-0.37 1.63 l
-0.37 1.64 l
-0.37 1.62 l
-0.37 1.57 l
-0.37 1.48 l
-0.37 1.36 l
-0.37 1.22 l
-0.37 1.04 l
-0.37 0.85 l
-0.37 0.63 l
-0.38 0.37 l
-0.37 0.08 l
-0.37 -0.17 l
-0.37 -0.44 l
-0.37 -0.70 l
-0.37 -0.95 l
-0.37 -1.18 l
-0.37 -1.41 l
-0.37 -1.61 l
-0.37 -1.75 l
-0.37 -1.85 l
-0.37 -1.94 l
-0.37 -1.98 l
-0.37 -2.00 l
-0.37 -1.96 l
-0.37 -1.90 l
-0.37 -1.82 l
-0.37 -1.70 l
-0.37 -1.58 l
-0.37 -1.44 l
-0.37 -1.28 l
-0.37 -1.12 l
-0.37 -0.95 l
-0.37 -0.80 l
-0.37 -0.64 l
-0.37 -0.51 l
-0.37 -0.36 l
-0.37 -0.23 l
-0.38 -0.12 l
-0.37 -0.01 l
-0.37 0.08 l
-0.37 0.15 l
-0.37 0.23 l
-0.37 0.28 l
-0.37 0.32 l
-0.37 0.37 l
-0.37 0.39 l
-0.37 0.42 l
-0.37 0.43 l
-0.37 0.45 l
-0.37 0.45 l
-0.37 0.46 l
-0.37 0.46 l
-0.37 0.45 l
-0.37 0.45 l
-0.37 0.44 l
-0.37 0.43 l
-0.37 0.43 l
-0.37 0.41 l
-0.37 0.39 l
-0.37 0.39 l
-0.37 0.36 l
-0.37 0.35 l
-0.37 0.33 l
-0.37 0.31 l
-0.37 0.30 l
-0.37 0.27 l
-0.38 0.26 l
-0.37 0.23 l
-0.37 0.22 l
-0.37 0.20 l
-0.37 0.18 l
-0.37 0.16 l
-0.37 0.15 l
-0.37 0.12 l
-0.37 0.12 l
-0.37 0.09 l
-0.37 0.09 l
-0.37 0.07 l
-0.37 0.05 l
-0.37 0.05 l
-0.37 0.02 l
-0.37 0.02 l
-0.37 -0.01 l
-0.37 -0.02 l
180.68 111.42 lineto
-0.37 -0.06 l
-0.37 -0.07 l
-0.37 -0.10 l
-0.37 -0.12 l
-0.37 -0.15 l
-0.37 -0.17 l
-0.37 -0.19 l
-0.37 -0.23 l
-0.37 -0.25 l
-0.38 -0.27 l
-0.37 -0.31 l
-0.37 -0.33 l
-0.37 -0.36 l
-0.37 -0.38 l
-0.37 -0.41 l
-0.37 -0.43 l
-0.37 -0.45 l
-0.37 -0.46 l
-0.37 -0.49 l
-0.37 -0.50 l
-0.37 -0.51 l
-0.37 -0.53 l
-0.37 -0.53 l
-0.37 -0.55 l
-0.37 -0.54 l
-0.37 -0.55 l
-0.37 -0.56 l
-0.37 -0.55 l
-0.37 -0.55 l
-0.37 -0.55 l
-0.37 -0.54 l
-0.37 -0.54 l
-0.37 -0.52 l
-0.37 -0.52 l
-0.37 -0.50 l
-0.37 -0.50 l
-0.37 -0.47 l
-0.37 -0.47 l
-0.38 -0.45 l
-0.37 -0.43 l
-0.37 -0.41 l
-0.37 -0.39 l
-0.37 -0.38 l
-0.37 -0.36 l
-0.37 -0.35 l
-0.37 -0.32 l
-0.37 -0.31 l
-0.37 -0.29 l
-0.37 -0.27 l
-0.37 -0.26 l
-0.37 -0.24 l
-0.37 -0.23 l
-0.37 -0.21 l
-0.37 -0.20 l
-0.37 -0.18 l
-0.37 -0.17 l
-0.37 -0.16 l
-0.37 -0.14 l
-0.37 -0.13 l
-0.37 -0.12 l
-0.37 -0.10 l
-0.37 -0.09 l
-0.37 -0.08 l
-0.37 -0.07 l
-0.37 -0.06 l
-0.37 -0.05 l
-0.38 -0.04 l
-0.37 -0.03 l
-0.37 -0.02 l
-0.37 -0.02 l
-0.37 0 l
-0.37 0 l
-0.37 0.01 l
-0.37 0.01 l
-0.37 0.02 l
-0.37 0.03 l
-0.37 0.03 l
-0.37 0.05 l
-0.37 0.04 l
-0.37 0.05 l
-0.37 0.06 l
-0.37 0.07 l
-0.37 0.07 l
-0.37 0.08 l
-0.37 0.09 l
-0.37 0.09 l
-0.37 0.10 l
-0.37 0.11 l
-0.37 0.11 l
-0.37 0.11 l
-0.37 0.12 l
-0.37 0.12 l
-0.37 0.12 l
-0.37 0.11 l
-0.37 0.12 l
-0.38 0.11 l
-0.37 0.10 l
-0.37 0.09 l
-0.37 0.07 l
143.64 91.80 lineto
-0.37 0.05 l
-0.37 0.02 l
-0.37 0.01 l
-0.37 -0.02 l
-0.37 -0.05 l
-0.37 -0.06 l
-0.37 -0.09 l
-0.37 -0.12 l
-0.37 -0.13 l
-0.37 -0.16 l
-0.37 -0.18 l
-0.37 -0.20 l
-0.37 -0.21 l
-0.37 -0.22 l
-0.37 -0.24 l
-0.37 -0.24 l
-0.37 -0.25 l
-0.37 -0.25 l
-0.37 -0.25 l
-0.37 -0.25 l
-0.37 -0.24 l
-0.37 -0.23 l
-0.37 -0.23 l
cp p1
np
 135.13 88.26 m
0.37 0.23 l
0.37 0.23 l
0.37 0.24 l
0.37 0.25 l
0.37 0.25 l
0.37 0.25 l
0.37 0.25 l
0.37 0.24 l
0.37 0.24 l
0.37 0.22 l
0.37 0.21 l
0.37 0.20 l
0.37 0.18 l
0.37 0.16 l
0.37 0.13 l
0.37 0.12 l
0.37 0.09 l
0.37 0.06 l
0.37 0.05 l
0.37 0.02 l
0.37 -0.01 l
0.37 -0.02 l
0.37 -0.05 l
0.37 -0.06 l
0.37 -0.07 l
0.37 -0.09 l
0.37 -0.10 l
0.38 -0.11 l
0.37 -0.12 l
0.37 -0.11 l
0.37 -0.12 l
0.37 -0.12 l
0.37 -0.12 l
0.37 -0.11 l
0.37 -0.11 l
0.37 -0.11 l
0.37 -0.10 l
0.37 -0.09 l
0.37 -0.09 l
0.37 -0.08 l
0.37 -0.07 l
0.37 -0.07 l
0.37 -0.06 l
0.37 -0.05 l
0.37 -0.04 l
0.37 -0.05 l
0.37 -0.03 l
0.37 -0.03 l
0.37 -0.02 l
0.37 -0.01 l
0.37 -0.01 l
0.37 0 l
0.37 0 l
0.37 0.02 l
0.37 0.02 l
0.37 0.03 l
0.38 0.04 l
0.37 0.05 l
0.37 0.06 l
0.37 0.07 l
0.37 0.08 l
0.37 0.09 l
0.37 0.10 l
0.37 0.12 l
0.37 0.13 l
0.37 0.14 l
0.37 0.16 l
0.37 0.17 l
0.37 0.18 l
0.37 0.20 l
0.37 0.21 l
0.37 0.23 l
0.37 0.24 l
0.37 0.26 l
0.37 0.27 l
0.37 0.29 l
0.37 0.31 l
0.37 0.32 l
0.37 0.35 l
0.37 0.36 l
0.37 0.38 l
0.37 0.39 l
0.37 0.41 l
0.37 0.43 l
0.38 0.45 l
0.37 0.47 l
0.37 0.47 l
0.37 0.50 l
0.37 0.50 l
0.37 0.52 l
0.37 0.52 l
0.37 0.54 l
0.37 0.54 l
0.37 0.55 l
0.37 0.55 l
0.37 0.55 l
0.37 0.56 l
0.37 0.55 l
0.37 0.54 l
172.16 104.12 lineto
0.37 0.53 l
0.37 0.53 l
0.37 0.51 l
0.37 0.50 l
0.37 0.49 l
0.37 0.46 l
0.37 0.45 l
0.37 0.43 l
0.37 0.41 l
0.37 0.38 l
0.37 0.36 l
0.37 0.33 l
0.37 0.31 l
0.38 0.27 l
0.37 0.25 l
0.37 0.23 l
0.37 0.19 l
0.37 0.17 l
0.37 0.15 l
0.37 0.12 l
0.37 0.10 l
0.37 0.07 l
0.37 0.06 l
0.37 0.03 l
0.37 0.02 l
0.37 0.01 l
0.37 -0.02 l
0.37 -0.02 l
0.37 -0.05 l
0.37 -0.05 l
0.37 -0.07 l
0.37 -0.09 l
0.37 -0.09 l
0.37 -0.12 l
0.37 -0.12 l
0.37 -0.15 l
0.37 -0.16 l
0.37 -0.18 l
0.37 -0.20 l
0.37 -0.22 l
0.37 -0.23 l
0.38 -0.26 l
0.37 -0.27 l
0.37 -0.30 l
0.37 -0.31 l
0.37 -0.33 l
0.37 -0.35 l
0.37 -0.36 l
0.37 -0.39 l
0.37 -0.39 l
0.37 -0.41 l
0.37 -0.43 l
0.37 -0.43 l
0.37 -0.44 l
0.37 -0.45 l
0.37 -0.45 l
0.37 -0.46 l
0.37 -0.46 l
0.37 -0.45 l
0.37 -0.45 l
0.37 -0.43 l
0.37 -0.42 l
0.37 -0.39 l
0.37 -0.37 l
0.37 -0.32 l
0.37 -0.28 l
0.37 -0.23 l
0.37 -0.15 l
0.37 -0.08 l
0.37 0.01 l
0.38 0.12 l
0.37 0.23 l
0.37 0.36 l
0.37 0.51 l
0.37 0.64 l
0.37 0.80 l
0.37 0.95 l
0.37 1.12 l
0.37 1.28 l
0.37 1.44 l
0.37 1.58 l
0.37 1.70 l
0.37 1.82 l
0.37 1.90 l
0.37 1.96 l
0.37 2.00 l
0.37 1.98 l
0.37 1.94 l
0.37 1.85 l
0.37 1.75 l
0.37 1.61 l
0.37 1.41 l
0.37 1.18 l
0.37 0.95 l
0.37 0.70 l
0.37 0.44 l
0.37 0.17 l
0.37 -0.08 l
0.38 -0.37 l
209.20 130.97 lineto
0.37 -0.85 l
0.37 -1.04 l
0.37 -1.22 l
0.37 -1.36 l
0.37 -1.48 l
0.37 -1.57 l
0.37 -1.62 l
0.37 -1.64 l
0.37 -1.63 l
0.37 -1.60 l
0.37 -1.56 l
0.37 -1.50 l
0.37 -1.41 l
0.37 -1.32 l
0.37 -1.22 l
0.37 -1.13 l
0.37 -1.02 l
0.37 -0.92 l
0.37 -0.82 l
0.37 -0.73 l
0.37 -0.64 l
0.37 -0.55 l
0.37 -0.48 l
0.37 -0.42 l
0.37 -0.34 l
0.37 -0.30 l
0.37 -0.25 l
0.38 -0.21 l
0.37 -0.18 l
0.37 -0.16 l
0.37 -0.13 l
0.37 -0.12 l
0.37 -0.11 l
0.37 -0.10 l
0.37 -0.11 l
0.37 -0.11 l
0.37 -0.12 l
0.37 -0.13 l
0.37 -0.14 l
0.37 -0.15 l
0.37 -0.17 l
0.37 -0.18 l
0.37 -0.20 l
0.37 -0.22 l
0.37 -0.24 l
0.37 -0.24 l
0.37 -0.26 l
0.37 -0.28 l
0.37 -0.28 l
0.37 -0.29 l
0.37 -0.31 l
0.37 -0.31 l
0.37 -0.31 l
0.37 -0.32 l
0.37 -0.31 l
0.38 -0.33 l
0.37 -0.32 l
0.37 -0.32 l
0.37 -0.32 l
0.37 -0.32 l
0.37 -0.31 l
0.37 -0.31 l
0.37 -0.31 l
0.37 -0.31 l
0.37 -0.30 l
0.37 -0.29 l
0.37 -0.29 l
0.37 -0.28 l
0.37 -0.28 l
0.37 -0.27 l
0.37 -0.27 l
0.37 -0.25 l
0.37 -0.25 l
0.37 -0.24 l
0.37 -0.24 l
0.37 -0.22 l
0.37 -0.22 l
0.37 -0.20 l
0.37 -0.20 l
0.37 -0.19 l
0.37 -0.18 l
0.37 -0.18 l
0.37 -0.16 l
0.38 -0.15 l
0.37 -0.15 l
0.37 -0.14 l
0.37 -0.13 l
0.37 -0.12 l
0.37 -0.11 l
0.37 -0.11 l
0.37 -0.10 l
0.37 -0.10 l
0.37 -0.09 l
0.37 -0.08 l
0.37 -0.08 l
0.37 -0.08 l
0.37 -0.08 l
0.37 -0.07 l
0.37 -0.06 l
246.23 87.58 lineto
0.37 -0.06 l
0.37 -0.07 l
0.37 -0.06 l
0.37 -0.06 l
0.37 -0.06 l
0.37 -0.05 l
0.37 -0.06 l
0.37 -0.05 l
0.37 -0.06 l
0.37 -0.05 l
0.37 -0.05 l
0.37 -0.05 l
0.38 -0.04 l
0.37 -0.05 l
0.37 -0.04 l
0.37 -0.04 l
0.37 -0.04 l
0.37 -0.04 l
0.37 -0.03 l
0.37 -0.03 l
0.37 -0.03 l
0.37 -0.03 l
0.37 -0.02 l
0.37 -0.02 l
0.37 -0.02 l
0.37 -0.02 l
0.37 -0.01 l
0.37 -0.01 l
0.37 -0.01 l
0.37 -0.01 l
0.37 -0.01 l
0.37 0 l
0.37 -0.01 l
0.37 0 l
0.37 0 l
0.37 -0.01 l
0.37 0 l
0.37 0 l
0.37 0 l
0.37 0 l
0.38 0 l
0.37 0 l
0.37 0 l
0.37 0 l
0.37 0 l
0.37 0 l
0.37 0 l
0.37 0 l
0.37 0 l
0.37 -0.01 l
0.37 0 l
0.37 0 l
0.37 -0.01 l
0.37 0 l
0.37 -0.01 l
0.37 0 l
0.37 -0.01 l
0.37 -0.01 l
0.37 0 l
0.37 -0.01 l
0.37 0 l
0.37 -0.01 l
0.37 -0.01 l
0.37 0 l
0.37 -0.01 l
0.37 -0.01 l
0.37 0 l
0.37 -0.01 l
0.37 0 l
0.38 -0.01 l
0.37 0 l
0.37 0 l
0.37 0 l
0.37 -0.01 l
0.37 0 l
0.37 0 l
0.37 0 l
0.37 0 l
0.37 0 l
0.37 0.01 l
0.37 0 l
0.37 0 l
0.37 0 l
0.37 0.01 l
0.37 0 l
0.37 0 l
0.37 0 l
0.37 0 l
0.37 0 l
0.37 0 l
0.37 0 l
0.37 0 l
0.37 0 l
0.37 0 l
0.37 0 l
0.37 -0.01 l
0.37 0 l
0.38 -0.01 l
0.37 0 l
283.27 86.24 lineto
0.37 -0.01 l
0.37 0 l
0.37 -0.01 l
0.37 -0.01 l
0.37 -0.01 l
0.37 0 l
0.37 -0.01 l
0.37 -0.01 l
0.37 0 l
0.37 -0.01 l
0.37 0 l
0.37 -0.01 l
0.37 0 l
0.37 -0.01 l
0.37 0 l
0.37 -0.01 l
0.37 0 l
0.37 0 l
0.37 0 l
0.37 0 l
0.37 0 l
0.37 0 l
0.37 0 l
0.37 0 l
0.37 0 l
0.37 0 l
0.38 0 l
0.37 0.01 l
0.37 0 l
0.37 0.01 l
0.37 0 l
0.37 0 l
0.37 0.01 l
0.37 0 l
0.37 0.01 l
0.37 0 l
0.37 0 l
0.37 0.01 l
0.37 0 l
0.37 0 l
0.37 0.01 l
0.37 0 l
0.37 0 l
0.37 0 l
0.37 0 l
0.37 0 l
0.37 0 l
0.37 0 l
0.37 0 l
0.37 -0.01 l
0.37 0 l
0.37 0 l
0.37 0 l
0.37 0 l
0.38 0 l
0.37 0 l
0.37 0 l
0.37 -0.01 l
0.37 0 l
0.37 0 l
0.37 0 l
0.37 0 l
0.37 -0.01 l
0.37 0 l
0.37 0 l
0.37 -0.01 l
0.37 0 l
0.37 -0.01 l
0.37 0 l
0.37 0 l
0.37 -0.01 l
0.37 0 l
0.37 -0.01 l
0.37 0 l
0.37 -0.01 l
0.37 0 l
0.37 -0.01 l
0.37 0 l
0.37 0 l
0.37 -0.01 l
0.37 0 l
0.37 0 l
0.37 -0.01 l
0.38 0 l
0.37 0 l
0.37 0 l
0.37 0 l
0.37 -0.01 l
0.37 0 l
0.37 0 l
0.37 0 l
0.37 0 l
0.37 0 l
0.37 0 l
0.37 0 l
0.37 0 l
0.37 0 l
0.37 0 l
0.37 0 l
320.30 86.08 lineto
0.37 0 l
0.37 0 l
0.37 0 l
0.37 0 l
0.37 0 l
0.37 0 l
0.37 0 l
0.37 0 l
0.37 0 l
0.37 0 l
0.37 0 l
0 0 l
-0.37 0 l
-0.37 0 l
-0.37 0 l
-0.37 0 l
-0.37 0 l
-0.37 0 l
-0.37 0 l
-0.37 0 l
-0.37 0 l
-0.37 0 l
-0.37 0 l
-0.37 0 l
-0.37 0 l
-0.37 0 l
-0.37 0 l
-0.37 0 l
-0.37 0 l
-0.37 0 l
-0.37 0 l
-0.37 0 l
-0.37 0 l
-0.37 0 l
-0.37 0 l
-0.37 0 l
-0.37 0 l
-0.37 0.01 l
-0.37 0 l
-0.38 0 l
-0.37 0 l
-0.37 0 l
-0.37 0 l
-0.37 0 l
-0.37 0.01 l
-0.37 0 l
-0.37 0 l
-0.37 0 l
-0.37 0.01 l
-0.37 0 l
-0.37 0 l
-0.37 0 l
-0.37 0 l
-0.37 0.01 l
-0.37 0 l
-0.37 0 l
-0.37 0 l
-0.37 0 l
-0.37 0.01 l
-0.37 0 l
-0.37 0 l
-0.37 0 l
-0.37 0 l
-0.37 0 l
-0.37 0 l
-0.37 0 l
-0.37 0 l
-0.37 0 l
-0.38 0 l
-0.37 0 l
-0.37 0 l
-0.37 0 l
-0.37 0 l
-0.37 0 l
-0.37 0 l
-0.37 0 l
-0.37 -0.01 l
-0.37 0 l
-0.37 0 l
-0.37 0 l
-0.37 0 l
-0.37 -0.01 l
-0.37 0 l
-0.37 0 l
-0.37 0 l
-0.37 0 l
-0.37 0 l
-0.37 -0.01 l
-0.37 0 l
-0.37 0 l
-0.37 0 l
-0.37 0 l
-0.37 0 l
-0.37 0 l
-0.37 0 l
-0.37 0 l
-0.38 0.01 l
-0.37 0 l
-0.37 0 l
291.78 86.11 lineto
-0.37 0 l
-0.37 0 l
-0.37 0.01 l
-0.37 0 l
-0.37 0 l
-0.37 0 l
-0.37 0.01 l
-0.37 0 l
-0.37 0 l
-0.37 0 l
-0.37 0.01 l
-0.37 0 l
-0.37 0 l
-0.37 0 l
-0.37 0.01 l
-0.37 0 l
-0.37 0 l
-0.37 0 l
-0.37 0.01 l
-0.37 0 l
-0.37 0 l
-0.37 0 l
-0.37 0 l
-0.37 0 l
-0.37 0 l
-0.38 0.01 l
-0.37 0 l
-0.37 0 l
-0.37 0 l
-0.37 0 l
-0.37 0 l
-0.37 0 l
-0.37 0 l
-0.37 0 l
-0.37 0 l
-0.37 0 l
-0.37 0 l
-0.37 -0.01 l
-0.37 0 l
-0.37 0 l
-0.37 0 l
-0.37 0.01 l
-0.37 0 l
-0.37 0 l
-0.37 0 l
-0.37 0 l
-0.37 0 l
-0.37 0 l
-0.37 0.01 l
-0.37 0 l
-0.37 0 l
-0.37 0.01 l
-0.37 0 l
-0.38 0.01 l
-0.37 0 l
-0.37 0.01 l
-0.37 0 l
-0.37 0.01 l
-0.37 0.01 l
-0.37 0 l
-0.37 0.01 l
-0.37 0 l
-0.37 0.01 l
-0.37 0.01 l
-0.37 0 l
-0.37 0.01 l
-0.37 0 l
-0.37 0.01 l
-0.37 0 l
-0.37 0.01 l
-0.37 0 l
-0.37 0.01 l
-0.37 0 l
-0.37 0 l
-0.37 0.01 l
-0.37 0 l
-0.37 0 l
-0.37 0 l
-0.37 0.01 l
-0.37 0 l
-0.37 0 l
-0.37 0 l
-0.38 0 l
-0.37 0 l
-0.37 0 l
-0.37 0 l
-0.37 0 l
-0.37 0 l
-0.37 0 l
-0.37 0 l
-0.37 0.01 l
-0.37 0 l
-0.37 0 l
-0.37 0 l
-0.37 0.01 l
-0.37 0 l
-0.37 0 l
-0.37 0.01 l
-0.37 0.01 l
254.75 86.37 lineto
-0.37 0.01 l
-0.37 0.01 l
-0.37 0.01 l
-0.37 0.01 l
-0.37 0.02 l
-0.37 0.02 l
-0.37 0.01 l
-0.37 0.02 l
-0.37 0.03 l
-0.37 0.02 l
-0.38 0.02 l
-0.37 0.03 l
-0.37 0.03 l
-0.37 0.02 l
-0.37 0.03 l
-0.37 0.03 l
-0.37 0.03 l
-0.37 0.04 l
-0.37 0.03 l
-0.37 0.03 l
-0.37 0.04 l
-0.37 0.03 l
-0.37 0.04 l
-0.37 0.03 l
-0.37 0.04 l
-0.37 0.04 l
-0.37 0.04 l
-0.37 0.04 l
-0.37 0.05 l
-0.37 0.04 l
-0.37 0.05 l
-0.37 0.06 l
-0.37 0.05 l
-0.37 0.06 l
-0.37 0.06 l
-0.37 0.07 l
-0.37 0.07 l
-0.37 0.08 l
-0.37 0.08 l
-0.38 0.09 l
-0.37 0.09 l
-0.37 0.09 l
-0.37 0.10 l
-0.37 0.11 l
-0.37 0.11 l
-0.37 0.11 l
-0.37 0.12 l
-0.37 0.12 l
-0.37 0.13 l
-0.37 0.14 l
-0.37 0.14 l
-0.37 0.14 l
-0.37 0.14 l
-0.37 0.15 l
-0.37 0.15 l
-0.37 0.16 l
-0.37 0.16 l
-0.37 0.16 l
-0.37 0.16 l
-0.37 0.17 l
-0.37 0.16 l
-0.37 0.17 l
-0.37 0.17 l
-0.37 0.17 l
-0.37 0.16 l
-0.37 0.17 l
-0.37 0.16 l
-0.38 0.16 l
-0.37 0.16 l
-0.37 0.16 l
-0.37 0.15 l
-0.37 0.14 l
-0.37 0.15 l
-0.37 0.13 l
-0.37 0.13 l
-0.37 0.13 l
-0.37 0.12 l
-0.37 0.11 l
-0.37 0.11 l
-0.37 0.10 l
-0.37 0.10 l
-0.37 0.09 l
-0.37 0.08 l
-0.37 0.09 l
-0.37 0.08 l
-0.37 0.08 l
-0.37 0.08 l
-0.37 0.08 l
-0.37 0.08 l
-0.37 0.09 l
-0.37 0.10 l
-0.37 0.11 l
-0.37 0.11 l
-0.37 0.13 l
-0.37 0.15 l
-0.38 0.17 l
-0.37 0.19 l
-0.37 0.21 l
-0.37 0.23 l
217.71 95.96 lineto
-0.37 0.29 l
-0.37 0.33 l
-0.37 0.36 l
-0.37 0.39 l
-0.37 0.43 l
-0.37 0.46 l
-0.37 0.50 l
-0.37 0.53 l
-0.37 0.56 l
-0.37 0.58 l
-0.37 0.61 l
-0.37 0.62 l
-0.37 0.63 l
-0.37 0.63 l
-0.37 0.62 l
-0.37 0.61 l
-0.37 0.59 l
-0.37 0.55 l
-0.37 0.51 l
-0.37 0.45 l
-0.37 0.39 l
-0.37 0.31 l
-0.37 0.24 l
-0.37 0.16 l
-0.38 0.06 l
-0.37 -0.04 l
-0.37 -0.13 l
-0.37 -0.23 l
-0.37 -0.32 l
-0.37 -0.40 l
-0.37 -0.48 l
-0.37 -0.57 l
-0.37 -0.63 l
-0.37 -0.68 l
-0.37 -0.72 l
-0.37 -0.74 l
-0.37 -0.77 l
-0.37 -0.77 l
-0.37 -0.76 l
-0.37 -0.74 l
-0.37 -0.71 l
-0.37 -0.68 l
-0.37 -0.63 l
-0.37 -0.58 l
-0.37 -0.52 l
-0.37 -0.46 l
-0.37 -0.40 l
-0.37 -0.33 l
-0.37 -0.28 l
-0.37 -0.22 l
-0.37 -0.15 l
-0.37 -0.09 l
-0.38 -0.05 l
-0.37 0 l
-0.37 0.04 l
-0.37 0.08 l
-0.37 0.11 l
-0.37 0.14 l
-0.37 0.17 l
-0.37 0.19 l
-0.37 0.21 l
-0.37 0.22 l
-0.37 0.23 l
-0.37 0.24 l
-0.37 0.24 l
-0.37 0.24 l
-0.37 0.25 l
-0.37 0.24 l
-0.37 0.24 l
-0.37 0.23 l
-0.37 0.23 l
-0.37 0.22 l
-0.37 0.22 l
-0.37 0.21 l
-0.37 0.19 l
-0.37 0.19 l
-0.37 0.18 l
-0.37 0.18 l
-0.37 0.16 l
-0.37 0.16 l
-0.37 0.15 l
-0.38 0.14 l
-0.37 0.14 l
-0.37 0.13 l
-0.37 0.12 l
-0.37 0.13 l
-0.37 0.12 l
-0.37 0.11 l
-0.37 0.11 l
-0.37 0.11 l
-0.37 0.11 l
-0.37 0.10 l
-0.37 0.11 l
-0.37 0.09 l
-0.37 0.09 l
-0.37 0.09 l
-0.37 0.08 l
-0.37 0.07 l
-0.37 0.07 l
180.68 101.42 lineto
-0.37 0.05 l
-0.37 0.03 l
-0.37 0.02 l
-0.37 0 l
-0.37 -0.01 l
-0.37 -0.03 l
-0.37 -0.04 l
-0.37 -0.06 l
-0.37 -0.09 l
-0.38 -0.10 l
-0.37 -0.12 l
-0.37 -0.14 l
-0.37 -0.15 l
-0.37 -0.17 l
-0.37 -0.20 l
-0.37 -0.21 l
-0.37 -0.22 l
-0.37 -0.24 l
-0.37 -0.25 l
-0.37 -0.26 l
-0.37 -0.28 l
-0.37 -0.29 l
-0.37 -0.29 l
-0.37 -0.30 l
-0.37 -0.31 l
-0.37 -0.31 l
-0.37 -0.31 l
-0.37 -0.32 l
-0.37 -0.32 l
-0.37 -0.32 l
-0.37 -0.32 l
-0.37 -0.32 l
-0.37 -0.32 l
-0.37 -0.31 l
-0.37 -0.31 l
-0.37 -0.31 l
-0.37 -0.30 l
-0.37 -0.30 l
-0.38 -0.29 l
-0.37 -0.28 l
-0.37 -0.28 l
-0.37 -0.27 l
-0.37 -0.26 l
-0.37 -0.26 l
-0.37 -0.25 l
-0.37 -0.23 l
-0.37 -0.23 l
-0.37 -0.23 l
-0.37 -0.21 l
-0.37 -0.20 l
-0.37 -0.20 l
-0.37 -0.18 l
-0.37 -0.17 l
-0.37 -0.17 l
-0.37 -0.15 l
-0.37 -0.15 l
-0.37 -0.14 l
-0.37 -0.12 l
-0.37 -0.12 l
-0.37 -0.11 l
-0.37 -0.10 l
-0.37 -0.09 l
-0.37 -0.08 l
-0.37 -0.07 l
-0.37 -0.07 l
-0.37 -0.05 l
-0.38 -0.05 l
-0.37 -0.05 l
-0.37 -0.04 l
-0.37 -0.03 l
-0.37 -0.02 l
-0.37 -0.02 l
-0.37 -0.02 l
-0.37 -0.01 l
-0.37 -0.01 l
-0.37 0 l
-0.37 0 l
-0.37 0 l
-0.37 0.01 l
-0.37 0.01 l
-0.37 0.02 l
-0.37 0.01 l
-0.37 0.03 l
-0.37 0.02 l
-0.37 0.03 l
-0.37 0.03 l
-0.37 0.04 l
-0.37 0.03 l
-0.37 0.04 l
-0.37 0.05 l
-0.37 0.04 l
-0.37 0.05 l
-0.37 0.04 l
-0.37 0.05 l
-0.37 0.04 l
-0.38 0.04 l
-0.37 0.04 l
-0.37 0.03 l
-0.37 0.03 l
143.64 89.18 lineto
-0.37 0.01 l
-0.37 0 l
-0.37 -0.01 l
-0.37 -0.02 l
-0.37 -0.03 l
-0.37 -0.04 l
-0.37 -0.06 l
-0.37 -0.06 l
-0.37 -0.08 l
-0.37 -0.09 l
-0.37 -0.10 l
-0.37 -0.11 l
-0.37 -0.11 l
-0.37 -0.12 l
-0.37 -0.13 l
-0.37 -0.13 l
-0.37 -0.13 l
-0.37 -0.13 l
-0.37 -0.13 l
-0.37 -0.14 l
-0.37 -0.12 l
-0.37 -0.13 l
-0.37 -0.11 l
cp p1
np
 135.13 87.21 m
0.37 0.11 l
0.37 0.13 l
0.37 0.12 l
0.37 0.14 l
0.37 0.13 l
0.37 0.13 l
0.37 0.13 l
0.37 0.13 l
0.37 0.13 l
0.37 0.12 l
0.37 0.11 l
0.37 0.11 l
0.37 0.10 l
0.37 0.09 l
0.37 0.08 l
0.37 0.06 l
0.37 0.06 l
0.37 0.04 l
0.37 0.03 l
0.37 0.02 l
0.37 0.01 l
0.37 0 l
0.37 -0.01 l
0.37 -0.02 l
0.37 -0.03 l
0.37 -0.03 l
0.37 -0.04 l
0.38 -0.04 l
0.37 -0.04 l
0.37 -0.05 l
0.37 -0.04 l
0.37 -0.05 l
0.37 -0.04 l
0.37 -0.05 l
0.37 -0.04 l
0.37 -0.03 l
0.37 -0.04 l
0.37 -0.03 l
0.37 -0.03 l
0.37 -0.02 l
0.37 -0.03 l
0.37 -0.01 l
0.37 -0.02 l
0.37 -0.01 l
0.37 -0.01 l
0.37 0 l
0.37 0 l
0.37 0 l
0.37 0.01 l
0.37 0.01 l
0.37 0.02 l
0.37 0.02 l
0.37 0.02 l
0.37 0.03 l
0.37 0.04 l
0.37 0.05 l
0.38 0.05 l
0.37 0.05 l
0.37 0.07 l
0.37 0.07 l
0.37 0.08 l
0.37 0.09 l
0.37 0.10 l
0.37 0.11 l
0.37 0.12 l
0.37 0.12 l
0.37 0.14 l
0.37 0.15 l
0.37 0.15 l
0.37 0.17 l
0.37 0.17 l
0.37 0.18 l
0.37 0.20 l
0.37 0.20 l
0.37 0.21 l
0.37 0.23 l
0.37 0.23 l
0.37 0.23 l
0.37 0.25 l
0.37 0.26 l
0.37 0.26 l
0.37 0.27 l
0.37 0.28 l
0.37 0.28 l
0.38 0.29 l
0.37 0.30 l
0.37 0.30 l
0.37 0.31 l
0.37 0.31 l
0.37 0.31 l
0.37 0.32 l
0.37 0.32 l
0.37 0.32 l
0.37 0.32 l
0.37 0.32 l
0.37 0.32 l
0.37 0.31 l
0.37 0.31 l
0.37 0.31 l
172.16 98.37 lineto
0.37 0.29 l
0.37 0.29 l
0.37 0.28 l
0.37 0.26 l
0.37 0.25 l
0.37 0.24 l
0.37 0.22 l
0.37 0.21 l
0.37 0.20 l
0.37 0.17 l
0.37 0.15 l
0.37 0.14 l
0.37 0.12 l
0.38 0.10 l
0.37 0.09 l
0.37 0.06 l
0.37 0.04 l
0.37 0.03 l
0.37 0.01 l
0.37 0 l
0.37 -0.02 l
0.37 -0.03 l
0.37 -0.05 l
0.37 -0.05 l
0.37 -0.07 l
0.37 -0.07 l
0.37 -0.08 l
0.37 -0.09 l
0.37 -0.09 l
0.37 -0.09 l
0.37 -0.11 l
0.37 -0.10 l
0.37 -0.11 l
0.37 -0.11 l
0.37 -0.11 l
0.37 -0.11 l
0.37 -0.12 l
0.37 -0.13 l
0.37 -0.12 l
0.37 -0.13 l
0.37 -0.14 l
0.38 -0.14 l
0.37 -0.15 l
0.37 -0.16 l
0.37 -0.16 l
0.37 -0.18 l
0.37 -0.18 l
0.37 -0.19 l
0.37 -0.19 l
0.37 -0.21 l
0.37 -0.22 l
0.37 -0.22 l
0.37 -0.23 l
0.37 -0.23 l
0.37 -0.24 l
0.37 -0.24 l
0.37 -0.25 l
0.37 -0.24 l
0.37 -0.24 l
0.37 -0.24 l
0.37 -0.23 l
0.37 -0.22 l
0.37 -0.21 l
0.37 -0.19 l
0.37 -0.17 l
0.37 -0.14 l
0.37 -0.11 l
0.37 -0.08 l
0.37 -0.04 l
0.37 0 l
0.38 0.05 l
0.37 0.09 l
0.37 0.15 l
0.37 0.22 l
0.37 0.28 l
0.37 0.33 l
0.37 0.40 l
0.37 0.46 l
0.37 0.52 l
0.37 0.58 l
0.37 0.63 l
0.37 0.68 l
0.37 0.71 l
0.37 0.74 l
0.37 0.76 l
0.37 0.77 l
0.37 0.77 l
0.37 0.74 l
0.37 0.72 l
0.37 0.68 l
0.37 0.63 l
0.37 0.57 l
0.37 0.48 l
0.37 0.40 l
0.37 0.32 l
0.37 0.23 l
0.37 0.13 l
0.37 0.04 l
0.38 -0.06 l
209.20 107.15 lineto
0.37 -0.24 l
0.37 -0.31 l
0.37 -0.39 l
0.37 -0.45 l
0.37 -0.51 l
0.37 -0.55 l
0.37 -0.59 l
0.37 -0.61 l
0.37 -0.62 l
0.37 -0.63 l
0.37 -0.63 l
0.37 -0.62 l
0.37 -0.61 l
0.37 -0.58 l
0.37 -0.56 l
0.37 -0.53 l
0.37 -0.50 l
0.37 -0.46 l
0.37 -0.43 l
0.37 -0.39 l
0.37 -0.36 l
0.37 -0.33 l
0.37 -0.29 l
0.37 -0.27 l
0.37 -0.23 l
0.37 -0.21 l
0.37 -0.19 l
0.38 -0.17 l
0.37 -0.15 l
0.37 -0.13 l
0.37 -0.11 l
0.37 -0.11 l
0.37 -0.10 l
0.37 -0.09 l
0.37 -0.08 l
0.37 -0.08 l
0.37 -0.08 l
0.37 -0.08 l
0.37 -0.08 l
0.37 -0.09 l
0.37 -0.08 l
0.37 -0.09 l
0.37 -0.10 l
0.37 -0.10 l
0.37 -0.11 l
0.37 -0.11 l
0.37 -0.12 l
0.37 -0.13 l
0.37 -0.13 l
0.37 -0.13 l
0.37 -0.15 l
0.37 -0.14 l
0.37 -0.15 l
0.37 -0.16 l
0.37 -0.16 l
0.38 -0.16 l
0.37 -0.16 l
0.37 -0.17 l
0.37 -0.16 l
0.37 -0.17 l
0.37 -0.17 l
0.37 -0.17 l
0.37 -0.16 l
0.37 -0.17 l
0.37 -0.16 l
0.37 -0.16 l
0.37 -0.16 l
0.37 -0.16 l
0.37 -0.15 l
0.37 -0.15 l
0.37 -0.14 l
0.37 -0.14 l
0.37 -0.14 l
0.37 -0.14 l
0.37 -0.13 l
0.37 -0.12 l
0.37 -0.12 l
0.37 -0.11 l
0.37 -0.11 l
0.37 -0.11 l
0.37 -0.10 l
0.37 -0.09 l
0.37 -0.09 l
0.38 -0.09 l
0.37 -0.08 l
0.37 -0.08 l
0.37 -0.07 l
0.37 -0.07 l
0.37 -0.06 l
0.37 -0.06 l
0.37 -0.05 l
0.37 -0.06 l
0.37 -0.05 l
0.37 -0.04 l
0.37 -0.05 l
0.37 -0.04 l
0.37 -0.04 l
0.37 -0.04 l
0.37 -0.04 l
246.23 86.93 lineto
0.37 -0.04 l
0.37 -0.03 l
0.37 -0.04 l
0.37 -0.03 l
0.37 -0.03 l
0.37 -0.04 l
0.37 -0.03 l
0.37 -0.03 l
0.37 -0.03 l
0.37 -0.02 l
0.37 -0.03 l
0.37 -0.03 l
0.38 -0.02 l
0.37 -0.02 l
0.37 -0.03 l
0.37 -0.02 l
0.37 -0.01 l
0.37 -0.02 l
0.37 -0.02 l
0.37 -0.01 l
0.37 -0.01 l
0.37 -0.01 l
0.37 -0.01 l
0.37 -0.01 l
0.37 -0.01 l
0.37 -0.01 l
0.37 0 l
0.37 0 l
0.37 -0.01 l
0.37 0 l
0.37 0 l
0.37 0 l
0.37 -0.01 l
0.37 0 l
0.37 0 l
0.37 0 l
0.37 0 l
0.37 0 l
0.37 0 l
0.37 0 l
0.38 0 l
0.37 0 l
0.37 0 l
0.37 0 l
0.37 -0.01 l
0.37 0 l
0.37 0 l
0.37 0 l
0.37 -0.01 l
0.37 0 l
0.37 0 l
0.37 -0.01 l
0.37 0 l
0.37 -0.01 l
0.37 0 l
0.37 -0.01 l
0.37 0 l
0.37 -0.01 l
0.37 0 l
0.37 -0.01 l
0.37 -0.01 l
0.37 0 l
0.37 -0.01 l
0.37 0 l
0.37 -0.01 l
0.37 -0.01 l
0.37 0 l
0.37 -0.01 l
0.37 0 l
0.38 -0.01 l
0.37 0 l
0.37 -0.01 l
0.37 0 l
0.37 0 l
0.37 -0.01 l
0.37 0 l
0.37 0 l
0.37 0 l
0.37 0 l
0.37 0 l
0.37 0 l
0.37 -0.01 l
0.37 0 l
0.37 0 l
0.37 0 l
0.37 0.01 l
0.37 0 l
0.37 0 l
0.37 0 l
0.37 0 l
0.37 0 l
0.37 0 l
0.37 0 l
0.37 0 l
0.37 0 l
0.37 0 l
0.37 0 l
0.38 -0.01 l
0.37 0 l
283.27 86.16 lineto
0.37 0 l
0.37 0 l
0.37 0 l
0.37 0 l
0.37 -0.01 l
0.37 0 l
0.37 0 l
0.37 0 l
0.37 -0.01 l
0.37 0 l
0.37 0 l
0.37 0 l
0.37 -0.01 l
0.37 0 l
0.37 0 l
0.37 0 l
0.37 -0.01 l
0.37 0 l
0.37 0 l
0.37 0 l
0.37 -0.01 l
0.37 0 l
0.37 0 l
0.37 0 l
0.37 0 l
0.37 0 l
0.38 -0.01 l
0.37 0 l
0.37 0 l
0.37 0 l
0.37 0 l
0.37 0 l
0.37 0 l
0.37 0 l
0.37 0 l
0.37 0.01 l
0.37 0 l
0.37 0 l
0.37 0 l
0.37 0 l
0.37 0 l
0.37 0.01 l
0.37 0 l
0.37 0 l
0.37 0 l
0.37 0 l
0.37 0.01 l
0.37 0 l
0.37 0 l
0.37 0 l
0.37 0 l
0.37 0 l
0.37 0 l
0.37 0 l
0.38 0 l
0.37 0 l
0.37 0 l
0.37 0 l
0.37 0 l
0.37 0 l
0.37 0 l
0.37 0 l
0.37 0 l
0.37 0 l
0.37 -0.01 l
0.37 0 l
0.37 0 l
0.37 0 l
0.37 0 l
0.37 -0.01 l
0.37 0 l
0.37 0 l
0.37 0 l
0.37 0 l
0.37 -0.01 l
0.37 0 l
0.37 0 l
0.37 0 l
0.37 -0.01 l
0.37 0 l
0.37 0 l
0.37 0 l
0.37 0 l
0.38 0 l
0.37 0 l
0.37 -0.01 l
0.37 0 l
0.37 0 l
0.37 0 l
0.37 0 l
0.37 0 l
0.37 0 l
0.37 0 l
0.37 0 l
0.37 0 l
0.37 0 l
0.37 0 l
0.37 0 l
0.37 0 l
320.30 86.08 lineto
0.37 0 l
0.37 0 l
0.37 0 l
0.37 0 l
0.37 0 l
0.37 0 l
0.37 0 l
0.37 0 l
0.37 0 l
0.37 0 l
0.37 0 l
0 0 l
-0.37 0 l
-0.37 0 l
-0.37 0 l
-0.37 0 l
-0.37 0 l
-0.37 0 l
-0.37 0 l
-0.37 0 l
-0.37 0 l
-0.37 0 l
-0.37 0 l
-0.37 0 l
-0.37 0 l
-0.37 0 l
-0.37 0 l
-0.37 0 l
-0.37 0 l
-0.37 0 l
-0.37 0 l
-0.37 0 l
-0.37 0 l
-0.37 0 l
-0.37 0 l
-0.37 0 l
-0.37 0 l
-0.37 0 l
-0.37 0 l
-0.38 0 l
-0.37 0 l
-0.37 0 l
-0.37 0 l
-0.37 0 l
-0.37 0 l
-0.37 0 l
-0.37 0 l
-0.37 0 l
-0.37 0 l
-0.37 0 l
-0.37 0 l
-0.37 0 l
-0.37 0 l
-0.37 0 l
-0.37 0 l
-0.37 0 l
-0.37 0 l
-0.37 0 l
-0.37 0 l
-0.37 0 l
-0.37 0 l
-0.37 0 l
-0.37 0 l
-0.37 0 l
-0.37 0 l
-0.37 0 l
-0.37 0 l
-0.37 0 l
-0.38 0 l
-0.37 0 l
-0.37 0 l
-0.37 0 l
-0.37 0 l
-0.37 0 l
-0.37 0 l
-0.37 0 l
-0.37 0 l
-0.37 0 l
-0.37 0 l
-0.37 0 l
-0.37 0 l
-0.37 0 l
-0.37 0 l
-0.37 0 l
-0.37 0 l
-0.37 0 l
-0.37 0 l
-0.37 0 l
-0.37 0 l
-0.37 0 l
-0.37 0 l
-0.37 0 l
-0.37 0 l
-0.37 0 l
-0.37 0 l
-0.37 0 l
-0.38 0 l
-0.37 0 l
-0.37 0 l
291.78 86.08 lineto
-0.37 0 l
-0.37 0 l
-0.37 0 l
-0.37 0 l
-0.37 0 l
-0.37 0 l
-0.37 0 l
-0.37 0 l
-0.37 0 l
-0.37 0 l
-0.37 0 l
-0.37 0 l
-0.37 0 l
-0.37 0 l
-0.37 0 l
-0.37 0 l
-0.37 0 l
-0.37 0 l
-0.37 0 l
-0.37 0 l
-0.37 0 l
-0.37 0 l
-0.37 0 l
-0.37 0 l
-0.37 0 l
-0.38 0 l
-0.37 0 l
-0.37 0 l
-0.37 0 l
-0.37 0 l
-0.37 0 l
-0.37 0 l
-0.37 0 l
-0.37 0 l
-0.37 0 l
-0.37 0 l
-0.37 0 l
-0.37 0 l
-0.37 0 l
-0.37 0 l
-0.37 0 l
-0.37 0 l
-0.37 0 l
-0.37 0 l
-0.37 0 l
-0.37 0 l
-0.37 0 l
-0.37 0 l
-0.37 0 l
-0.37 0 l
-0.37 0 l
-0.37 0 l
-0.37 0 l
-0.38 0 l
-0.37 0 l
-0.37 0 l
-0.37 0 l
-0.37 0 l
-0.37 0 l
-0.37 0 l
-0.37 0 l
-0.37 0 l
-0.37 0 l
-0.37 0 l
-0.37 0 l
-0.37 0 l
-0.37 0 l
-0.37 0 l
-0.37 0 l
-0.37 0 l
-0.37 0 l
-0.37 0 l
-0.37 0 l
-0.37 0 l
-0.37 0 l
-0.37 0 l
-0.37 0 l
-0.37 0 l
-0.37 0 l
-0.37 0 l
-0.37 0 l
-0.37 0 l
-0.38 0 l
-0.37 0 l
-0.37 0 l
-0.37 0 l
-0.37 0 l
-0.37 0 l
-0.37 0 l
-0.37 0 l
-0.37 0 l
-0.37 0 l
-0.37 0 l
-0.37 0 l
-0.37 0 l
-0.37 0 l
-0.37 0 l
-0.37 0 l
-0.37 0 l
254.75 86.08 lineto
-0.37 0 l
-0.37 0 l
-0.37 0 l
-0.37 0 l
-0.37 0 l
-0.37 0 l
-0.37 0 l
-0.37 0 l
-0.37 0 l
-0.37 0 l
-0.38 0 l
-0.37 0 l
-0.37 0 l
-0.37 0 l
-0.37 0 l
-0.37 0 l
-0.37 0 l
-0.37 0 l
-0.37 0 l
-0.37 0 l
-0.37 0 l
-0.37 0 l
-0.37 0 l
-0.37 0 l
-0.37 0 l
-0.37 0 l
-0.37 0 l
-0.37 0 l
-0.37 0 l
-0.37 0 l
-0.37 0 l
-0.37 0 l
-0.37 0 l
-0.37 0 l
-0.37 0 l
-0.37 0 l
-0.37 0 l
-0.37 0 l
-0.37 0 l
-0.38 0 l
-0.37 0 l
-0.37 0 l
-0.37 0 l
-0.37 0 l
-0.37 0 l
-0.37 0 l
-0.37 0 l
-0.37 0 l
-0.37 0 l
-0.37 0 l
-0.37 0 l
-0.37 0 l
-0.37 0 l
-0.37 0 l
-0.37 0 l
-0.37 0 l
-0.37 0 l
-0.37 0 l
-0.37 0 l
-0.37 0 l
-0.37 0 l
-0.37 0 l
-0.37 0 l
-0.37 0 l
-0.37 0 l
-0.37 0 l
-0.37 0 l
-0.38 0 l
-0.37 0 l
-0.37 0 l
-0.37 0 l
-0.37 0 l
-0.37 0 l
-0.37 0 l
-0.37 0 l
-0.37 0 l
-0.37 0 l
-0.37 0 l
-0.37 0 l
-0.37 0 l
-0.37 0 l
-0.37 0 l
-0.37 0 l
-0.37 0 l
-0.37 0 l
-0.37 0 l
-0.37 0 l
-0.37 0 l
-0.37 0 l
-0.37 0 l
-0.37 0 l
-0.37 0 l
-0.37 0 l
-0.37 0 l
-0.37 0 l
-0.38 0 l
-0.37 0 l
-0.37 0 l
-0.37 0 l
217.71 86.08 lineto
-0.37 0 l
-0.37 0 l
-0.37 0 l
-0.37 0 l
-0.37 0 l
-0.37 0 l
-0.37 0 l
-0.37 0 l
-0.37 0 l
-0.37 0 l
-0.37 0 l
-0.37 0 l
-0.37 0 l
-0.37 0 l
-0.37 0 l
-0.37 0 l
-0.37 0 l
-0.37 0 l
-0.37 0 l
-0.37 0 l
-0.37 0 l
-0.37 0 l
-0.37 0 l
-0.37 0 l
-0.38 0 l
-0.37 0 l
-0.37 0 l
-0.37 0 l
-0.37 0 l
-0.37 0 l
-0.37 0 l
-0.37 0 l
-0.37 0 l
-0.37 0 l
-0.37 0 l
-0.37 0 l
-0.37 0 l
-0.37 0 l
-0.37 0 l
-0.37 0 l
-0.37 0 l
-0.37 0 l
-0.37 0 l
-0.37 0 l
-0.37 0 l
-0.37 0 l
-0.37 0 l
-0.37 0 l
-0.37 0 l
-0.37 0 l
-0.37 0 l
-0.37 0 l
-0.38 0 l
-0.37 0 l
-0.37 0 l
-0.37 0 l
-0.37 0 l
-0.37 0 l
-0.37 0 l
-0.37 0 l
-0.37 0 l
-0.37 0 l
-0.37 0 l
-0.37 0 l
-0.37 0 l
-0.37 0 l
-0.37 0 l
-0.37 0 l
-0.37 0 l
-0.37 0 l
-0.37 0 l
-0.37 0 l
-0.37 0 l
-0.37 0 l
-0.37 0 l
-0.37 0 l
-0.37 0 l
-0.37 0 l
-0.37 0 l
-0.37 0 l
-0.37 0 l
-0.38 0 l
-0.37 0 l
-0.37 0 l
-0.37 0 l
-0.37 0 l
-0.37 0 l
-0.37 0 l
-0.37 0 l
-0.37 0 l
-0.37 0 l
-0.37 0 l
-0.37 0 l
-0.37 0 l
-0.37 0 l
-0.37 0 l
-0.37 0 l
-0.37 0 l
-0.37 0 l
180.68 86.08 lineto
-0.37 0 l
-0.37 0 l
-0.37 0 l
-0.37 0 l
-0.37 0 l
-0.37 0 l
-0.37 0 l
-0.37 0 l
-0.37 0 l
-0.38 0 l
-0.37 0 l
-0.37 0 l
-0.37 0 l
-0.37 0 l
-0.37 0 l
-0.37 0 l
-0.37 0 l
-0.37 0 l
-0.37 0 l
-0.37 0 l
-0.37 0 l
-0.37 0 l
-0.37 0 l
-0.37 0 l
-0.37 0 l
-0.37 0 l
-0.37 0 l
-0.37 0 l
-0.37 0 l
-0.37 0 l
-0.37 0 l
-0.37 0 l
-0.37 0 l
-0.37 0 l
-0.37 0 l
-0.37 0 l
-0.37 0 l
-0.37 0 l
-0.38 0 l
-0.37 0 l
-0.37 0 l
-0.37 0 l
-0.37 0 l
-0.37 0 l
-0.37 0 l
-0.37 0 l
-0.37 0 l
-0.37 0 l
-0.37 0 l
-0.37 0 l
-0.37 0 l
-0.37 0 l
-0.37 0 l
-0.37 0 l
-0.37 0 l
-0.37 0 l
-0.37 0 l
-0.37 0 l
-0.37 0 l
-0.37 0 l
-0.37 0 l
-0.37 0 l
-0.37 0 l
-0.37 0 l
-0.37 0 l
-0.37 0 l
-0.38 0 l
-0.37 0 l
-0.37 0 l
-0.37 0 l
-0.37 0 l
-0.37 0 l
-0.37 0 l
-0.37 0 l
-0.37 0 l
-0.37 0 l
-0.37 0 l
-0.37 0 l
-0.37 0 l
-0.37 0 l
-0.37 0 l
-0.37 0 l
-0.37 0 l
-0.37 0 l
-0.37 0 l
-0.37 0 l
-0.37 0 l
-0.37 0 l
-0.37 0 l
-0.37 0 l
-0.37 0 l
-0.37 0 l
-0.37 0 l
-0.37 0 l
-0.37 0 l
-0.38 0 l
-0.37 0 l
-0.37 0 l
-0.37 0 l
143.64 86.08 lineto
-0.37 0 l
-0.37 0 l
-0.37 0 l
-0.37 0 l
-0.37 0 l
-0.37 0 l
-0.37 0 l
-0.37 0 l
-0.37 0 l
-0.37 0 l
-0.37 0 l
-0.37 0 l
-0.37 0 l
-0.37 0 l
-0.37 0 l
-0.37 0 l
-0.37 0 l
-0.37 0 l
-0.37 0 l
-0.37 0 l
-0.37 0 l
-0.37 0 l
-0.37 0 l
cp p1
0.2000 0.2000 0.2000 srgb
1.07 setlinewidth
[] 0 setdash
125.66 78.81 208.17 159.80 r p1
0.00 0.00 432.00 324.00 cl
125.66 238.61 333.84 267.25 cl
125.66 238.61 333.84 267.25 cl
/bg { 0.8510 0.8510 0.8510 srgb } def
1 1 1 srgb
1.07 setlinewidth
[] 0 setdash
1 setlinecap
1 setlinejoin
10.00 setmiterlimit
125.66 238.61 208.17 28.64 r p3
/Font1 findfont 24 s
0.1020 0.1020 0.1020 srgb
229.75 244.31 (Length) .5 0 t
125.66 238.61 333.84 267.25 cl
125.66 238.61 333.84 267.25 cl
0.00 0.00 432.00 324.00 cl
0.00 0.00 432.00 324.00 cl
0.00 0.00 432.00 324.00 cl
0.00 0.00 432.00 324.00 cl
0.00 0.00 432.00 324.00 cl
0.00 0.00 432.00 324.00 cl
0.00 0.00 432.00 324.00 cl
0.00 0.00 432.00 324.00 cl
0.2000 0.2000 0.2000 srgb
1.07 setlinewidth
[] 0 setdash
0 setlinecap
1 setlinejoin
10.00 setmiterlimit
np
161.75 76.07 m
0 2.74 l
o
np
206.76 76.07 m
0 2.74 l
o
np
251.76 76.07 m
0 2.74 l
o
np
296.76 76.07 m
0 2.74 l
o
0.00 0.00 432.00 324.00 cl
0.00 0.00 432.00 324.00 cl
/Font1 findfont 24 s
0.3020 0.3020 0.3020 srgb
161.75 56.65 (1.5) .5 0 t
206.76 56.65 (2.0) .5 0 t
251.76 56.65 (2.5) .5 0 t
296.76 56.65 (3.0) .5 0 t
0.00 0.00 432.00 324.00 cl
0.00 0.00 432.00 324.00 cl
0.00 0.00 432.00 324.00 cl
0.00 0.00 432.00 324.00 cl
0.00 0.00 432.00 324.00 cl
0.00 0.00 432.00 324.00 cl
0.00 0.00 432.00 324.00 cl
0.00 0.00 432.00 324.00 cl
/Font1 findfont 24 s
0.3020 0.3020 0.3020 srgb
120.73 77.46 (0) 1 0 t
120.73 119.47 (10000) 1 0 t
120.73 161.48 (20000) 1 0 t
120.73 203.49 (30000) 1 0 t
0.00 0.00 432.00 324.00 cl
0.00 0.00 432.00 324.00 cl
0.2000 0.2000 0.2000 srgb
1.07 setlinewidth
[] 0 setdash
0 setlinecap
1 setlinejoin
10.00 setmiterlimit
np
122.92 86.08 m
2.74 0 l
o
np
122.92 128.09 m
2.74 0 l
o
np
122.92 170.09 m
2.74 0 l
o
np
122.92 212.10 m
2.74 0 l
o
0.00 0.00 432.00 324.00 cl
0.00 0.00 432.00 324.00 cl
0.00 0.00 432.00 324.00 cl
0.00 0.00 432.00 324.00 cl
0.00 0.00 432.00 324.00 cl
0.00 0.00 432.00 324.00 cl
0.00 0.00 432.00 324.00 cl
0.00 0.00 432.00 324.00 cl
/Font1 findfont 24 s
0 0 0 srgb
229.75 8.12 (log10 length) .5 0 t
0.00 0.00 432.00 324.00 cl
0.00 0.00 432.00 324.00 cl
/Font1 findfont 24 s
0 0 0 srgb
22.71 158.71 (Density) .5 90 t
0.00 0.00 432.00 324.00 cl
0.00 0.00 432.00 324.00 cl
0.00 0.00 432.00 324.00 cl
0.00 0.00 432.00 324.00 cl
0.00 0.00 432.00 324.00 cl
0.00 0.00 432.00 324.00 cl
0.00 0.00 432.00 324.00 cl
0.00 0.00 432.00 324.00 cl
/bg { 1 1 1 srgb } def
344.80 110.66 81.72 96.10 r p2
0.00 0.00 432.00 324.00 cl
0.00 0.00 432.00 324.00 cl
0.00 0.00 432.00 324.00 cl
0.00 0.00 432.00 324.00 cl
/Font1 findfont 11 s
0 0 0 srgb
350.28 192.06 (filename) 0 0 t
0.00 0.00 432.00 324.00 cl
0.00 0.00 432.00 324.00 cl
0.00 0.00 432.00 324.00 cl
/bg { 1 1 1 srgb } def
350.28 167.98 17.28 17.28 r p2
0.00 0.00 432.00 324.00 cl
0.00 0.00 432.00 324.00 cl
0 0 0 srgb
0.01 setlinewidth
[] 0 setdash
1 setlinecap
0 setlinejoin
10.00 setmiterlimit
350.28 167.98 17.28 17.28 r p1
0.00 0.00 432.00 324.00 cl
0.00 0.00 432.00 324.00 cl
/bg { 1 1 1 srgb } def
350.28 150.70 17.28 17.28 r p2
0.00 0.00 432.00 324.00 cl
0.00 0.00 432.00 324.00 cl
0 0 0 srgb
0.01 setlinewidth
[] 0 setdash
1 setlinecap
0 setlinejoin
10.00 setmiterlimit
350.28 150.70 17.28 17.28 r p1
0.00 0.00 432.00 324.00 cl
0.00 0.00 432.00 324.00 cl
/bg { 1 1 1 srgb } def
350.28 133.42 17.28 17.28 r p2
0.00 0.00 432.00 324.00 cl
0.00 0.00 432.00 324.00 cl
0 0 0 srgb
0.01 setlinewidth
[] 0 setdash
1 setlinecap
0 setlinejoin
10.00 setmiterlimit
350.28 133.42 17.28 17.28 r p1
0.00 0.00 432.00 324.00 cl
0.00 0.00 432.00 324.00 cl
/bg { 1 1 1 srgb } def
350.28 116.14 17.28 17.28 r p2
0.00 0.00 432.00 324.00 cl
0.00 0.00 432.00 324.00 cl
0 0 0 srgb
0.01 setlinewidth
[] 0 setdash
1 setlinecap
0 setlinejoin
10.00 setmiterlimit
350.28 116.14 17.28 17.28 r p1
0.00 0.00 432.00 324.00 cl
0.00 0.00 432.00 324.00 cl
0.00 0.00 432.00 324.00 cl
0.00 0.00 432.00 324.00 cl
/Font1 findfont 9 s
0 0 0 srgb
373.04 173.39 (do) 0 ta
-0.270 (xIgG) tb gr
0.00 0.00 432.00 324.00 cl
0.00 0.00 432.00 324.00 cl
0.00 0.00 432.00 324.00 cl
0.00 0.00 432.00 324.00 cl
0.00 0.00 432.00 324.00 cl
/Font1 findfont 9 s
0 0 0 srgb
373.04 156.11 (do) 0 ta
-0.270 (xRIG-I) tb gr
0.00 0.00 432.00 324.00 cl
0.00 0.00 432.00 324.00 cl
0.00 0.00 432.00 324.00 cl
0.00 0.00 432.00 324.00 cl
0.00 0.00 432.00 324.00 cl
/Font1 findfont 9 s
0 0 0 srgb
373.04 138.83 (nodo) 0 ta
-0.270 (xIgG) tb gr
0.00 0.00 432.00 324.00 cl
0.00 0.00 432.00 324.00 cl
0.00 0.00 432.00 324.00 cl
0.00 0.00 432.00 324.00 cl
0.00 0.00 432.00 324.00 cl
/Font1 findfont 9 s
0 0 0 srgb
373.04 121.55 (nodo) 0 ta
-0.270 (xRIG-I) tb gr
0.00 0.00 432.00 324.00 cl
0.00 0.00 432.00 324.00 cl
0.00 0.00 432.00 324.00 cl
0.00 0.00 432.00 324.00 cl
0.00 0.00 432.00 324.00 cl
0.00 0.00 432.00 324.00 cl
0.00 0.00 432.00 324.00 cl
/Font1 findfont 24 s
0 0 0 srgb
125.66 301.29 (Number of Contigs: 12076) 0 0 t
0.00 0.00 432.00 324.00 cl
0.00 0.00 432.00 324.00 cl
0.00 0.00 432.00 324.00 cl
0.00 0.00 432.00 324.00 cl
0.00 0.00 432.00 324.00 cl
0.00 0.00 432.00 324.00 cl
ep
%%Trailer
%%Pages: 1
%%EOF
